^D:\PROJECTS\PROM-SOFT\PROM-SOFT_1\ARM_SCALES_AUTO_V1.0.0\INCLUDE\REPORTS_RFID.H
D:\PROJECTS\PROM-SOFT\PROM-SOFT_1\ARM_SCALES_AUTO_V1.0.0\GENERATEDFILES\DEBUG\MOC_REPORTS_RFID.CPP
^D:\PROJECTS\PROM-SOFT\PROM-SOFT_1\ARM_SCALES_AUTO_V1.0.0\INCLUDE\MODELS\MAINTABLEMODEL.H
D:\PROJECTS\PROM-SOFT\PROM-SOFT_1\ARM_SCALES_AUTO_V1.0.0\GENERATEDFILES\DEBUG\MOC_MAINTABLEMODEL.CPP
^D:\PROJECTS\PROM-SOFT\PROM-SOFT_1\ARM_SCALES_AUTO_V1.0.0\INCLUDE\TARADICTIONARYMODEL.H
D:\PROJECTS\PROM-SOFT\PROM-SOFT_1\ARM_SCALES_AUTO_V1.0.0\GENERATEDFILES\DEBUG\MOC_TARADICTIONARYMODEL.CPP
^D:\PROJECTS\PROM-SOFT\PROM-SOFT_1\ARM_SCALES_AUTO_V1.0.0\INCLUDE\MYCLASS.H
D:\PROJECTS\PROM-SOFT\PROM-SOFT_1\ARM_SCALES_AUTO_V1.0.0\GENERATEDFILES\DEBUG\MOC_MYCLASS.CPP
^D:\PROJECTS\PROM-SOFT\PROM-SOFT_1\ARM_SCALES_AUTO_V1.0.0\INCLUDE\SERIALPORTCLASS.H
D:\PROJECTS\PROM-SOFT\PROM-SOFT_1\ARM_SCALES_AUTO_V1.0.0\GENERATEDFILES\DEBUG\MOC_SERIALPORTCLASS.CPP
^D:\PROJECTS\PROM-SOFT\PROM-SOFT_1\ARM_SCALES_AUTO_V1.0.0\INCLUDE\ACCEPTIONFORMS.H
D:\PROJECTS\PROM-SOFT\PROM-SOFT_1\ARM_SCALES_AUTO_V1.0.0\GENERATEDFILES\DEBUG\MOC_ACCEPTIONFORMS.CPP
^D:\PROJECTS\PROM-SOFT\PROM-SOFT_1\ARM_SCALES_AUTO_V1.0.0\INCLUDE\LOGINWINDOW.H
D:\PROJECTS\PROM-SOFT\PROM-SOFT_1\ARM_SCALES_AUTO_V1.0.0\GENERATEDFILES\DEBUG\MOC_LOGINWINDOW.CPP
^D:\PROJECTS\PROM-SOFT\PROM-SOFT_1\ARM_SCALES_AUTO_V1.0.0\INCLUDE\REPORTFORMCLASS.H
D:\PROJECTS\PROM-SOFT\PROM-SOFT_1\ARM_SCALES_AUTO_V1.0.0\GENERATEDFILES\DEBUG\MOC_REPORTFORMCLASS.CPP
^D:\PROJECTS\PROM-SOFT\PROM-SOFT_1\ARM_SCALES_AUTO_V1.0.0\INCLUDE\DICTIONARYFORM.H
D:\PROJECTS\PROM-SOFT\PROM-SOFT_1\ARM_SCALES_AUTO_V1.0.0\GENERATEDFILES\DEBUG\MOC_DICTIONARYFORM.CPP
^D:\PROJECTS\PROM-SOFT\PROM-SOFT_1\ARM_SCALES_AUTO_V1.0.0\INCLUDE\LOGEVENTSFORM.H
D:\PROJECTS\PROM-SOFT\PROM-SOFT_1\ARM_SCALES_AUTO_V1.0.0\GENERATEDFILES\DEBUG\MOC_LOGEVENTSFORM.CPP
^D:\PROJECTS\PROM-SOFT\PROM-SOFT_1\ARM_SCALES_AUTO_V1.0.0\QTSINGLEAPP\QTLOCALPEER.H
D:\PROJECTS\PROM-SOFT\PROM-SOFT_1\ARM_SCALES_AUTO_V1.0.0\GENERATEDFILES\DEBUG\MOC_QTLOCALPEER.CPP
^D:\PROJECTS\PROM-SOFT\PROM-SOFT_1\ARM_SCALES_AUTO_V1.0.0\QTSINGLEAPP\QTSINGLEAPPLICATION.H
D:\PROJECTS\PROM-SOFT\PROM-SOFT_1\ARM_SCALES_AUTO_V1.0.0\GENERATEDFILES\DEBUG\MOC_QTSINGLEAPPLICATION.CPP
^D:\PROJECTS\PROM-SOFT\PROM-SOFT_1\ARM_SCALES_AUTO_V1.0.0\QTSINGLEAPP\QTSINGLECOREAPPLICATION.H
D:\PROJECTS\PROM-SOFT\PROM-SOFT_1\ARM_SCALES_AUTO_V1.0.0\GENERATEDFILES\DEBUG\MOC_QTSINGLECOREAPPLICATION.CPP
^D:\PROJECTS\PROM-SOFT\PROM-SOFT_1\ARM_SCALES_AUTO_V1.0.0\INCLUDE\FORM_TTN.H
D:\PROJECTS\PROM-SOFT\PROM-SOFT_1\ARM_SCALES_AUTO_V1.0.0\GENERATEDFILES\DEBUG\MOC_FORM_TTN.CPP
^D:\PROJECTS\PROM-SOFT\PROM-SOFT_1\ARM_SCALES_AUTO_V1.0.0\INCLUDE\DIALOGVPSENSORS.H
D:\PROJECTS\PROM-SOFT\PROM-SOFT_1\ARM_SCALES_AUTO_V1.0.0\GENERATEDFILES\DEBUG\MOC_DIALOGVPSENSORS.CPP
^D:\PROJECTS\PROM-SOFT\PROM-SOFT_1\ARM_SCALES_AUTO_V1.0.0\INCLUDE\CARDREADERRFID.H
D:\PROJECTS\PROM-SOFT\PROM-SOFT_1\ARM_SCALES_AUTO_V1.0.0\GENERATEDFILES\DEBUG\MOC_CARDREADERRFID.CPP
^D:\PROJECTS\PROM-SOFT\PROM-SOFT_1\ARM_SCALES_AUTO_V1.0.0\INCLUDE\SETTINGS.H
D:\PROJECTS\PROM-SOFT\PROM-SOFT_1\ARM_SCALES_AUTO_V1.0.0\GENERATEDFILES\DEBUG\MOC_SETTINGS.CPP
^D:\PROJECTS\PROM-SOFT\PROM-SOFT_1\ARM_SCALES_AUTO_V1.0.0\INCLUDE\OPTIONALDEVICES.H
D:\PROJECTS\PROM-SOFT\PROM-SOFT_1\ARM_SCALES_AUTO_V1.0.0\GENERATEDFILES\DEBUG\MOC_OPTIONALDEVICES.CPP
^D:\PROJECTS\PROM-SOFT\PROM-SOFT_1\ARM_SCALES_AUTO_V1.0.0\INCLUDE\NUMBERANDTIMESTAMP.H
D:\PROJECTS\PROM-SOFT\PROM-SOFT_1\ARM_SCALES_AUTO_V1.0.0\GENERATEDFILES\DEBUG\MOC_NUMBERANDTIMESTAMP.CPP
^D:\PROJECTS\PROM-SOFT\PROM-SOFT_1\ARM_SCALES_AUTO_V1.0.0\INCLUDE\SPRAVOCHNIK_TARA.H
D:\PROJECTS\PROM-SOFT\PROM-SOFT_1\ARM_SCALES_AUTO_V1.0.0\GENERATEDFILES\DEBUG\MOC_SPRAVOCHNIK_TARA.CPP
^D:\PROJECTS\PROM-SOFT\PROM-SOFT_1\ARM_SCALES_AUTO_V1.0.0\INCLUDE\OPTIONS.H
D:\PROJECTS\PROM-SOFT\PROM-SOFT_1\ARM_SCALES_AUTO_V1.0.0\GENERATEDFILES\DEBUG\MOC_OPTIONS.CPP
^D:\PROJECTS\PROM-SOFT\PROM-SOFT_1\ARM_SCALES_AUTO_V1.0.0\INCLUDE\HIDDENWEIGHING.H
D:\PROJECTS\PROM-SOFT\PROM-SOFT_1\ARM_SCALES_AUTO_V1.0.0\GENERATEDFILES\DEBUG\MOC_HIDDENWEIGHING.CPP
^D:\PROJECTS\PROM-SOFT\PROM-SOFT_1\ARM_SCALES_AUTO_V1.0.0\INCLUDE\MAILSEND.H
D:\PROJECTS\PROM-SOFT\PROM-SOFT_1\ARM_SCALES_AUTO_V1.0.0\GENERATEDFILES\DEBUG\MOC_MAILSEND.CPP
^D:\PROJECTS\PROM-SOFT\PROM-SOFT_1\ARM_SCALES_AUTO_V1.0.0\INCLUDE\REGISTRATION_RFID.H
D:\PROJECTS\PROM-SOFT\PROM-SOFT_1\ARM_SCALES_AUTO_V1.0.0\GENERATEDFILES\DEBUG\MOC_REGISTRATION_RFID.CPP
^D:\PROJECTS\PROM-SOFT\PROM-SOFT_1\ARM_SCALES_AUTO_V1.0.0\INCLUDE\MODELS\REGISTRATIONMODEL.H
D:\PROJECTS\PROM-SOFT\PROM-SOFT_1\ARM_SCALES_AUTO_V1.0.0\GENERATEDFILES\DEBUG\MOC_REGISTRATIONMODEL.CPP
^D:\PROJECTS\PROM-SOFT\PROM-SOFT_1\ARM_SCALES_AUTO_V1.0.0\INCLUDE\MODELS\REPORTSTABLEMODEL.H
D:\PROJECTS\PROM-SOFT\PROM-SOFT_1\ARM_SCALES_AUTO_V1.0.0\GENERATEDFILES\DEBUG\MOC_REPORTSTABLEMODEL.CPP
^D:\PROJECTS\PROM-SOFT\PROM-SOFT_1\ARM_SCALES_AUTO_V1.0.0\FORMS\MYCLASS.UI
D:\PROJECTS\PROM-SOFT\PROM-SOFT_1\ARM_SCALES_AUTO_V1.0.0\GENERATEDFILES\UI_MYCLASS.H
^D:\PROJECTS\PROM-SOFT\PROM-SOFT_1\ARM_SCALES_AUTO_V1.0.0\FORMS\OPTIONALDEVICES.UI
D:\PROJECTS\PROM-SOFT\PROM-SOFT_1\ARM_SCALES_AUTO_V1.0.0\GENERATEDFILES\UI_OPTIONALDEVICES.H
^D:\PROJECTS\PROM-SOFT\PROM-SOFT_1\ARM_SCALES_AUTO_V1.0.0\FORMS\TTN.UI
D:\PROJECTS\PROM-SOFT\PROM-SOFT_1\ARM_SCALES_AUTO_V1.0.0\GENERATEDFILES\UI_TTN.H
^D:\PROJECTS\PROM-SOFT\PROM-SOFT_1\ARM_SCALES_AUTO_V1.0.0\FORMS\SPRAVOCHNIK_TARA.UI
D:\PROJECTS\PROM-SOFT\PROM-SOFT_1\ARM_SCALES_AUTO_V1.0.0\GENERATEDFILES\UI_SPRAVOCHNIK_TARA.H
^D:\PROJECTS\PROM-SOFT\PROM-SOFT_1\ARM_SCALES_AUTO_V1.0.0\FORMS\DIALOGVPSENSORS.UI
D:\PROJECTS\PROM-SOFT\PROM-SOFT_1\ARM_SCALES_AUTO_V1.0.0\GENERATEDFILES\UI_DIALOGVPSENSORS.H
^D:\PROJECTS\PROM-SOFT\PROM-SOFT_1\ARM_SCALES_AUTO_V1.0.0\FORMS\OPTIONS.UI
D:\PROJECTS\PROM-SOFT\PROM-SOFT_1\ARM_SCALES_AUTO_V1.0.0\GENERATEDFILES\UI_OPTIONS.H
^D:\PROJECTS\PROM-SOFT\PROM-SOFT_1\ARM_SCALES_AUTO_V1.0.0\FORMS\HIDDENWEIGHING.UI
D:\PROJECTS\PROM-SOFT\PROM-SOFT_1\ARM_SCALES_AUTO_V1.0.0\GENERATEDFILES\UI_HIDDENWEIGHING.H
^D:\PROJECTS\PROM-SOFT\PROM-SOFT_1\ARM_SCALES_AUTO_V1.0.0\FORMS\REGISTRATION_RFID.UI
D:\PROJECTS\PROM-SOFT\PROM-SOFT_1\ARM_SCALES_AUTO_V1.0.0\GENERATEDFILES\UI_REGISTRATION_RFID.H
^D:\PROJECTS\PROM-SOFT\PROM-SOFT_1\ARM_SCALES_AUTO_V1.0.0\FORMS\REPORTS_RFID.UI
D:\PROJECTS\PROM-SOFT\PROM-SOFT_1\ARM_SCALES_AUTO_V1.0.0\GENERATEDFILES\UI_REPORTS_RFID.H
^D:\PROJECTS\PROM-SOFT\PROM-SOFT_1\ARM_SCALES_AUTO_V1.0.0\INCLUDE\DB_DRIVER.H
D:\PROJECTS\PROM-SOFT\PROM-SOFT_1\ARM_SCALES_AUTO_V1.0.0\GENERATEDFILES\DEBUG\MOC_DB_DRIVER.CPP
^D:\PROJECTS\PROM-SOFT\PROM-SOFT\ARM_SCALES_AUTO_V1.0.0\INCLUDE\REPORTS_RFID.H
D:\PROJECTS\PROM-SOFT\PROM-SOFT\ARM_SCALES_AUTO_V1.0.0\GENERATEDFILES\DEBUG\MOC_REPORTS_RFID.CPP
^D:\PROJECTS\PROM-SOFT\PROM-SOFT\ARM_SCALES_AUTO_V1.0.0\INCLUDE\MODELS\MAINTABLEMODEL.H
D:\PROJECTS\PROM-SOFT\PROM-SOFT\ARM_SCALES_AUTO_V1.0.0\GENERATEDFILES\DEBUG\MOC_MAINTABLEMODEL.CPP
^D:\PROJECTS\PROM-SOFT\PROM-SOFT\ARM_SCALES_AUTO_V1.0.0\INCLUDE\TARADICTIONARYMODEL.H
D:\PROJECTS\PROM-SOFT\PROM-SOFT\ARM_SCALES_AUTO_V1.0.0\GENERATEDFILES\DEBUG\MOC_TARADICTIONARYMODEL.CPP
^D:\PROJECTS\PROM-SOFT\PROM-SOFT\ARM_SCALES_AUTO_V1.0.0\INCLUDE\MYCLASS.H
D:\PROJECTS\PROM-SOFT\PROM-SOFT\ARM_SCALES_AUTO_V1.0.0\GENERATEDFILES\DEBUG\MOC_MYCLASS.CPP
^D:\PROJECTS\PROM-SOFT\PROM-SOFT\ARM_SCALES_AUTO_V1.0.0\INCLUDE\SERIALPORTCLASS.H
D:\PROJECTS\PROM-SOFT\PROM-SOFT\ARM_SCALES_AUTO_V1.0.0\GENERATEDFILES\DEBUG\MOC_SERIALPORTCLASS.CPP
^D:\PROJECTS\PROM-SOFT\PROM-SOFT\ARM_SCALES_AUTO_V1.0.0\INCLUDE\ACCEPTIONFORMS.H
D:\PROJECTS\PROM-SOFT\PROM-SOFT\ARM_SCALES_AUTO_V1.0.0\GENERATEDFILES\DEBUG\MOC_ACCEPTIONFORMS.CPP
^D:\PROJECTS\PROM-SOFT\PROM-SOFT\ARM_SCALES_AUTO_V1.0.0\INCLUDE\DB_DRIVER.H
D:\PROJECTS\PROM-SOFT\PROM-SOFT\ARM_SCALES_AUTO_V1.0.0\GENERATEDFILES\DEBUG\MOC_DB_DRIVER.CPP
^D:\PROJECTS\PROM-SOFT\PROM-SOFT\ARM_SCALES_AUTO_V1.0.0\INCLUDE\LOGINWINDOW.H
D:\PROJECTS\PROM-SOFT\PROM-SOFT\ARM_SCALES_AUTO_V1.0.0\GENERATEDFILES\DEBUG\MOC_LOGINWINDOW.CPP
^D:\PROJECTS\PROM-SOFT\PROM-SOFT\ARM_SCALES_AUTO_V1.0.0\INCLUDE\REPORTFORMCLASS.H
D:\PROJECTS\PROM-SOFT\PROM-SOFT\ARM_SCALES_AUTO_V1.0.0\GENERATEDFILES\DEBUG\MOC_REPORTFORMCLASS.CPP
^D:\PROJECTS\PROM-SOFT\PROM-SOFT\ARM_SCALES_AUTO_V1.0.0\INCLUDE\DICTIONARYFORM.H
D:\PROJECTS\PROM-SOFT\PROM-SOFT\ARM_SCALES_AUTO_V1.0.0\GENERATEDFILES\DEBUG\MOC_DICTIONARYFORM.CPP
^D:\PROJECTS\PROM-SOFT\PROM-SOFT\ARM_SCALES_AUTO_V1.0.0\INCLUDE\LOGEVENTSFORM.H
D:\PROJECTS\PROM-SOFT\PROM-SOFT\ARM_SCALES_AUTO_V1.0.0\GENERATEDFILES\DEBUG\MOC_LOGEVENTSFORM.CPP
^D:\PROJECTS\PROM-SOFT\PROM-SOFT\ARM_SCALES_AUTO_V1.0.0\QTSINGLEAPP\QTLOCALPEER.H
D:\PROJECTS\PROM-SOFT\PROM-SOFT\ARM_SCALES_AUTO_V1.0.0\GENERATEDFILES\DEBUG\MOC_QTLOCALPEER.CPP
^D:\PROJECTS\PROM-SOFT\PROM-SOFT\ARM_SCALES_AUTO_V1.0.0\QTSINGLEAPP\QTSINGLEAPPLICATION.H
D:\PROJECTS\PROM-SOFT\PROM-SOFT\ARM_SCALES_AUTO_V1.0.0\GENERATEDFILES\DEBUG\MOC_QTSINGLEAPPLICATION.CPP
^D:\PROJECTS\PROM-SOFT\PROM-SOFT\ARM_SCALES_AUTO_V1.0.0\QTSINGLEAPP\QTSINGLECOREAPPLICATION.H
D:\PROJECTS\PROM-SOFT\PROM-SOFT\ARM_SCALES_AUTO_V1.0.0\GENERATEDFILES\DEBUG\MOC_QTSINGLECOREAPPLICATION.CPP
^D:\PROJECTS\PROM-SOFT\PROM-SOFT\ARM_SCALES_AUTO_V1.0.0\INCLUDE\FORM_TTN.H
D:\PROJECTS\PROM-SOFT\PROM-SOFT\ARM_SCALES_AUTO_V1.0.0\GENERATEDFILES\DEBUG\MOC_FORM_TTN.CPP
^D:\PROJECTS\PROM-SOFT\PROM-SOFT\ARM_SCALES_AUTO_V1.0.0\INCLUDE\DIALOGVPSENSORS.H
D:\PROJECTS\PROM-SOFT\PROM-SOFT\ARM_SCALES_AUTO_V1.0.0\GENERATEDFILES\DEBUG\MOC_DIALOGVPSENSORS.CPP
^D:\PROJECTS\PROM-SOFT\PROM-SOFT\ARM_SCALES_AUTO_V1.0.0\INCLUDE\CARDREADERRFID.H
D:\PROJECTS\PROM-SOFT\PROM-SOFT\ARM_SCALES_AUTO_V1.0.0\GENERATEDFILES\DEBUG\MOC_CARDREADERRFID.CPP
^D:\PROJECTS\PROM-SOFT\PROM-SOFT\ARM_SCALES_AUTO_V1.0.0\INCLUDE\SETTINGS.H
D:\PROJECTS\PROM-SOFT\PROM-SOFT\ARM_SCALES_AUTO_V1.0.0\GENERATEDFILES\DEBUG\MOC_SETTINGS.CPP
^D:\PROJECTS\PROM-SOFT\PROM-SOFT\ARM_SCALES_AUTO_V1.0.0\INCLUDE\OPTIONALDEVICES.H
D:\PROJECTS\PROM-SOFT\PROM-SOFT\ARM_SCALES_AUTO_V1.0.0\GENERATEDFILES\DEBUG\MOC_OPTIONALDEVICES.CPP
^D:\PROJECTS\PROM-SOFT\PROM-SOFT\ARM_SCALES_AUTO_V1.0.0\INCLUDE\NUMBERANDTIMESTAMP.H
D:\PROJECTS\PROM-SOFT\PROM-SOFT\ARM_SCALES_AUTO_V1.0.0\GENERATEDFILES\DEBUG\MOC_NUMBERANDTIMESTAMP.CPP
^D:\PROJECTS\PROM-SOFT\PROM-SOFT\ARM_SCALES_AUTO_V1.0.0\INCLUDE\SPRAVOCHNIK_TARA.H
D:\PROJECTS\PROM-SOFT\PROM-SOFT\ARM_SCALES_AUTO_V1.0.0\GENERATEDFILES\DEBUG\MOC_SPRAVOCHNIK_TARA.CPP
^D:\PROJECTS\PROM-SOFT\PROM-SOFT\ARM_SCALES_AUTO_V1.0.0\INCLUDE\OPTIONS.H
D:\PROJECTS\PROM-SOFT\PROM-SOFT\ARM_SCALES_AUTO_V1.0.0\GENERATEDFILES\DEBUG\MOC_OPTIONS.CPP
^D:\PROJECTS\PROM-SOFT\PROM-SOFT\ARM_SCALES_AUTO_V1.0.0\INCLUDE\HIDDENWEIGHING.H
D:\PROJECTS\PROM-SOFT\PROM-SOFT\ARM_SCALES_AUTO_V1.0.0\GENERATEDFILES\DEBUG\MOC_HIDDENWEIGHING.CPP
^D:\PROJECTS\PROM-SOFT\PROM-SOFT\ARM_SCALES_AUTO_V1.0.0\INCLUDE\MAILSEND.H
D:\PROJECTS\PROM-SOFT\PROM-SOFT\ARM_SCALES_AUTO_V1.0.0\GENERATEDFILES\DEBUG\MOC_MAILSEND.CPP
^D:\PROJECTS\PROM-SOFT\PROM-SOFT\ARM_SCALES_AUTO_V1.0.0\INCLUDE\REGISTRATION_RFID.H
D:\PROJECTS\PROM-SOFT\PROM-SOFT\ARM_SCALES_AUTO_V1.0.0\GENERATEDFILES\DEBUG\MOC_REGISTRATION_RFID.CPP
^D:\PROJECTS\PROM-SOFT\PROM-SOFT\ARM_SCALES_AUTO_V1.0.0\INCLUDE\MODELS\REGISTRATIONMODEL.H
D:\PROJECTS\PROM-SOFT\PROM-SOFT\ARM_SCALES_AUTO_V1.0.0\GENERATEDFILES\DEBUG\MOC_REGISTRATIONMODEL.CPP
^D:\PROJECTS\PROM-SOFT\PROM-SOFT\ARM_SCALES_AUTO_V1.0.0\INCLUDE\MODELS\REPORTSTABLEMODEL.H
D:\PROJECTS\PROM-SOFT\PROM-SOFT\ARM_SCALES_AUTO_V1.0.0\GENERATEDFILES\DEBUG\MOC_REPORTSTABLEMODEL.CPP
^D:\PROJECTS\PROM-SOFT\PROM-SOFT\ARM_SCALES_AUTO_V1.0.0\FORMS\MYCLASS.UI
D:\PROJECTS\PROM-SOFT\PROM-SOFT\ARM_SCALES_AUTO_V1.0.0\GENERATEDFILES\UI_MYCLASS.H
^D:\PROJECTS\PROM-SOFT\PROM-SOFT\ARM_SCALES_AUTO_V1.0.0\FORMS\OPTIONALDEVICES.UI
D:\PROJECTS\PROM-SOFT\PROM-SOFT\ARM_SCALES_AUTO_V1.0.0\GENERATEDFILES\UI_OPTIONALDEVICES.H
^D:\PROJECTS\PROM-SOFT\PROM-SOFT\ARM_SCALES_AUTO_V1.0.0\FORMS\TTN.UI
D:\PROJECTS\PROM-SOFT\PROM-SOFT\ARM_SCALES_AUTO_V1.0.0\GENERATEDFILES\UI_TTN.H
^D:\PROJECTS\PROM-SOFT\PROM-SOFT\ARM_SCALES_AUTO_V1.0.0\FORMS\SPRAVOCHNIK_TARA.UI
D:\PROJECTS\PROM-SOFT\PROM-SOFT\ARM_SCALES_AUTO_V1.0.0\GENERATEDFILES\UI_SPRAVOCHNIK_TARA.H
^D:\PROJECTS\PROM-SOFT\PROM-SOFT\ARM_SCALES_AUTO_V1.0.0\FORMS\DIALOGVPSENSORS.UI
D:\PROJECTS\PROM-SOFT\PROM-SOFT\ARM_SCALES_AUTO_V1.0.0\GENERATEDFILES\UI_DIALOGVPSENSORS.H
^D:\PROJECTS\PROM-SOFT\PROM-SOFT\ARM_SCALES_AUTO_V1.0.0\FORMS\OPTIONS.UI
D:\PROJECTS\PROM-SOFT\PROM-SOFT\ARM_SCALES_AUTO_V1.0.0\GENERATEDFILES\UI_OPTIONS.H
^D:\PROJECTS\PROM-SOFT\PROM-SOFT\ARM_SCALES_AUTO_V1.0.0\FORMS\HIDDENWEIGHING.UI
D:\PROJECTS\PROM-SOFT\PROM-SOFT\ARM_SCALES_AUTO_V1.0.0\GENERATEDFILES\UI_HIDDENWEIGHING.H
^D:\PROJECTS\PROM-SOFT\PROM-SOFT\ARM_SCALES_AUTO_V1.0.0\FORMS\REGISTRATION_RFID.UI
D:\PROJECTS\PROM-SOFT\PROM-SOFT\ARM_SCALES_AUTO_V1.0.0\GENERATEDFILES\UI_REGISTRATION_RFID.H
^D:\PROJECTS\PROM-SOFT\PROM-SOFT\ARM_SCALES_AUTO_V1.0.0\FORMS\REPORTS_RFID.UI
D:\PROJECTS\PROM-SOFT\PROM-SOFT\ARM_SCALES_AUTO_V1.0.0\GENERATEDFILES\UI_REPORTS_RFID.H
^D:\PROJECTS\PROM-SOFT\OSTROJZKIY_PESHAYNIY_KARYER\ARM_SCALES_AUTO_V1.0.0\INCLUDE\REPORTS_RFID.H
D:\PROJECTS\PROM-SOFT\OSTROJZKIY_PESHAYNIY_KARYER\ARM_SCALES_AUTO_V1.0.0\GENERATEDFILES\DEBUG\MOC_REPORTS_RFID.CPP
^D:\PROJECTS\PROM-SOFT\OSTROJZKIY_PESHAYNIY_KARYER\ARM_SCALES_AUTO_V1.0.0\INCLUDE\MODELS\MAINTABLEMODEL.H
D:\PROJECTS\PROM-SOFT\OSTROJZKIY_PESHAYNIY_KARYER\ARM_SCALES_AUTO_V1.0.0\GENERATEDFILES\DEBUG\MOC_MAINTABLEMODEL.CPP
^D:\PROJECTS\PROM-SOFT\OSTROJZKIY_PESHAYNIY_KARYER\ARM_SCALES_AUTO_V1.0.0\INCLUDE\TARADICTIONARYMODEL.H
D:\PROJECTS\PROM-SOFT\OSTROJZKIY_PESHAYNIY_KARYER\ARM_SCALES_AUTO_V1.0.0\GENERATEDFILES\DEBUG\MOC_TARADICTIONARYMODEL.CPP
^D:\PROJECTS\PROM-SOFT\OSTROJZKIY_PESHAYNIY_KARYER\ARM_SCALES_AUTO_V1.0.0\INCLUDE\MYCLASS.H
D:\PROJECTS\PROM-SOFT\OSTROJZKIY_PESHAYNIY_KARYER\ARM_SCALES_AUTO_V1.0.0\GENERATEDFILES\DEBUG\MOC_MYCLASS.CPP
^D:\PROJECTS\PROM-SOFT\OSTROJZKIY_PESHAYNIY_KARYER\ARM_SCALES_AUTO_V1.0.0\INCLUDE\SERIALPORTCLASS.H
D:\PROJECTS\PROM-SOFT\OSTROJZKIY_PESHAYNIY_KARYER\ARM_SCALES_AUTO_V1.0.0\GENERATEDFILES\DEBUG\MOC_SERIALPORTCLASS.CPP
^D:\PROJECTS\PROM-SOFT\OSTROJZKIY_PESHAYNIY_KARYER\ARM_SCALES_AUTO_V1.0.0\INCLUDE\ACCEPTIONFORMS.H
D:\PROJECTS\PROM-SOFT\OSTROJZKIY_PESHAYNIY_KARYER\ARM_SCALES_AUTO_V1.0.0\GENERATEDFILES\DEBUG\MOC_ACCEPTIONFORMS.CPP
^D:\PROJECTS\PROM-SOFT\OSTROJZKIY_PESHAYNIY_KARYER\ARM_SCALES_AUTO_V1.0.0\INCLUDE\DB_DRIVER.H
D:\PROJECTS\PROM-SOFT\OSTROJZKIY_PESHAYNIY_KARYER\ARM_SCALES_AUTO_V1.0.0\GENERATEDFILES\DEBUG\MOC_DB_DRIVER.CPP
^D:\PROJECTS\PROM-SOFT\OSTROJZKIY_PESHAYNIY_KARYER\ARM_SCALES_AUTO_V1.0.0\INCLUDE\LOGINWINDOW.H
D:\PROJECTS\PROM-SOFT\OSTROJZKIY_PESHAYNIY_KARYER\ARM_SCALES_AUTO_V1.0.0\GENERATEDFILES\DEBUG\MOC_LOGINWINDOW.CPP
^D:\PROJECTS\PROM-SOFT\OSTROJZKIY_PESHAYNIY_KARYER\ARM_SCALES_AUTO_V1.0.0\INCLUDE\REPORTFORMCLASS.H
D:\PROJECTS\PROM-SOFT\OSTROJZKIY_PESHAYNIY_KARYER\ARM_SCALES_AUTO_V1.0.0\GENERATEDFILES\DEBUG\MOC_REPORTFORMCLASS.CPP
^D:\PROJECTS\PROM-SOFT\OSTROJZKIY_PESHAYNIY_KARYER\ARM_SCALES_AUTO_V1.0.0\INCLUDE\DICTIONARYFORM.H
D:\PROJECTS\PROM-SOFT\OSTROJZKIY_PESHAYNIY_KARYER\ARM_SCALES_AUTO_V1.0.0\GENERATEDFILES\DEBUG\MOC_DICTIONARYFORM.CPP
^D:\PROJECTS\PROM-SOFT\OSTROJZKIY_PESHAYNIY_KARYER\ARM_SCALES_AUTO_V1.0.0\INCLUDE\LOGEVENTSFORM.H
D:\PROJECTS\PROM-SOFT\OSTROJZKIY_PESHAYNIY_KARYER\ARM_SCALES_AUTO_V1.0.0\GENERATEDFILES\DEBUG\MOC_LOGEVENTSFORM.CPP
^D:\PROJECTS\PROM-SOFT\OSTROJZKIY_PESHAYNIY_KARYER\ARM_SCALES_AUTO_V1.0.0\QTSINGLEAPP\QTLOCALPEER.H
D:\PROJECTS\PROM-SOFT\OSTROJZKIY_PESHAYNIY_KARYER\ARM_SCALES_AUTO_V1.0.0\GENERATEDFILES\DEBUG\MOC_QTLOCALPEER.CPP
^D:\PROJECTS\PROM-SOFT\OSTROJZKIY_PESHAYNIY_KARYER\ARM_SCALES_AUTO_V1.0.0\QTSINGLEAPP\QTSINGLEAPPLICATION.H
D:\PROJECTS\PROM-SOFT\OSTROJZKIY_PESHAYNIY_KARYER\ARM_SCALES_AUTO_V1.0.0\GENERATEDFILES\DEBUG\MOC_QTSINGLEAPPLICATION.CPP
^D:\PROJECTS\PROM-SOFT\OSTROJZKIY_PESHAYNIY_KARYER\ARM_SCALES_AUTO_V1.0.0\QTSINGLEAPP\QTSINGLECOREAPPLICATION.H
D:\PROJECTS\PROM-SOFT\OSTROJZKIY_PESHAYNIY_KARYER\ARM_SCALES_AUTO_V1.0.0\GENERATEDFILES\DEBUG\MOC_QTSINGLECOREAPPLICATION.CPP
^D:\PROJECTS\PROM-SOFT\OSTROJZKIY_PESHAYNIY_KARYER\ARM_SCALES_AUTO_V1.0.0\INCLUDE\FORM_TTN.H
D:\PROJECTS\PROM-SOFT\OSTROJZKIY_PESHAYNIY_KARYER\ARM_SCALES_AUTO_V1.0.0\GENERATEDFILES\DEBUG\MOC_FORM_TTN.CPP
^D:\PROJECTS\PROM-SOFT\OSTROJZKIY_PESHAYNIY_KARYER\ARM_SCALES_AUTO_V1.0.0\INCLUDE\DIALOGVPSENSORS.H
D:\PROJECTS\PROM-SOFT\OSTROJZKIY_PESHAYNIY_KARYER\ARM_SCALES_AUTO_V1.0.0\GENERATEDFILES\DEBUG\MOC_DIALOGVPSENSORS.CPP
^D:\PROJECTS\PROM-SOFT\OSTROJZKIY_PESHAYNIY_KARYER\ARM_SCALES_AUTO_V1.0.0\INCLUDE\CARDREADERRFID.H
D:\PROJECTS\PROM-SOFT\OSTROJZKIY_PESHAYNIY_KARYER\ARM_SCALES_AUTO_V1.0.0\GENERATEDFILES\DEBUG\MOC_CARDREADERRFID.CPP
^D:\PROJECTS\PROM-SOFT\OSTROJZKIY_PESHAYNIY_KARYER\ARM_SCALES_AUTO_V1.0.0\INCLUDE\SETTINGS.H
D:\PROJECTS\PROM-SOFT\OSTROJZKIY_PESHAYNIY_KARYER\ARM_SCALES_AUTO_V1.0.0\GENERATEDFILES\DEBUG\MOC_SETTINGS.CPP
^D:\PROJECTS\PROM-SOFT\OSTROJZKIY_PESHAYNIY_KARYER\ARM_SCALES_AUTO_V1.0.0\INCLUDE\OPTIONALDEVICES.H
D:\PROJECTS\PROM-SOFT\OSTROJZKIY_PESHAYNIY_KARYER\ARM_SCALES_AUTO_V1.0.0\GENERATEDFILES\DEBUG\MOC_OPTIONALDEVICES.CPP
^D:\PROJECTS\PROM-SOFT\OSTROJZKIY_PESHAYNIY_KARYER\ARM_SCALES_AUTO_V1.0.0\INCLUDE\NUMBERANDTIMESTAMP.H
D:\PROJECTS\PROM-SOFT\OSTROJZKIY_PESHAYNIY_KARYER\ARM_SCALES_AUTO_V1.0.0\GENERATEDFILES\DEBUG\MOC_NUMBERANDTIMESTAMP.CPP
^D:\PROJECTS\PROM-SOFT\OSTROJZKIY_PESHAYNIY_KARYER\ARM_SCALES_AUTO_V1.0.0\INCLUDE\SPRAVOCHNIK_TARA.H
D:\PROJECTS\PROM-SOFT\OSTROJZKIY_PESHAYNIY_KARYER\ARM_SCALES_AUTO_V1.0.0\GENERATEDFILES\DEBUG\MOC_SPRAVOCHNIK_TARA.CPP
^D:\PROJECTS\PROM-SOFT\OSTROJZKIY_PESHAYNIY_KARYER\ARM_SCALES_AUTO_V1.0.0\INCLUDE\HIDDENWEIGHING.H
D:\PROJECTS\PROM-SOFT\OSTROJZKIY_PESHAYNIY_KARYER\ARM_SCALES_AUTO_V1.0.0\GENERATEDFILES\DEBUG\MOC_HIDDENWEIGHING.CPP
^D:\PROJECTS\PROM-SOFT\OSTROJZKIY_PESHAYNIY_KARYER\ARM_SCALES_AUTO_V1.0.0\INCLUDE\MAILSEND.H
D:\PROJECTS\PROM-SOFT\OSTROJZKIY_PESHAYNIY_KARYER\ARM_SCALES_AUTO_V1.0.0\GENERATEDFILES\DEBUG\MOC_MAILSEND.CPP
^D:\PROJECTS\PROM-SOFT\OSTROJZKIY_PESHAYNIY_KARYER\ARM_SCALES_AUTO_V1.0.0\INCLUDE\REGISTRATION_RFID.H
D:\PROJECTS\PROM-SOFT\OSTROJZKIY_PESHAYNIY_KARYER\ARM_SCALES_AUTO_V1.0.0\GENERATEDFILES\DEBUG\MOC_REGISTRATION_RFID.CPP
^D:\PROJECTS\PROM-SOFT\OSTROJZKIY_PESHAYNIY_KARYER\ARM_SCALES_AUTO_V1.0.0\INCLUDE\MODELS\REGISTRATIONMODEL.H
D:\PROJECTS\PROM-SOFT\OSTROJZKIY_PESHAYNIY_KARYER\ARM_SCALES_AUTO_V1.0.0\GENERATEDFILES\DEBUG\MOC_REGISTRATIONMODEL.CPP
^D:\PROJECTS\PROM-SOFT\OSTROJZKIY_PESHAYNIY_KARYER\ARM_SCALES_AUTO_V1.0.0\INCLUDE\MODELS\REPORTSTABLEMODEL.H
D:\PROJECTS\PROM-SOFT\OSTROJZKIY_PESHAYNIY_KARYER\ARM_SCALES_AUTO_V1.0.0\GENERATEDFILES\DEBUG\MOC_REPORTSTABLEMODEL.CPP
^D:\PROJECTS\PROM-SOFT\OSTROJZKIY_PESHAYNIY_KARYER\ARM_SCALES_AUTO_V1.0.0\FORMS\MYCLASS.UI
D:\PROJECTS\PROM-SOFT\OSTROJZKIY_PESHAYNIY_KARYER\ARM_SCALES_AUTO_V1.0.0\GENERATEDFILES\UI_MYCLASS.H
^D:\PROJECTS\PROM-SOFT\OSTROJZKIY_PESHAYNIY_KARYER\ARM_SCALES_AUTO_V1.0.0\FORMS\OPTIONALDEVICES.UI
D:\PROJECTS\PROM-SOFT\OSTROJZKIY_PESHAYNIY_KARYER\ARM_SCALES_AUTO_V1.0.0\GENERATEDFILES\UI_OPTIONALDEVICES.H
^D:\PROJECTS\PROM-SOFT\OSTROJZKIY_PESHAYNIY_KARYER\ARM_SCALES_AUTO_V1.0.0\FORMS\TTN.UI
D:\PROJECTS\PROM-SOFT\OSTROJZKIY_PESHAYNIY_KARYER\ARM_SCALES_AUTO_V1.0.0\GENERATEDFILES\UI_TTN.H
^D:\PROJECTS\PROM-SOFT\OSTROJZKIY_PESHAYNIY_KARYER\ARM_SCALES_AUTO_V1.0.0\FORMS\SPRAVOCHNIK_TARA.UI
D:\PROJECTS\PROM-SOFT\OSTROJZKIY_PESHAYNIY_KARYER\ARM_SCALES_AUTO_V1.0.0\GENERATEDFILES\UI_SPRAVOCHNIK_TARA.H
^D:\PROJECTS\PROM-SOFT\OSTROJZKIY_PESHAYNIY_KARYER\ARM_SCALES_AUTO_V1.0.0\FORMS\DIALOGVPSENSORS.UI
D:\PROJECTS\PROM-SOFT\OSTROJZKIY_PESHAYNIY_KARYER\ARM_SCALES_AUTO_V1.0.0\GENERATEDFILES\UI_DIALOGVPSENSORS.H
^D:\PROJECTS\PROM-SOFT\OSTROJZKIY_PESHAYNIY_KARYER\ARM_SCALES_AUTO_V1.0.0\FORMS\HIDDENWEIGHING.UI
D:\PROJECTS\PROM-SOFT\OSTROJZKIY_PESHAYNIY_KARYER\ARM_SCALES_AUTO_V1.0.0\GENERATEDFILES\UI_HIDDENWEIGHING.H
^D:\PROJECTS\PROM-SOFT\OSTROJZKIY_PESHAYNIY_KARYER\ARM_SCALES_AUTO_V1.0.0\FORMS\REGISTRATION_RFID.UI
D:\PROJECTS\PROM-SOFT\OSTROJZKIY_PESHAYNIY_KARYER\ARM_SCALES_AUTO_V1.0.0\GENERATEDFILES\UI_REGISTRATION_RFID.H
^D:\PROJECTS\PROM-SOFT\OSTROJZKIY_PESHAYNIY_KARYER\ARM_SCALES_AUTO_V1.0.0\FORMS\REPORTS_RFID.UI
D:\PROJECTS\PROM-SOFT\OSTROJZKIY_PESHAYNIY_KARYER\ARM_SCALES_AUTO_V1.0.0\GENERATEDFILES\UI_REPORTS_RFID.H
^D:\PROJECTS\PROM-SOFT\OSTROJZKIY_PESHAYNIY_KARYER\ARM_SCALES_AUTO_V1.0.0\FORMS\OPTIONS.UI
D:\PROJECTS\PROM-SOFT\OSTROJZKIY_PESHAYNIY_KARYER\ARM_SCALES_AUTO_V1.0.0\GENERATEDFILES\UI_OPTIONS.H
^D:\PROJECTS\PROM-SOFT\OSTROJZKIY_PESHAYNIY_KARYER\ARM_SCALES_AUTO_V1.0.0\INCLUDE\OPTIONS.H
D:\PROJECTS\PROM-SOFT\OSTROJZKIY_PESHAYNIY_KARYER\ARM_SCALES_AUTO_V1.0.0\GENERATEDFILES\DEBUG\MOC_OPTIONS.CPP
^D:\PROJECTS\OSTROJZKIY_PESHAYNIY_KARYER\ARM_SCALES_AUTO_V1.0.0\INCLUDE\REPORTS_RFID.H
D:\PROJECTS\OSTROJZKIY_PESHAYNIY_KARYER\ARM_SCALES_AUTO_V1.0.0\GENERATEDFILES\DEBUG\MOC_REPORTS_RFID.CPP
^D:\PROJECTS\OSTROJZKIY_PESHAYNIY_KARYER\ARM_SCALES_AUTO_V1.0.0\INCLUDE\MODELS\MAINTABLEMODEL.H
D:\PROJECTS\OSTROJZKIY_PESHAYNIY_KARYER\ARM_SCALES_AUTO_V1.0.0\GENERATEDFILES\DEBUG\MOC_MAINTABLEMODEL.CPP
^D:\PROJECTS\OSTROJZKIY_PESHAYNIY_KARYER\ARM_SCALES_AUTO_V1.0.0\INCLUDE\TARADICTIONARYMODEL.H
D:\PROJECTS\OSTROJZKIY_PESHAYNIY_KARYER\ARM_SCALES_AUTO_V1.0.0\GENERATEDFILES\DEBUG\MOC_TARADICTIONARYMODEL.CPP
^D:\PROJECTS\OSTROJZKIY_PESHAYNIY_KARYER\ARM_SCALES_AUTO_V1.0.0\INCLUDE\SERIALPORTCLASS.H
D:\PROJECTS\OSTROJZKIY_PESHAYNIY_KARYER\ARM_SCALES_AUTO_V1.0.0\GENERATEDFILES\DEBUG\MOC_SERIALPORTCLASS.CPP
^D:\PROJECTS\OSTROJZKIY_PESHAYNIY_KARYER\ARM_SCALES_AUTO_V1.0.0\INCLUDE\DB_DRIVER.H
D:\PROJECTS\OSTROJZKIY_PESHAYNIY_KARYER\ARM_SCALES_AUTO_V1.0.0\GENERATEDFILES\DEBUG\MOC_DB_DRIVER.CPP
^D:\PROJECTS\OSTROJZKIY_PESHAYNIY_KARYER\ARM_SCALES_AUTO_V1.0.0\INCLUDE\LOGINWINDOW.H
D:\PROJECTS\OSTROJZKIY_PESHAYNIY_KARYER\ARM_SCALES_AUTO_V1.0.0\GENERATEDFILES\DEBUG\MOC_LOGINWINDOW.CPP
^D:\PROJECTS\OSTROJZKIY_PESHAYNIY_KARYER\ARM_SCALES_AUTO_V1.0.0\INCLUDE\REPORTFORMCLASS.H
D:\PROJECTS\OSTROJZKIY_PESHAYNIY_KARYER\ARM_SCALES_AUTO_V1.0.0\GENERATEDFILES\DEBUG\MOC_REPORTFORMCLASS.CPP
^D:\PROJECTS\OSTROJZKIY_PESHAYNIY_KARYER\ARM_SCALES_AUTO_V1.0.0\INCLUDE\DICTIONARYFORM.H
D:\PROJECTS\OSTROJZKIY_PESHAYNIY_KARYER\ARM_SCALES_AUTO_V1.0.0\GENERATEDFILES\DEBUG\MOC_DICTIONARYFORM.CPP
^D:\PROJECTS\OSTROJZKIY_PESHAYNIY_KARYER\ARM_SCALES_AUTO_V1.0.0\INCLUDE\LOGEVENTSFORM.H
D:\PROJECTS\OSTROJZKIY_PESHAYNIY_KARYER\ARM_SCALES_AUTO_V1.0.0\GENERATEDFILES\DEBUG\MOC_LOGEVENTSFORM.CPP
^D:\PROJECTS\OSTROJZKIY_PESHAYNIY_KARYER\ARM_SCALES_AUTO_V1.0.0\QTSINGLEAPP\QTLOCALPEER.H
D:\PROJECTS\OSTROJZKIY_PESHAYNIY_KARYER\ARM_SCALES_AUTO_V1.0.0\GENERATEDFILES\DEBUG\MOC_QTLOCALPEER.CPP
^D:\PROJECTS\OSTROJZKIY_PESHAYNIY_KARYER\ARM_SCALES_AUTO_V1.0.0\QTSINGLEAPP\QTSINGLEAPPLICATION.H
D:\PROJECTS\OSTROJZKIY_PESHAYNIY_KARYER\ARM_SCALES_AUTO_V1.0.0\GENERATEDFILES\DEBUG\MOC_QTSINGLEAPPLICATION.CPP
^D:\PROJECTS\OSTROJZKIY_PESHAYNIY_KARYER\ARM_SCALES_AUTO_V1.0.0\QTSINGLEAPP\QTSINGLECOREAPPLICATION.H
D:\PROJECTS\OSTROJZKIY_PESHAYNIY_KARYER\ARM_SCALES_AUTO_V1.0.0\GENERATEDFILES\DEBUG\MOC_QTSINGLECOREAPPLICATION.CPP
^D:\PROJECTS\OSTROJZKIY_PESHAYNIY_KARYER\ARM_SCALES_AUTO_V1.0.0\INCLUDE\FORM_TTN.H
D:\PROJECTS\OSTROJZKIY_PESHAYNIY_KARYER\ARM_SCALES_AUTO_V1.0.0\GENERATEDFILES\DEBUG\MOC_FORM_TTN.CPP
^D:\PROJECTS\OSTROJZKIY_PESHAYNIY_KARYER\ARM_SCALES_AUTO_V1.0.0\INCLUDE\DIALOGVPSENSORS.H
D:\PROJECTS\OSTROJZKIY_PESHAYNIY_KARYER\ARM_SCALES_AUTO_V1.0.0\GENERATEDFILES\DEBUG\MOC_DIALOGVPSENSORS.CPP
^D:\PROJECTS\OSTROJZKIY_PESHAYNIY_KARYER\ARM_SCALES_AUTO_V1.0.0\INCLUDE\CARDREADERRFID.H
D:\PROJECTS\OSTROJZKIY_PESHAYNIY_KARYER\ARM_SCALES_AUTO_V1.0.0\GENERATEDFILES\DEBUG\MOC_CARDREADERRFID.CPP
^D:\PROJECTS\OSTROJZKIY_PESHAYNIY_KARYER\ARM_SCALES_AUTO_V1.0.0\INCLUDE\SETTINGS.H
D:\PROJECTS\OSTROJZKIY_PESHAYNIY_KARYER\ARM_SCALES_AUTO_V1.0.0\GENERATEDFILES\DEBUG\MOC_SETTINGS.CPP
^D:\PROJECTS\OSTROJZKIY_PESHAYNIY_KARYER\ARM_SCALES_AUTO_V1.0.0\INCLUDE\OPTIONALDEVICES.H
D:\PROJECTS\OSTROJZKIY_PESHAYNIY_KARYER\ARM_SCALES_AUTO_V1.0.0\GENERATEDFILES\DEBUG\MOC_OPTIONALDEVICES.CPP
^D:\PROJECTS\OSTROJZKIY_PESHAYNIY_KARYER\ARM_SCALES_AUTO_V1.0.0\INCLUDE\NUMBERANDTIMESTAMP.H
D:\PROJECTS\OSTROJZKIY_PESHAYNIY_KARYER\ARM_SCALES_AUTO_V1.0.0\GENERATEDFILES\DEBUG\MOC_NUMBERANDTIMESTAMP.CPP
^D:\PROJECTS\OSTROJZKIY_PESHAYNIY_KARYER\ARM_SCALES_AUTO_V1.0.0\INCLUDE\SPRAVOCHNIK_TARA.H
D:\PROJECTS\OSTROJZKIY_PESHAYNIY_KARYER\ARM_SCALES_AUTO_V1.0.0\GENERATEDFILES\DEBUG\MOC_SPRAVOCHNIK_TARA.CPP
^D:\PROJECTS\OSTROJZKIY_PESHAYNIY_KARYER\ARM_SCALES_AUTO_V1.0.0\INCLUDE\OPTIONS.H
D:\PROJECTS\OSTROJZKIY_PESHAYNIY_KARYER\ARM_SCALES_AUTO_V1.0.0\GENERATEDFILES\DEBUG\MOC_OPTIONS.CPP
^D:\PROJECTS\OSTROJZKIY_PESHAYNIY_KARYER\ARM_SCALES_AUTO_V1.0.0\INCLUDE\HIDDENWEIGHING.H
D:\PROJECTS\OSTROJZKIY_PESHAYNIY_KARYER\ARM_SCALES_AUTO_V1.0.0\GENERATEDFILES\DEBUG\MOC_HIDDENWEIGHING.CPP
^D:\PROJECTS\OSTROJZKIY_PESHAYNIY_KARYER\ARM_SCALES_AUTO_V1.0.0\INCLUDE\MAILSEND.H
D:\PROJECTS\OSTROJZKIY_PESHAYNIY_KARYER\ARM_SCALES_AUTO_V1.0.0\GENERATEDFILES\DEBUG\MOC_MAILSEND.CPP
^D:\PROJECTS\OSTROJZKIY_PESHAYNIY_KARYER\ARM_SCALES_AUTO_V1.0.0\INCLUDE\REGISTRATION_RFID.H
D:\PROJECTS\OSTROJZKIY_PESHAYNIY_KARYER\ARM_SCALES_AUTO_V1.0.0\GENERATEDFILES\DEBUG\MOC_REGISTRATION_RFID.CPP
^D:\PROJECTS\OSTROJZKIY_PESHAYNIY_KARYER\ARM_SCALES_AUTO_V1.0.0\INCLUDE\MODELS\REGISTRATIONMODEL.H
D:\PROJECTS\OSTROJZKIY_PESHAYNIY_KARYER\ARM_SCALES_AUTO_V1.0.0\GENERATEDFILES\DEBUG\MOC_REGISTRATIONMODEL.CPP
^D:\PROJECTS\OSTROJZKIY_PESHAYNIY_KARYER\ARM_SCALES_AUTO_V1.0.0\INCLUDE\MODELS\REPORTSTABLEMODEL.H
D:\PROJECTS\OSTROJZKIY_PESHAYNIY_KARYER\ARM_SCALES_AUTO_V1.0.0\GENERATEDFILES\DEBUG\MOC_REPORTSTABLEMODEL.CPP
^D:\PROJECTS\OSTROJZKIY_PESHAYNIY_KARYER\ARM_SCALES_AUTO_V1.0.0\FORMS\MYCLASS.UI
D:\PROJECTS\OSTROJZKIY_PESHAYNIY_KARYER\ARM_SCALES_AUTO_V1.0.0\GENERATEDFILES\UI_MYCLASS.H
^D:\PROJECTS\OSTROJZKIY_PESHAYNIY_KARYER\ARM_SCALES_AUTO_V1.0.0\FORMS\OPTIONALDEVICES.UI
D:\PROJECTS\OSTROJZKIY_PESHAYNIY_KARYER\ARM_SCALES_AUTO_V1.0.0\GENERATEDFILES\UI_OPTIONALDEVICES.H
^D:\PROJECTS\OSTROJZKIY_PESHAYNIY_KARYER\ARM_SCALES_AUTO_V1.0.0\FORMS\TTN.UI
D:\PROJECTS\OSTROJZKIY_PESHAYNIY_KARYER\ARM_SCALES_AUTO_V1.0.0\GENERATEDFILES\UI_TTN.H
^D:\PROJECTS\OSTROJZKIY_PESHAYNIY_KARYER\ARM_SCALES_AUTO_V1.0.0\FORMS\SPRAVOCHNIK_TARA.UI
D:\PROJECTS\OSTROJZKIY_PESHAYNIY_KARYER\ARM_SCALES_AUTO_V1.0.0\GENERATEDFILES\UI_SPRAVOCHNIK_TARA.H
^D:\PROJECTS\OSTROJZKIY_PESHAYNIY_KARYER\ARM_SCALES_AUTO_V1.0.0\FORMS\DIALOGVPSENSORS.UI
D:\PROJECTS\OSTROJZKIY_PESHAYNIY_KARYER\ARM_SCALES_AUTO_V1.0.0\GENERATEDFILES\UI_DIALOGVPSENSORS.H
^D:\PROJECTS\OSTROJZKIY_PESHAYNIY_KARYER\ARM_SCALES_AUTO_V1.0.0\FORMS\OPTIONS.UI
D:\PROJECTS\OSTROJZKIY_PESHAYNIY_KARYER\ARM_SCALES_AUTO_V1.0.0\GENERATEDFILES\UI_OPTIONS.H
^D:\PROJECTS\OSTROJZKIY_PESHAYNIY_KARYER\ARM_SCALES_AUTO_V1.0.0\FORMS\HIDDENWEIGHING.UI
D:\PROJECTS\OSTROJZKIY_PESHAYNIY_KARYER\ARM_SCALES_AUTO_V1.0.0\GENERATEDFILES\UI_HIDDENWEIGHING.H
^D:\PROJECTS\OSTROJZKIY_PESHAYNIY_KARYER\ARM_SCALES_AUTO_V1.0.0\FORMS\REGISTRATION_RFID.UI
D:\PROJECTS\OSTROJZKIY_PESHAYNIY_KARYER\ARM_SCALES_AUTO_V1.0.0\GENERATEDFILES\UI_REGISTRATION_RFID.H
^D:\PROJECTS\OSTROJZKIY_PESHAYNIY_KARYER\ARM_SCALES_AUTO_V1.0.0\FORMS\REPORTS_RFID.UI
D:\PROJECTS\OSTROJZKIY_PESHAYNIY_KARYER\ARM_SCALES_AUTO_V1.0.0\GENERATEDFILES\UI_REPORTS_RFID.H
^D:\PROJECTS\OSTROJZKIY_PESHAYNIY_KARYER\ARM_SCALES_AUTO_V1.0.0\INCLUDE\ACCEPTIONFORMS.H
D:\PROJECTS\OSTROJZKIY_PESHAYNIY_KARYER\ARM_SCALES_AUTO_V1.0.0\GENERATEDFILES\DEBUG\MOC_ACCEPTIONFORMS.CPP
^D:\PROJECTS\OSTROJZKIY_PESHAYNIY_KARYER\ARM_SCALES_AUTO_V1.0.0\INCLUDE\MYCLASS.H
D:\PROJECTS\OSTROJZKIY_PESHAYNIY_KARYER\ARM_SCALES_AUTO_V1.0.0\GENERATEDFILES\DEBUG\MOC_MYCLASS.CPP
^D:\PROJECTS\PROM-SOFT\OSTROJZKIY_PESHAYNIY_KARYER_PRIZEP\ARM_SCALES_AUTO_V1.0.0\INCLUDE\REPORTS_RFID.H
D:\PROJECTS\PROM-SOFT\OSTROJZKIY_PESHAYNIY_KARYER_PRIZEP\ARM_SCALES_AUTO_V1.0.0\GENERATEDFILES\DEBUG\MOC_REPORTS_RFID.CPP
^D:\PROJECTS\PROM-SOFT\OSTROJZKIY_PESHAYNIY_KARYER_PRIZEP\ARM_SCALES_AUTO_V1.0.0\INCLUDE\MODELS\MAINTABLEMODEL.H
D:\PROJECTS\PROM-SOFT\OSTROJZKIY_PESHAYNIY_KARYER_PRIZEP\ARM_SCALES_AUTO_V1.0.0\GENERATEDFILES\DEBUG\MOC_MAINTABLEMODEL.CPP
^D:\PROJECTS\PROM-SOFT\OSTROJZKIY_PESHAYNIY_KARYER_PRIZEP\ARM_SCALES_AUTO_V1.0.0\INCLUDE\TARADICTIONARYMODEL.H
D:\PROJECTS\PROM-SOFT\OSTROJZKIY_PESHAYNIY_KARYER_PRIZEP\ARM_SCALES_AUTO_V1.0.0\GENERATEDFILES\DEBUG\MOC_TARADICTIONARYMODEL.CPP
^D:\PROJECTS\PROM-SOFT\OSTROJZKIY_PESHAYNIY_KARYER_PRIZEP\ARM_SCALES_AUTO_V1.0.0\INCLUDE\SERIALPORTCLASS.H
D:\PROJECTS\PROM-SOFT\OSTROJZKIY_PESHAYNIY_KARYER_PRIZEP\ARM_SCALES_AUTO_V1.0.0\GENERATEDFILES\DEBUG\MOC_SERIALPORTCLASS.CPP
^D:\PROJECTS\PROM-SOFT\OSTROJZKIY_PESHAYNIY_KARYER_PRIZEP\ARM_SCALES_AUTO_V1.0.0\INCLUDE\ACCEPTIONFORMS.H
D:\PROJECTS\PROM-SOFT\OSTROJZKIY_PESHAYNIY_KARYER_PRIZEP\ARM_SCALES_AUTO_V1.0.0\GENERATEDFILES\DEBUG\MOC_ACCEPTIONFORMS.CPP
^D:\PROJECTS\PROM-SOFT\OSTROJZKIY_PESHAYNIY_KARYER_PRIZEP\ARM_SCALES_AUTO_V1.0.0\INCLUDE\DB_DRIVER.H
D:\PROJECTS\PROM-SOFT\OSTROJZKIY_PESHAYNIY_KARYER_PRIZEP\ARM_SCALES_AUTO_V1.0.0\GENERATEDFILES\DEBUG\MOC_DB_DRIVER.CPP
^D:\PROJECTS\PROM-SOFT\OSTROJZKIY_PESHAYNIY_KARYER_PRIZEP\ARM_SCALES_AUTO_V1.0.0\INCLUDE\LOGINWINDOW.H
D:\PROJECTS\PROM-SOFT\OSTROJZKIY_PESHAYNIY_KARYER_PRIZEP\ARM_SCALES_AUTO_V1.0.0\GENERATEDFILES\DEBUG\MOC_LOGINWINDOW.CPP
^D:\PROJECTS\PROM-SOFT\OSTROJZKIY_PESHAYNIY_KARYER_PRIZEP\ARM_SCALES_AUTO_V1.0.0\INCLUDE\REPORTFORMCLASS.H
D:\PROJECTS\PROM-SOFT\OSTROJZKIY_PESHAYNIY_KARYER_PRIZEP\ARM_SCALES_AUTO_V1.0.0\GENERATEDFILES\DEBUG\MOC_REPORTFORMCLASS.CPP
^D:\PROJECTS\PROM-SOFT\OSTROJZKIY_PESHAYNIY_KARYER_PRIZEP\ARM_SCALES_AUTO_V1.0.0\INCLUDE\DICTIONARYFORM.H
D:\PROJECTS\PROM-SOFT\OSTROJZKIY_PESHAYNIY_KARYER_PRIZEP\ARM_SCALES_AUTO_V1.0.0\GENERATEDFILES\DEBUG\MOC_DICTIONARYFORM.CPP
^D:\PROJECTS\PROM-SOFT\OSTROJZKIY_PESHAYNIY_KARYER_PRIZEP\ARM_SCALES_AUTO_V1.0.0\INCLUDE\LOGEVENTSFORM.H
D:\PROJECTS\PROM-SOFT\OSTROJZKIY_PESHAYNIY_KARYER_PRIZEP\ARM_SCALES_AUTO_V1.0.0\GENERATEDFILES\DEBUG\MOC_LOGEVENTSFORM.CPP
^D:\PROJECTS\PROM-SOFT\OSTROJZKIY_PESHAYNIY_KARYER_PRIZEP\ARM_SCALES_AUTO_V1.0.0\QTSINGLEAPP\QTLOCALPEER.H
D:\PROJECTS\PROM-SOFT\OSTROJZKIY_PESHAYNIY_KARYER_PRIZEP\ARM_SCALES_AUTO_V1.0.0\GENERATEDFILES\DEBUG\MOC_QTLOCALPEER.CPP
^D:\PROJECTS\PROM-SOFT\OSTROJZKIY_PESHAYNIY_KARYER_PRIZEP\ARM_SCALES_AUTO_V1.0.0\QTSINGLEAPP\QTSINGLEAPPLICATION.H
D:\PROJECTS\PROM-SOFT\OSTROJZKIY_PESHAYNIY_KARYER_PRIZEP\ARM_SCALES_AUTO_V1.0.0\GENERATEDFILES\DEBUG\MOC_QTSINGLEAPPLICATION.CPP
^D:\PROJECTS\PROM-SOFT\OSTROJZKIY_PESHAYNIY_KARYER_PRIZEP\ARM_SCALES_AUTO_V1.0.0\QTSINGLEAPP\QTSINGLECOREAPPLICATION.H
D:\PROJECTS\PROM-SOFT\OSTROJZKIY_PESHAYNIY_KARYER_PRIZEP\ARM_SCALES_AUTO_V1.0.0\GENERATEDFILES\DEBUG\MOC_QTSINGLECOREAPPLICATION.CPP
^D:\PROJECTS\PROM-SOFT\OSTROJZKIY_PESHAYNIY_KARYER_PRIZEP\ARM_SCALES_AUTO_V1.0.0\INCLUDE\FORM_TTN.H
D:\PROJECTS\PROM-SOFT\OSTROJZKIY_PESHAYNIY_KARYER_PRIZEP\ARM_SCALES_AUTO_V1.0.0\GENERATEDFILES\DEBUG\MOC_FORM_TTN.CPP
^D:\PROJECTS\PROM-SOFT\OSTROJZKIY_PESHAYNIY_KARYER_PRIZEP\ARM_SCALES_AUTO_V1.0.0\INCLUDE\DIALOGVPSENSORS.H
D:\PROJECTS\PROM-SOFT\OSTROJZKIY_PESHAYNIY_KARYER_PRIZEP\ARM_SCALES_AUTO_V1.0.0\GENERATEDFILES\DEBUG\MOC_DIALOGVPSENSORS.CPP
^D:\PROJECTS\PROM-SOFT\OSTROJZKIY_PESHAYNIY_KARYER_PRIZEP\ARM_SCALES_AUTO_V1.0.0\INCLUDE\CARDREADERRFID.H
D:\PROJECTS\PROM-SOFT\OSTROJZKIY_PESHAYNIY_KARYER_PRIZEP\ARM_SCALES_AUTO_V1.0.0\GENERATEDFILES\DEBUG\MOC_CARDREADERRFID.CPP
^D:\PROJECTS\PROM-SOFT\OSTROJZKIY_PESHAYNIY_KARYER_PRIZEP\ARM_SCALES_AUTO_V1.0.0\INCLUDE\SETTINGS.H
D:\PROJECTS\PROM-SOFT\OSTROJZKIY_PESHAYNIY_KARYER_PRIZEP\ARM_SCALES_AUTO_V1.0.0\GENERATEDFILES\DEBUG\MOC_SETTINGS.CPP
^D:\PROJECTS\PROM-SOFT\OSTROJZKIY_PESHAYNIY_KARYER_PRIZEP\ARM_SCALES_AUTO_V1.0.0\INCLUDE\OPTIONALDEVICES.H
D:\PROJECTS\PROM-SOFT\OSTROJZKIY_PESHAYNIY_KARYER_PRIZEP\ARM_SCALES_AUTO_V1.0.0\GENERATEDFILES\DEBUG\MOC_OPTIONALDEVICES.CPP
^D:\PROJECTS\PROM-SOFT\OSTROJZKIY_PESHAYNIY_KARYER_PRIZEP\ARM_SCALES_AUTO_V1.0.0\INCLUDE\NUMBERANDTIMESTAMP.H
D:\PROJECTS\PROM-SOFT\OSTROJZKIY_PESHAYNIY_KARYER_PRIZEP\ARM_SCALES_AUTO_V1.0.0\GENERATEDFILES\DEBUG\MOC_NUMBERANDTIMESTAMP.CPP
^D:\PROJECTS\PROM-SOFT\OSTROJZKIY_PESHAYNIY_KARYER_PRIZEP\ARM_SCALES_AUTO_V1.0.0\INCLUDE\SPRAVOCHNIK_TARA.H
D:\PROJECTS\PROM-SOFT\OSTROJZKIY_PESHAYNIY_KARYER_PRIZEP\ARM_SCALES_AUTO_V1.0.0\GENERATEDFILES\DEBUG\MOC_SPRAVOCHNIK_TARA.CPP
^D:\PROJECTS\PROM-SOFT\OSTROJZKIY_PESHAYNIY_KARYER_PRIZEP\ARM_SCALES_AUTO_V1.0.0\INCLUDE\OPTIONS.H
D:\PROJECTS\PROM-SOFT\OSTROJZKIY_PESHAYNIY_KARYER_PRIZEP\ARM_SCALES_AUTO_V1.0.0\GENERATEDFILES\DEBUG\MOC_OPTIONS.CPP
^D:\PROJECTS\PROM-SOFT\OSTROJZKIY_PESHAYNIY_KARYER_PRIZEP\ARM_SCALES_AUTO_V1.0.0\INCLUDE\HIDDENWEIGHING.H
D:\PROJECTS\PROM-SOFT\OSTROJZKIY_PESHAYNIY_KARYER_PRIZEP\ARM_SCALES_AUTO_V1.0.0\GENERATEDFILES\DEBUG\MOC_HIDDENWEIGHING.CPP
^D:\PROJECTS\PROM-SOFT\OSTROJZKIY_PESHAYNIY_KARYER_PRIZEP\ARM_SCALES_AUTO_V1.0.0\INCLUDE\MAILSEND.H
D:\PROJECTS\PROM-SOFT\OSTROJZKIY_PESHAYNIY_KARYER_PRIZEP\ARM_SCALES_AUTO_V1.0.0\GENERATEDFILES\DEBUG\MOC_MAILSEND.CPP
^D:\PROJECTS\PROM-SOFT\OSTROJZKIY_PESHAYNIY_KARYER_PRIZEP\ARM_SCALES_AUTO_V1.0.0\INCLUDE\REGISTRATION_RFID.H
D:\PROJECTS\PROM-SOFT\OSTROJZKIY_PESHAYNIY_KARYER_PRIZEP\ARM_SCALES_AUTO_V1.0.0\GENERATEDFILES\DEBUG\MOC_REGISTRATION_RFID.CPP
^D:\PROJECTS\PROM-SOFT\OSTROJZKIY_PESHAYNIY_KARYER_PRIZEP\ARM_SCALES_AUTO_V1.0.0\INCLUDE\MODELS\REGISTRATIONMODEL.H
D:\PROJECTS\PROM-SOFT\OSTROJZKIY_PESHAYNIY_KARYER_PRIZEP\ARM_SCALES_AUTO_V1.0.0\GENERATEDFILES\DEBUG\MOC_REGISTRATIONMODEL.CPP
^D:\PROJECTS\PROM-SOFT\OSTROJZKIY_PESHAYNIY_KARYER_PRIZEP\ARM_SCALES_AUTO_V1.0.0\INCLUDE\MODELS\REPORTSTABLEMODEL.H
D:\PROJECTS\PROM-SOFT\OSTROJZKIY_PESHAYNIY_KARYER_PRIZEP\ARM_SCALES_AUTO_V1.0.0\GENERATEDFILES\DEBUG\MOC_REPORTSTABLEMODEL.CPP
^D:\PROJECTS\PROM-SOFT\OSTROJZKIY_PESHAYNIY_KARYER_PRIZEP\ARM_SCALES_AUTO_V1.0.0\FORMS\MYCLASS.UI
D:\PROJECTS\PROM-SOFT\OSTROJZKIY_PESHAYNIY_KARYER_PRIZEP\ARM_SCALES_AUTO_V1.0.0\GENERATEDFILES\UI_MYCLASS.H
^D:\PROJECTS\PROM-SOFT\OSTROJZKIY_PESHAYNIY_KARYER_PRIZEP\ARM_SCALES_AUTO_V1.0.0\FORMS\OPTIONALDEVICES.UI
D:\PROJECTS\PROM-SOFT\OSTROJZKIY_PESHAYNIY_KARYER_PRIZEP\ARM_SCALES_AUTO_V1.0.0\GENERATEDFILES\UI_OPTIONALDEVICES.H
^D:\PROJECTS\PROM-SOFT\OSTROJZKIY_PESHAYNIY_KARYER_PRIZEP\ARM_SCALES_AUTO_V1.0.0\FORMS\TTN.UI
D:\PROJECTS\PROM-SOFT\OSTROJZKIY_PESHAYNIY_KARYER_PRIZEP\ARM_SCALES_AUTO_V1.0.0\GENERATEDFILES\UI_TTN.H
^D:\PROJECTS\PROM-SOFT\OSTROJZKIY_PESHAYNIY_KARYER_PRIZEP\ARM_SCALES_AUTO_V1.0.0\FORMS\SPRAVOCHNIK_TARA.UI
D:\PROJECTS\PROM-SOFT\OSTROJZKIY_PESHAYNIY_KARYER_PRIZEP\ARM_SCALES_AUTO_V1.0.0\GENERATEDFILES\UI_SPRAVOCHNIK_TARA.H
^D:\PROJECTS\PROM-SOFT\OSTROJZKIY_PESHAYNIY_KARYER_PRIZEP\ARM_SCALES_AUTO_V1.0.0\FORMS\DIALOGVPSENSORS.UI
D:\PROJECTS\PROM-SOFT\OSTROJZKIY_PESHAYNIY_KARYER_PRIZEP\ARM_SCALES_AUTO_V1.0.0\GENERATEDFILES\UI_DIALOGVPSENSORS.H
^D:\PROJECTS\PROM-SOFT\OSTROJZKIY_PESHAYNIY_KARYER_PRIZEP\ARM_SCALES_AUTO_V1.0.0\FORMS\OPTIONS.UI
D:\PROJECTS\PROM-SOFT\OSTROJZKIY_PESHAYNIY_KARYER_PRIZEP\ARM_SCALES_AUTO_V1.0.0\GENERATEDFILES\UI_OPTIONS.H
^D:\PROJECTS\PROM-SOFT\OSTROJZKIY_PESHAYNIY_KARYER_PRIZEP\ARM_SCALES_AUTO_V1.0.0\FORMS\HIDDENWEIGHING.UI
D:\PROJECTS\PROM-SOFT\OSTROJZKIY_PESHAYNIY_KARYER_PRIZEP\ARM_SCALES_AUTO_V1.0.0\GENERATEDFILES\UI_HIDDENWEIGHING.H
^D:\PROJECTS\PROM-SOFT\OSTROJZKIY_PESHAYNIY_KARYER_PRIZEP\ARM_SCALES_AUTO_V1.0.0\FORMS\REGISTRATION_RFID.UI
D:\PROJECTS\PROM-SOFT\OSTROJZKIY_PESHAYNIY_KARYER_PRIZEP\ARM_SCALES_AUTO_V1.0.0\GENERATEDFILES\UI_REGISTRATION_RFID.H
^D:\PROJECTS\PROM-SOFT\OSTROJZKIY_PESHAYNIY_KARYER_PRIZEP\ARM_SCALES_AUTO_V1.0.0\FORMS\REPORTS_RFID.UI
D:\PROJECTS\PROM-SOFT\OSTROJZKIY_PESHAYNIY_KARYER_PRIZEP\ARM_SCALES_AUTO_V1.0.0\GENERATEDFILES\UI_REPORTS_RFID.H
^D:\PROJECTS\PROM-SOFT\OSTROJZKIY_PESHAYNIY_KARYER_PRIZEP\ARM_SCALES_AUTO_V1.0.0\INCLUDE\MYCLASS.H
D:\PROJECTS\PROM-SOFT\OSTROJZKIY_PESHAYNIY_KARYER_PRIZEP\ARM_SCALES_AUTO_V1.0.0\GENERATEDFILES\DEBUG\MOC_MYCLASS.CPP
^D:\PROJECTS\OSTROJZKIY_PESHAYNIY_KARYER_PRIZEP\ARM_SCALES_AUTO_V1.0.0\INCLUDE\REPORTS_RFID.H
D:\PROJECTS\OSTROJZKIY_PESHAYNIY_KARYER_PRIZEP\ARM_SCALES_AUTO_V1.0.0\GENERATEDFILES\DEBUG\MOC_REPORTS_RFID.CPP
^D:\PROJECTS\OSTROJZKIY_PESHAYNIY_KARYER_PRIZEP\ARM_SCALES_AUTO_V1.0.0\INCLUDE\MODELS\MAINTABLEMODEL.H
D:\PROJECTS\OSTROJZKIY_PESHAYNIY_KARYER_PRIZEP\ARM_SCALES_AUTO_V1.0.0\GENERATEDFILES\DEBUG\MOC_MAINTABLEMODEL.CPP
^D:\PROJECTS\OSTROJZKIY_PESHAYNIY_KARYER_PRIZEP\ARM_SCALES_AUTO_V1.0.0\INCLUDE\TARADICTIONARYMODEL.H
D:\PROJECTS\OSTROJZKIY_PESHAYNIY_KARYER_PRIZEP\ARM_SCALES_AUTO_V1.0.0\GENERATEDFILES\DEBUG\MOC_TARADICTIONARYMODEL.CPP
^D:\PROJECTS\OSTROJZKIY_PESHAYNIY_KARYER_PRIZEP\ARM_SCALES_AUTO_V1.0.0\INCLUDE\MYCLASS.H
D:\PROJECTS\OSTROJZKIY_PESHAYNIY_KARYER_PRIZEP\ARM_SCALES_AUTO_V1.0.0\GENERATEDFILES\DEBUG\MOC_MYCLASS.CPP
^D:\PROJECTS\OSTROJZKIY_PESHAYNIY_KARYER_PRIZEP\ARM_SCALES_AUTO_V1.0.0\INCLUDE\SERIALPORTCLASS.H
D:\PROJECTS\OSTROJZKIY_PESHAYNIY_KARYER_PRIZEP\ARM_SCALES_AUTO_V1.0.0\GENERATEDFILES\DEBUG\MOC_SERIALPORTCLASS.CPP
^D:\PROJECTS\OSTROJZKIY_PESHAYNIY_KARYER_PRIZEP\ARM_SCALES_AUTO_V1.0.0\INCLUDE\ACCEPTIONFORMS.H
D:\PROJECTS\OSTROJZKIY_PESHAYNIY_KARYER_PRIZEP\ARM_SCALES_AUTO_V1.0.0\GENERATEDFILES\DEBUG\MOC_ACCEPTIONFORMS.CPP
^D:\PROJECTS\OSTROJZKIY_PESHAYNIY_KARYER_PRIZEP\ARM_SCALES_AUTO_V1.0.0\INCLUDE\DB_DRIVER.H
D:\PROJECTS\OSTROJZKIY_PESHAYNIY_KARYER_PRIZEP\ARM_SCALES_AUTO_V1.0.0\GENERATEDFILES\DEBUG\MOC_DB_DRIVER.CPP
^D:\PROJECTS\OSTROJZKIY_PESHAYNIY_KARYER_PRIZEP\ARM_SCALES_AUTO_V1.0.0\INCLUDE\LOGINWINDOW.H
D:\PROJECTS\OSTROJZKIY_PESHAYNIY_KARYER_PRIZEP\ARM_SCALES_AUTO_V1.0.0\GENERATEDFILES\DEBUG\MOC_LOGINWINDOW.CPP
^D:\PROJECTS\OSTROJZKIY_PESHAYNIY_KARYER_PRIZEP\ARM_SCALES_AUTO_V1.0.0\INCLUDE\REPORTFORMCLASS.H
D:\PROJECTS\OSTROJZKIY_PESHAYNIY_KARYER_PRIZEP\ARM_SCALES_AUTO_V1.0.0\GENERATEDFILES\DEBUG\MOC_REPORTFORMCLASS.CPP
^D:\PROJECTS\OSTROJZKIY_PESHAYNIY_KARYER_PRIZEP\ARM_SCALES_AUTO_V1.0.0\INCLUDE\DICTIONARYFORM.H
D:\PROJECTS\OSTROJZKIY_PESHAYNIY_KARYER_PRIZEP\ARM_SCALES_AUTO_V1.0.0\GENERATEDFILES\DEBUG\MOC_DICTIONARYFORM.CPP
^D:\PROJECTS\OSTROJZKIY_PESHAYNIY_KARYER_PRIZEP\ARM_SCALES_AUTO_V1.0.0\INCLUDE\LOGEVENTSFORM.H
D:\PROJECTS\OSTROJZKIY_PESHAYNIY_KARYER_PRIZEP\ARM_SCALES_AUTO_V1.0.0\GENERATEDFILES\DEBUG\MOC_LOGEVENTSFORM.CPP
^D:\PROJECTS\OSTROJZKIY_PESHAYNIY_KARYER_PRIZEP\ARM_SCALES_AUTO_V1.0.0\QTSINGLEAPP\QTLOCALPEER.H
D:\PROJECTS\OSTROJZKIY_PESHAYNIY_KARYER_PRIZEP\ARM_SCALES_AUTO_V1.0.0\GENERATEDFILES\DEBUG\MOC_QTLOCALPEER.CPP
^D:\PROJECTS\OSTROJZKIY_PESHAYNIY_KARYER_PRIZEP\ARM_SCALES_AUTO_V1.0.0\QTSINGLEAPP\QTSINGLEAPPLICATION.H
D:\PROJECTS\OSTROJZKIY_PESHAYNIY_KARYER_PRIZEP\ARM_SCALES_AUTO_V1.0.0\GENERATEDFILES\DEBUG\MOC_QTSINGLEAPPLICATION.CPP
^D:\PROJECTS\OSTROJZKIY_PESHAYNIY_KARYER_PRIZEP\ARM_SCALES_AUTO_V1.0.0\QTSINGLEAPP\QTSINGLECOREAPPLICATION.H
D:\PROJECTS\OSTROJZKIY_PESHAYNIY_KARYER_PRIZEP\ARM_SCALES_AUTO_V1.0.0\GENERATEDFILES\DEBUG\MOC_QTSINGLECOREAPPLICATION.CPP
^D:\PROJECTS\OSTROJZKIY_PESHAYNIY_KARYER_PRIZEP\ARM_SCALES_AUTO_V1.0.0\INCLUDE\FORM_TTN.H
D:\PROJECTS\OSTROJZKIY_PESHAYNIY_KARYER_PRIZEP\ARM_SCALES_AUTO_V1.0.0\GENERATEDFILES\DEBUG\MOC_FORM_TTN.CPP
^D:\PROJECTS\OSTROJZKIY_PESHAYNIY_KARYER_PRIZEP\ARM_SCALES_AUTO_V1.0.0\INCLUDE\DIALOGVPSENSORS.H
D:\PROJECTS\OSTROJZKIY_PESHAYNIY_KARYER_PRIZEP\ARM_SCALES_AUTO_V1.0.0\GENERATEDFILES\DEBUG\MOC_DIALOGVPSENSORS.CPP
^D:\PROJECTS\OSTROJZKIY_PESHAYNIY_KARYER_PRIZEP\ARM_SCALES_AUTO_V1.0.0\INCLUDE\CARDREADERRFID.H
D:\PROJECTS\OSTROJZKIY_PESHAYNIY_KARYER_PRIZEP\ARM_SCALES_AUTO_V1.0.0\GENERATEDFILES\DEBUG\MOC_CARDREADERRFID.CPP
^D:\PROJECTS\OSTROJZKIY_PESHAYNIY_KARYER_PRIZEP\ARM_SCALES_AUTO_V1.0.0\INCLUDE\SETTINGS.H
D:\PROJECTS\OSTROJZKIY_PESHAYNIY_KARYER_PRIZEP\ARM_SCALES_AUTO_V1.0.0\GENERATEDFILES\DEBUG\MOC_SETTINGS.CPP
^D:\PROJECTS\OSTROJZKIY_PESHAYNIY_KARYER_PRIZEP\ARM_SCALES_AUTO_V1.0.0\INCLUDE\OPTIONALDEVICES.H
D:\PROJECTS\OSTROJZKIY_PESHAYNIY_KARYER_PRIZEP\ARM_SCALES_AUTO_V1.0.0\GENERATEDFILES\DEBUG\MOC_OPTIONALDEVICES.CPP
^D:\PROJECTS\OSTROJZKIY_PESHAYNIY_KARYER_PRIZEP\ARM_SCALES_AUTO_V1.0.0\INCLUDE\NUMBERANDTIMESTAMP.H
D:\PROJECTS\OSTROJZKIY_PESHAYNIY_KARYER_PRIZEP\ARM_SCALES_AUTO_V1.0.0\GENERATEDFILES\DEBUG\MOC_NUMBERANDTIMESTAMP.CPP
^D:\PROJECTS\OSTROJZKIY_PESHAYNIY_KARYER_PRIZEP\ARM_SCALES_AUTO_V1.0.0\INCLUDE\SPRAVOCHNIK_TARA.H
D:\PROJECTS\OSTROJZKIY_PESHAYNIY_KARYER_PRIZEP\ARM_SCALES_AUTO_V1.0.0\GENERATEDFILES\DEBUG\MOC_SPRAVOCHNIK_TARA.CPP
^D:\PROJECTS\OSTROJZKIY_PESHAYNIY_KARYER_PRIZEP\ARM_SCALES_AUTO_V1.0.0\INCLUDE\OPTIONS.H
D:\PROJECTS\OSTROJZKIY_PESHAYNIY_KARYER_PRIZEP\ARM_SCALES_AUTO_V1.0.0\GENERATEDFILES\DEBUG\MOC_OPTIONS.CPP
^D:\PROJECTS\OSTROJZKIY_PESHAYNIY_KARYER_PRIZEP\ARM_SCALES_AUTO_V1.0.0\INCLUDE\HIDDENWEIGHING.H
D:\PROJECTS\OSTROJZKIY_PESHAYNIY_KARYER_PRIZEP\ARM_SCALES_AUTO_V1.0.0\GENERATEDFILES\DEBUG\MOC_HIDDENWEIGHING.CPP
^D:\PROJECTS\OSTROJZKIY_PESHAYNIY_KARYER_PRIZEP\ARM_SCALES_AUTO_V1.0.0\INCLUDE\MAILSEND.H
D:\PROJECTS\OSTROJZKIY_PESHAYNIY_KARYER_PRIZEP\ARM_SCALES_AUTO_V1.0.0\GENERATEDFILES\DEBUG\MOC_MAILSEND.CPP
^D:\PROJECTS\OSTROJZKIY_PESHAYNIY_KARYER_PRIZEP\ARM_SCALES_AUTO_V1.0.0\INCLUDE\REGISTRATION_RFID.H
D:\PROJECTS\OSTROJZKIY_PESHAYNIY_KARYER_PRIZEP\ARM_SCALES_AUTO_V1.0.0\GENERATEDFILES\DEBUG\MOC_REGISTRATION_RFID.CPP
^D:\PROJECTS\OSTROJZKIY_PESHAYNIY_KARYER_PRIZEP\ARM_SCALES_AUTO_V1.0.0\INCLUDE\MODELS\REGISTRATIONMODEL.H
D:\PROJECTS\OSTROJZKIY_PESHAYNIY_KARYER_PRIZEP\ARM_SCALES_AUTO_V1.0.0\GENERATEDFILES\DEBUG\MOC_REGISTRATIONMODEL.CPP
^D:\PROJECTS\OSTROJZKIY_PESHAYNIY_KARYER_PRIZEP\ARM_SCALES_AUTO_V1.0.0\INCLUDE\MODELS\REPORTSTABLEMODEL.H
D:\PROJECTS\OSTROJZKIY_PESHAYNIY_KARYER_PRIZEP\ARM_SCALES_AUTO_V1.0.0\GENERATEDFILES\DEBUG\MOC_REPORTSTABLEMODEL.CPP
^D:\PROJECTS\OSTROJZKIY_PESHAYNIY_KARYER_PRIZEP\ARM_SCALES_AUTO_V1.0.0\FORMS\MYCLASS.UI
D:\PROJECTS\OSTROJZKIY_PESHAYNIY_KARYER_PRIZEP\ARM_SCALES_AUTO_V1.0.0\GENERATEDFILES\UI_MYCLASS.H
^D:\PROJECTS\OSTROJZKIY_PESHAYNIY_KARYER_PRIZEP\ARM_SCALES_AUTO_V1.0.0\FORMS\OPTIONALDEVICES.UI
D:\PROJECTS\OSTROJZKIY_PESHAYNIY_KARYER_PRIZEP\ARM_SCALES_AUTO_V1.0.0\GENERATEDFILES\UI_OPTIONALDEVICES.H
^D:\PROJECTS\OSTROJZKIY_PESHAYNIY_KARYER_PRIZEP\ARM_SCALES_AUTO_V1.0.0\FORMS\TTN.UI
D:\PROJECTS\OSTROJZKIY_PESHAYNIY_KARYER_PRIZEP\ARM_SCALES_AUTO_V1.0.0\GENERATEDFILES\UI_TTN.H
^D:\PROJECTS\OSTROJZKIY_PESHAYNIY_KARYER_PRIZEP\ARM_SCALES_AUTO_V1.0.0\FORMS\SPRAVOCHNIK_TARA.UI
D:\PROJECTS\OSTROJZKIY_PESHAYNIY_KARYER_PRIZEP\ARM_SCALES_AUTO_V1.0.0\GENERATEDFILES\UI_SPRAVOCHNIK_TARA.H
^D:\PROJECTS\OSTROJZKIY_PESHAYNIY_KARYER_PRIZEP\ARM_SCALES_AUTO_V1.0.0\FORMS\DIALOGVPSENSORS.UI
D:\PROJECTS\OSTROJZKIY_PESHAYNIY_KARYER_PRIZEP\ARM_SCALES_AUTO_V1.0.0\GENERATEDFILES\UI_DIALOGVPSENSORS.H
^D:\PROJECTS\OSTROJZKIY_PESHAYNIY_KARYER_PRIZEP\ARM_SCALES_AUTO_V1.0.0\FORMS\OPTIONS.UI
D:\PROJECTS\OSTROJZKIY_PESHAYNIY_KARYER_PRIZEP\ARM_SCALES_AUTO_V1.0.0\GENERATEDFILES\UI_OPTIONS.H
^D:\PROJECTS\OSTROJZKIY_PESHAYNIY_KARYER_PRIZEP\ARM_SCALES_AUTO_V1.0.0\FORMS\HIDDENWEIGHING.UI
D:\PROJECTS\OSTROJZKIY_PESHAYNIY_KARYER_PRIZEP\ARM_SCALES_AUTO_V1.0.0\GENERATEDFILES\UI_HIDDENWEIGHING.H
^D:\PROJECTS\OSTROJZKIY_PESHAYNIY_KARYER_PRIZEP\ARM_SCALES_AUTO_V1.0.0\FORMS\REGISTRATION_RFID.UI
D:\PROJECTS\OSTROJZKIY_PESHAYNIY_KARYER_PRIZEP\ARM_SCALES_AUTO_V1.0.0\GENERATEDFILES\UI_REGISTRATION_RFID.H
^D:\PROJECTS\OSTROJZKIY_PESHAYNIY_KARYER_PRIZEP\ARM_SCALES_AUTO_V1.0.0\FORMS\REPORTS_RFID.UI
D:\PROJECTS\OSTROJZKIY_PESHAYNIY_KARYER_PRIZEP\ARM_SCALES_AUTO_V1.0.0\GENERATEDFILES\UI_REPORTS_RFID.H
