^D:\PROJECTS\PROM-SOFT\PROM-SOFT_1\ARM_SCALES_AUTO_V1.0.0\DEBUG\ACCEPTIONFORMS.OBJ|D:\PROJECTS\PROM-SOFT\PROM-SOFT_1\ARM_SCALES_AUTO_V1.0.0\DEBUG\ARM_SCALES_AUTO_V1.0.RES|D:\PROJECTS\PROM-SOFT\PROM-SOFT_1\ARM_SCALES_AUTO_V1.0.0\DEBUG\CARDREADERRFID.OBJ|D:\PROJECTS\PROM-SOFT\PROM-SOFT_1\ARM_SCALES_AUTO_V1.0.0\DEBUG\CRYPT.OBJ|D:\PROJECTS\PROM-SOFT\PROM-SOFT_1\ARM_SCALES_AUTO_V1.0.0\DEBUG\DB_DRIVER.OBJ|D:\PROJECTS\PROM-SOFT\PROM-SOFT_1\ARM_SCALES_AUTO_V1.0.0\DEBUG\DIALOGVPSENSORS.OBJ|D:\PROJECTS\PROM-SOFT\PROM-SOFT_1\ARM_SCALES_AUTO_V1.0.0\DEBUG\DICTIONARYFORM.OBJ|D:\PROJECTS\PROM-SOFT\PROM-SOFT_1\ARM_SCALES_AUTO_V1.0.0\DEBUG\FORM_TTN.OBJ|D:\PROJECTS\PROM-SOFT\PROM-SOFT_1\ARM_SCALES_AUTO_V1.0.0\DEBUG\HIDDENWEIGHING.OBJ|D:\PROJECTS\PROM-SOFT\PROM-SOFT_1\ARM_SCALES_AUTO_V1.0.0\DEBUG\LOGEVENTSFORM.OBJ|D:\PROJECTS\PROM-SOFT\PROM-SOFT_1\ARM_SCALES_AUTO_V1.0.0\DEBUG\LOGINWINDOW.OBJ|D:\PROJECTS\PROM-SOFT\PROM-SOFT_1\ARM_SCALES_AUTO_V1.0.0\DEBUG\MAILSEND.OBJ|D:\PROJECTS\PROM-SOFT\PROM-SOFT_1\ARM_SCALES_AUTO_V1.0.0\DEBUG\MAIN.OBJ|D:\PROJECTS\PROM-SOFT\PROM-SOFT_1\ARM_SCALES_AUTO_V1.0.0\DEBUG\MAINTABLEMODEL.OBJ|D:\PROJECTS\PROM-SOFT\PROM-SOFT_1\ARM_SCALES_AUTO_V1.0.0\DEBUG\MOC_ACCEPTIONFORMS.OBJ|D:\PROJECTS\PROM-SOFT\PROM-SOFT_1\ARM_SCALES_AUTO_V1.0.0\DEBUG\MOC_CARDREADERRFID.OBJ|D:\PROJECTS\PROM-SOFT\PROM-SOFT_1\ARM_SCALES_AUTO_V1.0.0\DEBUG\MOC_DB_DRIVER.OBJ|D:\PROJECTS\PROM-SOFT\PROM-SOFT_1\ARM_SCALES_AUTO_V1.0.0\DEBUG\MOC_DIALOGVPSENSORS.OBJ|D:\PROJECTS\PROM-SOFT\PROM-SOFT_1\ARM_SCALES_AUTO_V1.0.0\DEBUG\MOC_DICTIONARYFORM.OBJ|D:\PROJECTS\PROM-SOFT\PROM-SOFT_1\ARM_SCALES_AUTO_V1.0.0\DEBUG\MOC_FORM_TTN.OBJ|D:\PROJECTS\PROM-SOFT\PROM-SOFT_1\ARM_SCALES_AUTO_V1.0.0\DEBUG\MOC_HIDDENWEIGHING.OBJ|D:\PROJECTS\PROM-SOFT\PROM-SOFT_1\ARM_SCALES_AUTO_V1.0.0\DEBUG\MOC_LOGEVENTSFORM.OBJ|D:\PROJECTS\PROM-SOFT\PROM-SOFT_1\ARM_SCALES_AUTO_V1.0.0\DEBUG\MOC_LOGINWINDOW.OBJ|D:\PROJECTS\PROM-SOFT\PROM-SOFT_1\ARM_SCALES_AUTO_V1.0.0\DEBUG\MOC_MAILSEND.OBJ|D:\PROJECTS\PROM-SOFT\PROM-SOFT_1\ARM_SCALES_AUTO_V1.0.0\DEBUG\MOC_MAINTABLEMODEL.OBJ|D:\PROJECTS\PROM-SOFT\PROM-SOFT_1\ARM_SCALES_AUTO_V1.0.0\DEBUG\MOC_MYCLASS.OBJ|D:\PROJECTS\PROM-SOFT\PROM-SOFT_1\ARM_SCALES_AUTO_V1.0.0\DEBUG\MOC_NUMBERANDTIMESTAMP.OBJ|D:\PROJECTS\PROM-SOFT\PROM-SOFT_1\ARM_SCALES_AUTO_V1.0.0\DEBUG\MOC_OPTIONALDEVICES.OBJ|D:\PROJECTS\PROM-SOFT\PROM-SOFT_1\ARM_SCALES_AUTO_V1.0.0\DEBUG\MOC_OPTIONS.OBJ|D:\PROJECTS\PROM-SOFT\PROM-SOFT_1\ARM_SCALES_AUTO_V1.0.0\DEBUG\MOC_QTLOCALPEER.OBJ|D:\PROJECTS\PROM-SOFT\PROM-SOFT_1\ARM_SCALES_AUTO_V1.0.0\DEBUG\MOC_QTSINGLEAPPLICATION.OBJ|D:\PROJECTS\PROM-SOFT\PROM-SOFT_1\ARM_SCALES_AUTO_V1.0.0\DEBUG\MOC_QTSINGLECOREAPPLICATION.OBJ|D:\PROJECTS\PROM-SOFT\PROM-SOFT_1\ARM_SCALES_AUTO_V1.0.0\DEBUG\MOC_REGISTRATIONMODEL.OBJ|D:\PROJECTS\PROM-SOFT\PROM-SOFT_1\ARM_SCALES_AUTO_V1.0.0\DEBUG\MOC_REGISTRATION_RFID.OBJ|D:\PROJECTS\PROM-SOFT\PROM-SOFT_1\ARM_SCALES_AUTO_V1.0.0\DEBUG\MOC_REPORTFORMCLASS.OBJ|D:\PROJECTS\PROM-SOFT\PROM-SOFT_1\ARM_SCALES_AUTO_V1.0.0\DEBUG\MOC_REPORTSTABLEMODEL.OBJ|D:\PROJECTS\PROM-SOFT\PROM-SOFT_1\ARM_SCALES_AUTO_V1.0.0\DEBUG\MOC_REPORTS_RFID.OBJ|D:\PROJECTS\PROM-SOFT\PROM-SOFT_1\ARM_SCALES_AUTO_V1.0.0\DEBUG\MOC_SERIALPORTCLASS.OBJ|D:\PROJECTS\PROM-SOFT\PROM-SOFT_1\ARM_SCALES_AUTO_V1.0.0\DEBUG\MOC_SETTINGS.OBJ|D:\PROJECTS\PROM-SOFT\PROM-SOFT_1\ARM_SCALES_AUTO_V1.0.0\DEBUG\MOC_SPRAVOCHNIK_TARA.OBJ|D:\PROJECTS\PROM-SOFT\PROM-SOFT_1\ARM_SCALES_AUTO_V1.0.0\DEBUG\MOC_TARADICTIONARYMODEL.OBJ|D:\PROJECTS\PROM-SOFT\PROM-SOFT_1\ARM_SCALES_AUTO_V1.0.0\DEBUG\MYCLASS.OBJ|D:\PROJECTS\PROM-SOFT\PROM-SOFT_1\ARM_SCALES_AUTO_V1.0.0\DEBUG\NUMBERANDTIMESTAMP.OBJ|D:\PROJECTS\PROM-SOFT\PROM-SOFT_1\ARM_SCALES_AUTO_V1.0.0\DEBUG\OPTIONALDEVICES.OBJ|D:\PROJECTS\PROM-SOFT\PROM-SOFT_1\ARM_SCALES_AUTO_V1.0.0\DEBUG\OPTIONS.OBJ|D:\PROJECTS\PROM-SOFT\PROM-SOFT_1\ARM_SCALES_AUTO_V1.0.0\DEBUG\QTLOCALPEER.OBJ|D:\PROJECTS\PROM-SOFT\PROM-SOFT_1\ARM_SCALES_AUTO_V1.0.0\DEBUG\QTSINGLEAPPLICATION.OBJ|D:\PROJECTS\PROM-SOFT\PROM-SOFT_1\ARM_SCALES_AUTO_V1.0.0\DEBUG\QTSINGLECOREAPPLICATION.OBJ|D:\PROJECTS\PROM-SOFT\PROM-SOFT_1\ARM_SCALES_AUTO_V1.0.0\DEBUG\REGISTRATIONMODEL.OBJ|D:\PROJECTS\PROM-SOFT\PROM-SOFT_1\ARM_SCALES_AUTO_V1.0.0\DEBUG\REGISTRATION_RFID.OBJ|D:\PROJECTS\PROM-SOFT\PROM-SOFT_1\ARM_SCALES_AUTO_V1.0.0\DEBUG\REPORTFORMCLASS.OBJ|D:\PROJECTS\PROM-SOFT\PROM-SOFT_1\ARM_SCALES_AUTO_V1.0.0\DEBUG\REPORTSTABLEMODEL.OBJ|D:\PROJECTS\PROM-SOFT\PROM-SOFT_1\ARM_SCALES_AUTO_V1.0.0\DEBUG\REPORTS_RFID.OBJ|D:\PROJECTS\PROM-SOFT\PROM-SOFT_1\ARM_SCALES_AUTO_V1.0.0\DEBUG\SERIALPORTCLASS.OBJ|D:\PROJECTS\PROM-SOFT\PROM-SOFT_1\ARM_SCALES_AUTO_V1.0.0\DEBUG\SETTINGS.OBJ|D:\PROJECTS\PROM-SOFT\PROM-SOFT_1\ARM_SCALES_AUTO_V1.0.0\DEBUG\SPRAVOCHNIK_TARA.OBJ|D:\PROJECTS\PROM-SOFT\PROM-SOFT_1\ARM_SCALES_AUTO_V1.0.0\DEBUG\STDAFX.OBJ|D:\PROJECTS\PROM-SOFT\PROM-SOFT_1\ARM_SCALES_AUTO_V1.0.0\DEBUG\TARADICTIONARYMODEL.OBJ
C:\QT\4.8.4\LIB\QTMAIND.LIB
C:\QT\4.8.4\LIB\QTCORED4.LIB
C:\QT\4.8.4\LIB\QTGUID4.LIB
C:\QT\4.8.4\LIB\QTMULTIMEDIAD4.LIB
C:\QT\4.8.4\LIB\QSERIALPORTLIB\QTSERIALPORTD.LIB
C:\QT\4.8.4\LIB\QTNETWORKD4.LIB
C:\QT\4.8.4\LIB\QTSQLD4.LIB
C:\QT\4.8.4\LIB\LIBMYSQL.LIB
C:\QT\4.8.4\PLUGINS\SQLDRIVERS\QSQLMYSQL4.LIB
C:\QT\4.8.4\PLUGINS\SQLDRIVERS\QSQLMYSQLD4.LIB
D:\PROJECTS\PROM-SOFT\PROM-SOFT_1\ARM_SCALES_AUTO_V1.0.0\SMTPCLIENT\DEBUG\SMTPEMAIL.LIB
C:\QT\4.8.4\LIB\QTWEBKITD4.LIB
C:\QT\4.8.4\LIB\QTOPENGLD4.LIB
C:\PROGRAM FILES (X86)\MICROSOFT SDKS\WINDOWS\V7.0A\LIB\OPENGL32.LIB
C:\PROGRAM FILES (X86)\MICROSOFT SDKS\WINDOWS\V7.0A\LIB\GLU32.LIB
C:\QT\4.8.4\LIB\QT3SUPPORTD4.LIB
C:\PROGRAM FILES (X86)\MICROSOFT SDKS\WINDOWS\V7.0A\LIB\COMDLG32.LIB
C:\QT\4.8.4\LIB\QAXSERVERD.LIB
C:\QT\4.8.4\LIB\QAXCONTAINERD.LIB
C:\PROGRAM FILES (X86)\MICROSOFT SDKS\WINDOWS\V7.0A\LIB\KERNEL32.LIB
C:\PROGRAM FILES (X86)\MICROSOFT SDKS\WINDOWS\V7.0A\LIB\USER32.LIB
C:\PROGRAM FILES (X86)\MICROSOFT SDKS\WINDOWS\V7.0A\LIB\GDI32.LIB
C:\PROGRAM FILES (X86)\MICROSOFT SDKS\WINDOWS\V7.0A\LIB\WINSPOOL.LIB
C:\PROGRAM FILES (X86)\MICROSOFT SDKS\WINDOWS\V7.0A\LIB\ADVAPI32.LIB
C:\PROGRAM FILES (X86)\MICROSOFT SDKS\WINDOWS\V7.0A\LIB\SHELL32.LIB
C:\PROGRAM FILES (X86)\MICROSOFT SDKS\WINDOWS\V7.0A\LIB\OLE32.LIB
C:\PROGRAM FILES (X86)\MICROSOFT SDKS\WINDOWS\V7.0A\LIB\OLEAUT32.LIB
C:\PROGRAM FILES (X86)\MICROSOFT SDKS\WINDOWS\V7.0A\LIB\UUID.LIB
C:\PROGRAM FILES (X86)\MICROSOFT SDKS\WINDOWS\V7.0A\LIB\ODBC32.LIB
C:\PROGRAM FILES (X86)\MICROSOFT SDKS\WINDOWS\V7.0A\LIB\ODBCCP32.LIB
D:\PROJECTS\PROM-SOFT\PROM-SOFT_1\ARM_SCALES_AUTO_V1.0.0\DEBUG\ARM_SCALES_AUTO_V1.0.RES
D:\PROJECTS\PROM-SOFT\PROM-SOFT_1\ARM_SCALES_AUTO_V1.0.0\DEBUG\MOC_MAINTABLEMODEL.OBJ
D:\PROJECTS\PROM-SOFT\PROM-SOFT_1\ARM_SCALES_AUTO_V1.0.0\DEBUG\MOC_REPORTS_RFID.OBJ
D:\PROJECTS\PROM-SOFT\PROM-SOFT_1\ARM_SCALES_AUTO_V1.0.0\DEBUG\ACCEPTIONFORMS.OBJ
D:\PROJECTS\PROM-SOFT\PROM-SOFT_1\ARM_SCALES_AUTO_V1.0.0\DEBUG\CARDREADERRFID.OBJ
D:\PROJECTS\PROM-SOFT\PROM-SOFT_1\ARM_SCALES_AUTO_V1.0.0\DEBUG\CRYPT.OBJ
D:\PROJECTS\PROM-SOFT\PROM-SOFT_1\ARM_SCALES_AUTO_V1.0.0\DEBUG\DB_DRIVER.OBJ
D:\PROJECTS\PROM-SOFT\PROM-SOFT_1\ARM_SCALES_AUTO_V1.0.0\DEBUG\DIALOGVPSENSORS.OBJ
D:\PROJECTS\PROM-SOFT\PROM-SOFT_1\ARM_SCALES_AUTO_V1.0.0\DEBUG\DICTIONARYFORM.OBJ
D:\PROJECTS\PROM-SOFT\PROM-SOFT_1\ARM_SCALES_AUTO_V1.0.0\DEBUG\FORM_TTN.OBJ
D:\PROJECTS\PROM-SOFT\PROM-SOFT_1\ARM_SCALES_AUTO_V1.0.0\DEBUG\MOC_ACCEPTIONFORMS.OBJ
D:\PROJECTS\PROM-SOFT\PROM-SOFT_1\ARM_SCALES_AUTO_V1.0.0\DEBUG\MOC_CARDREADERRFID.OBJ
D:\PROJECTS\PROM-SOFT\PROM-SOFT_1\ARM_SCALES_AUTO_V1.0.0\DEBUG\MOC_DB_DRIVER.OBJ
D:\PROJECTS\PROM-SOFT\PROM-SOFT_1\ARM_SCALES_AUTO_V1.0.0\DEBUG\MOC_DIALOGVPSENSORS.OBJ
D:\PROJECTS\PROM-SOFT\PROM-SOFT_1\ARM_SCALES_AUTO_V1.0.0\DEBUG\MOC_DICTIONARYFORM.OBJ
D:\PROJECTS\PROM-SOFT\PROM-SOFT_1\ARM_SCALES_AUTO_V1.0.0\DEBUG\MOC_FORM_TTN.OBJ
D:\PROJECTS\PROM-SOFT\PROM-SOFT_1\ARM_SCALES_AUTO_V1.0.0\DEBUG\MOC_HIDDENWEIGHING.OBJ
D:\PROJECTS\PROM-SOFT\PROM-SOFT_1\ARM_SCALES_AUTO_V1.0.0\DEBUG\MOC_LOGEVENTSFORM.OBJ
D:\PROJECTS\PROM-SOFT\PROM-SOFT_1\ARM_SCALES_AUTO_V1.0.0\DEBUG\MOC_LOGINWINDOW.OBJ
D:\PROJECTS\PROM-SOFT\PROM-SOFT_1\ARM_SCALES_AUTO_V1.0.0\DEBUG\MOC_MAILSEND.OBJ
D:\PROJECTS\PROM-SOFT\PROM-SOFT_1\ARM_SCALES_AUTO_V1.0.0\DEBUG\MOC_MYCLASS.OBJ
D:\PROJECTS\PROM-SOFT\PROM-SOFT_1\ARM_SCALES_AUTO_V1.0.0\DEBUG\MOC_NUMBERANDTIMESTAMP.OBJ
D:\PROJECTS\PROM-SOFT\PROM-SOFT_1\ARM_SCALES_AUTO_V1.0.0\DEBUG\MOC_OPTIONALDEVICES.OBJ
D:\PROJECTS\PROM-SOFT\PROM-SOFT_1\ARM_SCALES_AUTO_V1.0.0\DEBUG\MOC_OPTIONS.OBJ
D:\PROJECTS\PROM-SOFT\PROM-SOFT_1\ARM_SCALES_AUTO_V1.0.0\DEBUG\MOC_QTLOCALPEER.OBJ
D:\PROJECTS\PROM-SOFT\PROM-SOFT_1\ARM_SCALES_AUTO_V1.0.0\DEBUG\MOC_QTSINGLEAPPLICATION.OBJ
D:\PROJECTS\PROM-SOFT\PROM-SOFT_1\ARM_SCALES_AUTO_V1.0.0\DEBUG\MOC_QTSINGLECOREAPPLICATION.OBJ
D:\PROJECTS\PROM-SOFT\PROM-SOFT_1\ARM_SCALES_AUTO_V1.0.0\DEBUG\MOC_REGISTRATIONMODEL.OBJ
D:\PROJECTS\PROM-SOFT\PROM-SOFT_1\ARM_SCALES_AUTO_V1.0.0\DEBUG\MOC_REGISTRATION_RFID.OBJ
D:\PROJECTS\PROM-SOFT\PROM-SOFT_1\ARM_SCALES_AUTO_V1.0.0\DEBUG\MOC_REPORTFORMCLASS.OBJ
D:\PROJECTS\PROM-SOFT\PROM-SOFT_1\ARM_SCALES_AUTO_V1.0.0\DEBUG\MOC_REPORTSTABLEMODEL.OBJ
D:\PROJECTS\PROM-SOFT\PROM-SOFT_1\ARM_SCALES_AUTO_V1.0.0\DEBUG\MOC_SERIALPORTCLASS.OBJ
D:\PROJECTS\PROM-SOFT\PROM-SOFT_1\ARM_SCALES_AUTO_V1.0.0\DEBUG\MOC_SETTINGS.OBJ
D:\PROJECTS\PROM-SOFT\PROM-SOFT_1\ARM_SCALES_AUTO_V1.0.0\DEBUG\MOC_SPRAVOCHNIK_TARA.OBJ
D:\PROJECTS\PROM-SOFT\PROM-SOFT_1\ARM_SCALES_AUTO_V1.0.0\DEBUG\MOC_TARADICTIONARYMODEL.OBJ
D:\PROJECTS\PROM-SOFT\PROM-SOFT_1\ARM_SCALES_AUTO_V1.0.0\DEBUG\HIDDENWEIGHING.OBJ
D:\PROJECTS\PROM-SOFT\PROM-SOFT_1\ARM_SCALES_AUTO_V1.0.0\DEBUG\LOGEVENTSFORM.OBJ
D:\PROJECTS\PROM-SOFT\PROM-SOFT_1\ARM_SCALES_AUTO_V1.0.0\DEBUG\LOGINWINDOW.OBJ
D:\PROJECTS\PROM-SOFT\PROM-SOFT_1\ARM_SCALES_AUTO_V1.0.0\DEBUG\MAILSEND.OBJ
D:\PROJECTS\PROM-SOFT\PROM-SOFT_1\ARM_SCALES_AUTO_V1.0.0\DEBUG\MAIN.OBJ
D:\PROJECTS\PROM-SOFT\PROM-SOFT_1\ARM_SCALES_AUTO_V1.0.0\DEBUG\REGISTRATIONMODEL.OBJ
D:\PROJECTS\PROM-SOFT\PROM-SOFT_1\ARM_SCALES_AUTO_V1.0.0\DEBUG\REPORTSTABLEMODEL.OBJ
D:\PROJECTS\PROM-SOFT\PROM-SOFT_1\ARM_SCALES_AUTO_V1.0.0\DEBUG\MAINTABLEMODEL.OBJ
D:\PROJECTS\PROM-SOFT\PROM-SOFT_1\ARM_SCALES_AUTO_V1.0.0\DEBUG\MYCLASS.OBJ
D:\PROJECTS\PROM-SOFT\PROM-SOFT_1\ARM_SCALES_AUTO_V1.0.0\DEBUG\NUMBERANDTIMESTAMP.OBJ
D:\PROJECTS\PROM-SOFT\PROM-SOFT_1\ARM_SCALES_AUTO_V1.0.0\DEBUG\OPTIONALDEVICES.OBJ
D:\PROJECTS\PROM-SOFT\PROM-SOFT_1\ARM_SCALES_AUTO_V1.0.0\DEBUG\OPTIONS.OBJ
D:\PROJECTS\PROM-SOFT\PROM-SOFT_1\ARM_SCALES_AUTO_V1.0.0\DEBUG\QTLOCALPEER.OBJ
D:\PROJECTS\PROM-SOFT\PROM-SOFT_1\ARM_SCALES_AUTO_V1.0.0\DEBUG\QTSINGLEAPPLICATION.OBJ
D:\PROJECTS\PROM-SOFT\PROM-SOFT_1\ARM_SCALES_AUTO_V1.0.0\DEBUG\QTSINGLECOREAPPLICATION.OBJ
D:\PROJECTS\PROM-SOFT\PROM-SOFT_1\ARM_SCALES_AUTO_V1.0.0\DEBUG\REGISTRATION_RFID.OBJ
D:\PROJECTS\PROM-SOFT\PROM-SOFT_1\ARM_SCALES_AUTO_V1.0.0\DEBUG\REPORTFORMCLASS.OBJ
D:\PROJECTS\PROM-SOFT\PROM-SOFT_1\ARM_SCALES_AUTO_V1.0.0\DEBUG\REPORTS_RFID.OBJ
D:\PROJECTS\PROM-SOFT\PROM-SOFT_1\ARM_SCALES_AUTO_V1.0.0\DEBUG\SERIALPORTCLASS.OBJ
D:\PROJECTS\PROM-SOFT\PROM-SOFT_1\ARM_SCALES_AUTO_V1.0.0\DEBUG\SETTINGS.OBJ
D:\PROJECTS\PROM-SOFT\PROM-SOFT_1\ARM_SCALES_AUTO_V1.0.0\DEBUG\SPRAVOCHNIK_TARA.OBJ
D:\PROJECTS\PROM-SOFT\PROM-SOFT_1\ARM_SCALES_AUTO_V1.0.0\DEBUG\STDAFX.OBJ
D:\PROJECTS\PROM-SOFT\PROM-SOFT_1\ARM_SCALES_AUTO_V1.0.0\DEBUG\TARADICTIONARYMODEL.OBJ
C:\WINDOWS\SYSTEM32\TZRES.DLL
D:\PROJECTS\PROM-SOFT\PROM-SOFT_1\WIN32\DEBUG\PROM-SOFT.ILK
D:\PROJECTS\PROM-SOFT\PROM-SOFT_1\WIN32\DEBUG\PROM-SOFT.EXE
D:\PROGRAM FILES (X86)\MICROSOFT VISUAL STUDIO 10.0\VC\BIN\1033\LINKUI.DLL
C:\WINDOWS\GLOBALIZATION\SORTING\SORTDEFAULT.NLS
D:\PROGRAM FILES (X86)\MICROSOFT VISUAL STUDIO 10.0\VC\LIB\MSVCPRTD.LIB
D:\PROGRAM FILES (X86)\MICROSOFT VISUAL STUDIO 10.0\VC\LIB\MSVCRTD.LIB
D:\PROGRAM FILES (X86)\MICROSOFT VISUAL STUDIO 10.0\VC\LIB\OLDNAMES.LIB
D:\PROGRAM FILES (X86)\MICROSOFT VISUAL STUDIO 10.0\VC\BIN\CVTRES.EXE
C:\WINDOWS\SYSTEM32\RSAENH.DLL
^D:\PROJECTS\PROM-SOFT\PROM-SOFT\ARM_SCALES_AUTO_V1.0.0\DEBUG\ACCEPTIONFORMS.OBJ|D:\PROJECTS\PROM-SOFT\PROM-SOFT\ARM_SCALES_AUTO_V1.0.0\DEBUG\ARM_SCALES_AUTO_V1.0.RES|D:\PROJECTS\PROM-SOFT\PROM-SOFT\ARM_SCALES_AUTO_V1.0.0\DEBUG\CARDREADERRFID.OBJ|D:\PROJECTS\PROM-SOFT\PROM-SOFT\ARM_SCALES_AUTO_V1.0.0\DEBUG\CRYPT.OBJ|D:\PROJECTS\PROM-SOFT\PROM-SOFT\ARM_SCALES_AUTO_V1.0.0\DEBUG\DB_DRIVER.OBJ|D:\PROJECTS\PROM-SOFT\PROM-SOFT\ARM_SCALES_AUTO_V1.0.0\DEBUG\DIALOGVPSENSORS.OBJ|D:\PROJECTS\PROM-SOFT\PROM-SOFT\ARM_SCALES_AUTO_V1.0.0\DEBUG\DICTIONARYFORM.OBJ|D:\PROJECTS\PROM-SOFT\PROM-SOFT\ARM_SCALES_AUTO_V1.0.0\DEBUG\FORM_TTN.OBJ|D:\PROJECTS\PROM-SOFT\PROM-SOFT\ARM_SCALES_AUTO_V1.0.0\DEBUG\HIDDENWEIGHING.OBJ|D:\PROJECTS\PROM-SOFT\PROM-SOFT\ARM_SCALES_AUTO_V1.0.0\DEBUG\LOGEVENTSFORM.OBJ|D:\PROJECTS\PROM-SOFT\PROM-SOFT\ARM_SCALES_AUTO_V1.0.0\DEBUG\LOGINWINDOW.OBJ|D:\PROJECTS\PROM-SOFT\PROM-SOFT\ARM_SCALES_AUTO_V1.0.0\DEBUG\MAILSEND.OBJ|D:\PROJECTS\PROM-SOFT\PROM-SOFT\ARM_SCALES_AUTO_V1.0.0\DEBUG\MAIN.OBJ|D:\PROJECTS\PROM-SOFT\PROM-SOFT\ARM_SCALES_AUTO_V1.0.0\DEBUG\MAINTABLEMODEL.OBJ|D:\PROJECTS\PROM-SOFT\PROM-SOFT\ARM_SCALES_AUTO_V1.0.0\DEBUG\MOC_ACCEPTIONFORMS.OBJ|D:\PROJECTS\PROM-SOFT\PROM-SOFT\ARM_SCALES_AUTO_V1.0.0\DEBUG\MOC_CARDREADERRFID.OBJ|D:\PROJECTS\PROM-SOFT\PROM-SOFT\ARM_SCALES_AUTO_V1.0.0\DEBUG\MOC_DB_DRIVER.OBJ|D:\PROJECTS\PROM-SOFT\PROM-SOFT\ARM_SCALES_AUTO_V1.0.0\DEBUG\MOC_DIALOGVPSENSORS.OBJ|D:\PROJECTS\PROM-SOFT\PROM-SOFT\ARM_SCALES_AUTO_V1.0.0\DEBUG\MOC_DICTIONARYFORM.OBJ|D:\PROJECTS\PROM-SOFT\PROM-SOFT\ARM_SCALES_AUTO_V1.0.0\DEBUG\MOC_FORM_TTN.OBJ|D:\PROJECTS\PROM-SOFT\PROM-SOFT\ARM_SCALES_AUTO_V1.0.0\DEBUG\MOC_HIDDENWEIGHING.OBJ|D:\PROJECTS\PROM-SOFT\PROM-SOFT\ARM_SCALES_AUTO_V1.0.0\DEBUG\MOC_LOGEVENTSFORM.OBJ|D:\PROJECTS\PROM-SOFT\PROM-SOFT\ARM_SCALES_AUTO_V1.0.0\DEBUG\MOC_LOGINWINDOW.OBJ|D:\PROJECTS\PROM-SOFT\PROM-SOFT\ARM_SCALES_AUTO_V1.0.0\DEBUG\MOC_MAILSEND.OBJ|D:\PROJECTS\PROM-SOFT\PROM-SOFT\ARM_SCALES_AUTO_V1.0.0\DEBUG\MOC_MAINTABLEMODEL.OBJ|D:\PROJECTS\PROM-SOFT\PROM-SOFT\ARM_SCALES_AUTO_V1.0.0\DEBUG\MOC_MYCLASS.OBJ|D:\PROJECTS\PROM-SOFT\PROM-SOFT\ARM_SCALES_AUTO_V1.0.0\DEBUG\MOC_NUMBERANDTIMESTAMP.OBJ|D:\PROJECTS\PROM-SOFT\PROM-SOFT\ARM_SCALES_AUTO_V1.0.0\DEBUG\MOC_OPTIONALDEVICES.OBJ|D:\PROJECTS\PROM-SOFT\PROM-SOFT\ARM_SCALES_AUTO_V1.0.0\DEBUG\MOC_OPTIONS.OBJ|D:\PROJECTS\PROM-SOFT\PROM-SOFT\ARM_SCALES_AUTO_V1.0.0\DEBUG\MOC_QTLOCALPEER.OBJ|D:\PROJECTS\PROM-SOFT\PROM-SOFT\ARM_SCALES_AUTO_V1.0.0\DEBUG\MOC_QTSINGLEAPPLICATION.OBJ|D:\PROJECTS\PROM-SOFT\PROM-SOFT\ARM_SCALES_AUTO_V1.0.0\DEBUG\MOC_QTSINGLECOREAPPLICATION.OBJ|D:\PROJECTS\PROM-SOFT\PROM-SOFT\ARM_SCALES_AUTO_V1.0.0\DEBUG\MOC_REGISTRATIONMODEL.OBJ|D:\PROJECTS\PROM-SOFT\PROM-SOFT\ARM_SCALES_AUTO_V1.0.0\DEBUG\MOC_REGISTRATION_RFID.OBJ|D:\PROJECTS\PROM-SOFT\PROM-SOFT\ARM_SCALES_AUTO_V1.0.0\DEBUG\MOC_REPORTFORMCLASS.OBJ|D:\PROJECTS\PROM-SOFT\PROM-SOFT\ARM_SCALES_AUTO_V1.0.0\DEBUG\MOC_REPORTSTABLEMODEL.OBJ|D:\PROJECTS\PROM-SOFT\PROM-SOFT\ARM_SCALES_AUTO_V1.0.0\DEBUG\MOC_REPORTS_RFID.OBJ|D:\PROJECTS\PROM-SOFT\PROM-SOFT\ARM_SCALES_AUTO_V1.0.0\DEBUG\MOC_SERIALPORTCLASS.OBJ|D:\PROJECTS\PROM-SOFT\PROM-SOFT\ARM_SCALES_AUTO_V1.0.0\DEBUG\MOC_SETTINGS.OBJ|D:\PROJECTS\PROM-SOFT\PROM-SOFT\ARM_SCALES_AUTO_V1.0.0\DEBUG\MOC_SPRAVOCHNIK_TARA.OBJ|D:\PROJECTS\PROM-SOFT\PROM-SOFT\ARM_SCALES_AUTO_V1.0.0\DEBUG\MOC_TARADICTIONARYMODEL.OBJ|D:\PROJECTS\PROM-SOFT\PROM-SOFT\ARM_SCALES_AUTO_V1.0.0\DEBUG\MYCLASS.OBJ|D:\PROJECTS\PROM-SOFT\PROM-SOFT\ARM_SCALES_AUTO_V1.0.0\DEBUG\NUMBERANDTIMESTAMP.OBJ|D:\PROJECTS\PROM-SOFT\PROM-SOFT\ARM_SCALES_AUTO_V1.0.0\DEBUG\OPTIONALDEVICES.OBJ|D:\PROJECTS\PROM-SOFT\PROM-SOFT\ARM_SCALES_AUTO_V1.0.0\DEBUG\OPTIONS.OBJ|D:\PROJECTS\PROM-SOFT\PROM-SOFT\ARM_SCALES_AUTO_V1.0.0\DEBUG\QTLOCALPEER.OBJ|D:\PROJECTS\PROM-SOFT\PROM-SOFT\ARM_SCALES_AUTO_V1.0.0\DEBUG\QTSINGLEAPPLICATION.OBJ|D:\PROJECTS\PROM-SOFT\PROM-SOFT\ARM_SCALES_AUTO_V1.0.0\DEBUG\QTSINGLECOREAPPLICATION.OBJ|D:\PROJECTS\PROM-SOFT\PROM-SOFT\ARM_SCALES_AUTO_V1.0.0\DEBUG\REGISTRATIONMODEL.OBJ|D:\PROJECTS\PROM-SOFT\PROM-SOFT\ARM_SCALES_AUTO_V1.0.0\DEBUG\REGISTRATION_RFID.OBJ|D:\PROJECTS\PROM-SOFT\PROM-SOFT\ARM_SCALES_AUTO_V1.0.0\DEBUG\REPORTFORMCLASS.OBJ|D:\PROJECTS\PROM-SOFT\PROM-SOFT\ARM_SCALES_AUTO_V1.0.0\DEBUG\REPORTSTABLEMODEL.OBJ|D:\PROJECTS\PROM-SOFT\PROM-SOFT\ARM_SCALES_AUTO_V1.0.0\DEBUG\REPORTS_RFID.OBJ|D:\PROJECTS\PROM-SOFT\PROM-SOFT\ARM_SCALES_AUTO_V1.0.0\DEBUG\SERIALPORTCLASS.OBJ|D:\PROJECTS\PROM-SOFT\PROM-SOFT\ARM_SCALES_AUTO_V1.0.0\DEBUG\SETTINGS.OBJ|D:\PROJECTS\PROM-SOFT\PROM-SOFT\ARM_SCALES_AUTO_V1.0.0\DEBUG\SPRAVOCHNIK_TARA.OBJ|D:\PROJECTS\PROM-SOFT\PROM-SOFT\ARM_SCALES_AUTO_V1.0.0\DEBUG\STDAFX.OBJ|D:\PROJECTS\PROM-SOFT\PROM-SOFT\ARM_SCALES_AUTO_V1.0.0\DEBUG\TARADICTIONARYMODEL.OBJ
C:\QT\4.8.4\LIB\QTMAIND.LIB
C:\QT\4.8.4\LIB\QTCORED4.LIB
C:\QT\4.8.4\LIB\QTGUID4.LIB
C:\QT\4.8.4\LIB\QTMULTIMEDIAD4.LIB
C:\QT\4.8.4\LIB\QSERIALPORTLIB\QTSERIALPORTD.LIB
C:\QT\4.8.4\LIB\QTNETWORKD4.LIB
C:\QT\4.8.4\LIB\QTSQLD4.LIB
C:\QT\4.8.4\LIB\LIBMYSQL.LIB
C:\QT\4.8.4\PLUGINS\SQLDRIVERS\QSQLMYSQL4.LIB
C:\QT\4.8.4\PLUGINS\SQLDRIVERS\QSQLMYSQLD4.LIB
D:\PROJECTS\PROM-SOFT\PROM-SOFT\ARM_SCALES_AUTO_V1.0.0\SMTPCLIENT\DEBUG\SMTPEMAIL.LIB
C:\QT\4.8.4\LIB\QTWEBKITD4.LIB
C:\QT\4.8.4\LIB\QTOPENGLD4.LIB
C:\PROGRAM FILES (X86)\MICROSOFT SDKS\WINDOWS\V7.0A\LIB\OPENGL32.LIB
C:\PROGRAM FILES (X86)\MICROSOFT SDKS\WINDOWS\V7.0A\LIB\GLU32.LIB
C:\QT\4.8.4\LIB\QT3SUPPORTD4.LIB
C:\PROGRAM FILES (X86)\MICROSOFT SDKS\WINDOWS\V7.0A\LIB\COMDLG32.LIB
C:\QT\4.8.4\LIB\QAXSERVERD.LIB
C:\QT\4.8.4\LIB\QAXCONTAINERD.LIB
C:\PROGRAM FILES (X86)\MICROSOFT SDKS\WINDOWS\V7.0A\LIB\KERNEL32.LIB
C:\PROGRAM FILES (X86)\MICROSOFT SDKS\WINDOWS\V7.0A\LIB\USER32.LIB
C:\PROGRAM FILES (X86)\MICROSOFT SDKS\WINDOWS\V7.0A\LIB\GDI32.LIB
C:\PROGRAM FILES (X86)\MICROSOFT SDKS\WINDOWS\V7.0A\LIB\WINSPOOL.LIB
C:\PROGRAM FILES (X86)\MICROSOFT SDKS\WINDOWS\V7.0A\LIB\ADVAPI32.LIB
C:\PROGRAM FILES (X86)\MICROSOFT SDKS\WINDOWS\V7.0A\LIB\SHELL32.LIB
C:\PROGRAM FILES (X86)\MICROSOFT SDKS\WINDOWS\V7.0A\LIB\OLE32.LIB
C:\PROGRAM FILES (X86)\MICROSOFT SDKS\WINDOWS\V7.0A\LIB\OLEAUT32.LIB
C:\PROGRAM FILES (X86)\MICROSOFT SDKS\WINDOWS\V7.0A\LIB\UUID.LIB
C:\PROGRAM FILES (X86)\MICROSOFT SDKS\WINDOWS\V7.0A\LIB\ODBC32.LIB
C:\PROGRAM FILES (X86)\MICROSOFT SDKS\WINDOWS\V7.0A\LIB\ODBCCP32.LIB
D:\PROJECTS\PROM-SOFT\PROM-SOFT\ARM_SCALES_AUTO_V1.0.0\DEBUG\ARM_SCALES_AUTO_V1.0.RES
D:\PROJECTS\PROM-SOFT\PROM-SOFT\ARM_SCALES_AUTO_V1.0.0\DEBUG\MOC_MAINTABLEMODEL.OBJ
D:\PROJECTS\PROM-SOFT\PROM-SOFT\ARM_SCALES_AUTO_V1.0.0\DEBUG\MOC_REPORTS_RFID.OBJ
D:\PROJECTS\PROM-SOFT\PROM-SOFT\ARM_SCALES_AUTO_V1.0.0\DEBUG\ACCEPTIONFORMS.OBJ
D:\PROJECTS\PROM-SOFT\PROM-SOFT\ARM_SCALES_AUTO_V1.0.0\DEBUG\CARDREADERRFID.OBJ
D:\PROJECTS\PROM-SOFT\PROM-SOFT\ARM_SCALES_AUTO_V1.0.0\DEBUG\CRYPT.OBJ
D:\PROJECTS\PROM-SOFT\PROM-SOFT\ARM_SCALES_AUTO_V1.0.0\DEBUG\DB_DRIVER.OBJ
D:\PROJECTS\PROM-SOFT\PROM-SOFT\ARM_SCALES_AUTO_V1.0.0\DEBUG\DIALOGVPSENSORS.OBJ
D:\PROJECTS\PROM-SOFT\PROM-SOFT\ARM_SCALES_AUTO_V1.0.0\DEBUG\DICTIONARYFORM.OBJ
D:\PROJECTS\PROM-SOFT\PROM-SOFT\ARM_SCALES_AUTO_V1.0.0\DEBUG\FORM_TTN.OBJ
D:\PROJECTS\PROM-SOFT\PROM-SOFT\ARM_SCALES_AUTO_V1.0.0\DEBUG\MOC_ACCEPTIONFORMS.OBJ
D:\PROJECTS\PROM-SOFT\PROM-SOFT\ARM_SCALES_AUTO_V1.0.0\DEBUG\MOC_CARDREADERRFID.OBJ
D:\PROJECTS\PROM-SOFT\PROM-SOFT\ARM_SCALES_AUTO_V1.0.0\DEBUG\MOC_DB_DRIVER.OBJ
D:\PROJECTS\PROM-SOFT\PROM-SOFT\ARM_SCALES_AUTO_V1.0.0\DEBUG\MOC_DIALOGVPSENSORS.OBJ
D:\PROJECTS\PROM-SOFT\PROM-SOFT\ARM_SCALES_AUTO_V1.0.0\DEBUG\MOC_DICTIONARYFORM.OBJ
D:\PROJECTS\PROM-SOFT\PROM-SOFT\ARM_SCALES_AUTO_V1.0.0\DEBUG\MOC_FORM_TTN.OBJ
D:\PROJECTS\PROM-SOFT\PROM-SOFT\ARM_SCALES_AUTO_V1.0.0\DEBUG\MOC_HIDDENWEIGHING.OBJ
D:\PROJECTS\PROM-SOFT\PROM-SOFT\ARM_SCALES_AUTO_V1.0.0\DEBUG\MOC_LOGEVENTSFORM.OBJ
D:\PROJECTS\PROM-SOFT\PROM-SOFT\ARM_SCALES_AUTO_V1.0.0\DEBUG\MOC_LOGINWINDOW.OBJ
D:\PROJECTS\PROM-SOFT\PROM-SOFT\ARM_SCALES_AUTO_V1.0.0\DEBUG\MOC_MAILSEND.OBJ
D:\PROJECTS\PROM-SOFT\PROM-SOFT\ARM_SCALES_AUTO_V1.0.0\DEBUG\MOC_MYCLASS.OBJ
D:\PROJECTS\PROM-SOFT\PROM-SOFT\ARM_SCALES_AUTO_V1.0.0\DEBUG\MOC_NUMBERANDTIMESTAMP.OBJ
D:\PROJECTS\PROM-SOFT\PROM-SOFT\ARM_SCALES_AUTO_V1.0.0\DEBUG\MOC_OPTIONALDEVICES.OBJ
D:\PROJECTS\PROM-SOFT\PROM-SOFT\ARM_SCALES_AUTO_V1.0.0\DEBUG\MOC_OPTIONS.OBJ
D:\PROJECTS\PROM-SOFT\PROM-SOFT\ARM_SCALES_AUTO_V1.0.0\DEBUG\MOC_QTLOCALPEER.OBJ
D:\PROJECTS\PROM-SOFT\PROM-SOFT\ARM_SCALES_AUTO_V1.0.0\DEBUG\MOC_QTSINGLEAPPLICATION.OBJ
D:\PROJECTS\PROM-SOFT\PROM-SOFT\ARM_SCALES_AUTO_V1.0.0\DEBUG\MOC_QTSINGLECOREAPPLICATION.OBJ
D:\PROJECTS\PROM-SOFT\PROM-SOFT\ARM_SCALES_AUTO_V1.0.0\DEBUG\MOC_REGISTRATIONMODEL.OBJ
D:\PROJECTS\PROM-SOFT\PROM-SOFT\ARM_SCALES_AUTO_V1.0.0\DEBUG\MOC_REGISTRATION_RFID.OBJ
D:\PROJECTS\PROM-SOFT\PROM-SOFT\ARM_SCALES_AUTO_V1.0.0\DEBUG\MOC_REPORTFORMCLASS.OBJ
D:\PROJECTS\PROM-SOFT\PROM-SOFT\ARM_SCALES_AUTO_V1.0.0\DEBUG\MOC_REPORTSTABLEMODEL.OBJ
D:\PROJECTS\PROM-SOFT\PROM-SOFT\ARM_SCALES_AUTO_V1.0.0\DEBUG\MOC_SERIALPORTCLASS.OBJ
D:\PROJECTS\PROM-SOFT\PROM-SOFT\ARM_SCALES_AUTO_V1.0.0\DEBUG\MOC_SETTINGS.OBJ
D:\PROJECTS\PROM-SOFT\PROM-SOFT\ARM_SCALES_AUTO_V1.0.0\DEBUG\MOC_SPRAVOCHNIK_TARA.OBJ
D:\PROJECTS\PROM-SOFT\PROM-SOFT\ARM_SCALES_AUTO_V1.0.0\DEBUG\MOC_TARADICTIONARYMODEL.OBJ
D:\PROJECTS\PROM-SOFT\PROM-SOFT\ARM_SCALES_AUTO_V1.0.0\DEBUG\HIDDENWEIGHING.OBJ
D:\PROJECTS\PROM-SOFT\PROM-SOFT\ARM_SCALES_AUTO_V1.0.0\DEBUG\LOGEVENTSFORM.OBJ
D:\PROJECTS\PROM-SOFT\PROM-SOFT\ARM_SCALES_AUTO_V1.0.0\DEBUG\LOGINWINDOW.OBJ
D:\PROJECTS\PROM-SOFT\PROM-SOFT\ARM_SCALES_AUTO_V1.0.0\DEBUG\MAILSEND.OBJ
D:\PROJECTS\PROM-SOFT\PROM-SOFT\ARM_SCALES_AUTO_V1.0.0\DEBUG\MAIN.OBJ
D:\PROJECTS\PROM-SOFT\PROM-SOFT\ARM_SCALES_AUTO_V1.0.0\DEBUG\REGISTRATIONMODEL.OBJ
D:\PROJECTS\PROM-SOFT\PROM-SOFT\ARM_SCALES_AUTO_V1.0.0\DEBUG\REPORTSTABLEMODEL.OBJ
D:\PROJECTS\PROM-SOFT\PROM-SOFT\ARM_SCALES_AUTO_V1.0.0\DEBUG\MAINTABLEMODEL.OBJ
D:\PROJECTS\PROM-SOFT\PROM-SOFT\ARM_SCALES_AUTO_V1.0.0\DEBUG\MYCLASS.OBJ
D:\PROJECTS\PROM-SOFT\PROM-SOFT\ARM_SCALES_AUTO_V1.0.0\DEBUG\NUMBERANDTIMESTAMP.OBJ
D:\PROJECTS\PROM-SOFT\PROM-SOFT\ARM_SCALES_AUTO_V1.0.0\DEBUG\OPTIONALDEVICES.OBJ
D:\PROJECTS\PROM-SOFT\PROM-SOFT\ARM_SCALES_AUTO_V1.0.0\DEBUG\OPTIONS.OBJ
D:\PROJECTS\PROM-SOFT\PROM-SOFT\ARM_SCALES_AUTO_V1.0.0\DEBUG\QTLOCALPEER.OBJ
D:\PROJECTS\PROM-SOFT\PROM-SOFT\ARM_SCALES_AUTO_V1.0.0\DEBUG\QTSINGLEAPPLICATION.OBJ
D:\PROJECTS\PROM-SOFT\PROM-SOFT\ARM_SCALES_AUTO_V1.0.0\DEBUG\QTSINGLECOREAPPLICATION.OBJ
D:\PROJECTS\PROM-SOFT\PROM-SOFT\ARM_SCALES_AUTO_V1.0.0\DEBUG\REGISTRATION_RFID.OBJ
D:\PROJECTS\PROM-SOFT\PROM-SOFT\ARM_SCALES_AUTO_V1.0.0\DEBUG\REPORTFORMCLASS.OBJ
D:\PROJECTS\PROM-SOFT\PROM-SOFT\ARM_SCALES_AUTO_V1.0.0\DEBUG\REPORTS_RFID.OBJ
D:\PROJECTS\PROM-SOFT\PROM-SOFT\ARM_SCALES_AUTO_V1.0.0\DEBUG\SERIALPORTCLASS.OBJ
D:\PROJECTS\PROM-SOFT\PROM-SOFT\ARM_SCALES_AUTO_V1.0.0\DEBUG\SETTINGS.OBJ
D:\PROJECTS\PROM-SOFT\PROM-SOFT\ARM_SCALES_AUTO_V1.0.0\DEBUG\SPRAVOCHNIK_TARA.OBJ
D:\PROJECTS\PROM-SOFT\PROM-SOFT\ARM_SCALES_AUTO_V1.0.0\DEBUG\STDAFX.OBJ
D:\PROJECTS\PROM-SOFT\PROM-SOFT\ARM_SCALES_AUTO_V1.0.0\DEBUG\TARADICTIONARYMODEL.OBJ
C:\WINDOWS\SYSTEM32\TZRES.DLL
D:\PROJECTS\PROM-SOFT\PROM-SOFT\WIN32\DEBUG\PROM-SOFT.ILK
D:\PROJECTS\PROM-SOFT\PROM-SOFT\WIN32\DEBUG\PROM-SOFT.EXE
D:\PROGRAM FILES (X86)\MICROSOFT VISUAL STUDIO 10.0\VC\BIN\1033\LINKUI.DLL
C:\WINDOWS\GLOBALIZATION\SORTING\SORTDEFAULT.NLS
D:\PROGRAM FILES (X86)\MICROSOFT VISUAL STUDIO 10.0\VC\LIB\MSVCPRTD.LIB
D:\PROGRAM FILES (X86)\MICROSOFT VISUAL STUDIO 10.0\VC\LIB\MSVCRTD.LIB
D:\PROGRAM FILES (X86)\MICROSOFT VISUAL STUDIO 10.0\VC\LIB\OLDNAMES.LIB
D:\PROGRAM FILES (X86)\MICROSOFT VISUAL STUDIO 10.0\VC\BIN\CVTRES.EXE
C:\WINDOWS\SYSTEM32\RSAENH.DLL
^D:\PROJECTS\PROM-SOFT\OSTROJZKIY_PESHAYNIY_KARYER\ARM_SCALES_AUTO_V1.0.0\DEBUG\ACCEPTIONFORMS.OBJ|D:\PROJECTS\PROM-SOFT\OSTROJZKIY_PESHAYNIY_KARYER\ARM_SCALES_AUTO_V1.0.0\DEBUG\ARM_SCALES_AUTO_V1.0.RES|D:\PROJECTS\PROM-SOFT\OSTROJZKIY_PESHAYNIY_KARYER\ARM_SCALES_AUTO_V1.0.0\DEBUG\CARDREADERRFID.OBJ|D:\PROJECTS\PROM-SOFT\OSTROJZKIY_PESHAYNIY_KARYER\ARM_SCALES_AUTO_V1.0.0\DEBUG\CRYPT.OBJ|D:\PROJECTS\PROM-SOFT\OSTROJZKIY_PESHAYNIY_KARYER\ARM_SCALES_AUTO_V1.0.0\DEBUG\DB_DRIVER.OBJ|D:\PROJECTS\PROM-SOFT\OSTROJZKIY_PESHAYNIY_KARYER\ARM_SCALES_AUTO_V1.0.0\DEBUG\DIALOGVPSENSORS.OBJ|D:\PROJECTS\PROM-SOFT\OSTROJZKIY_PESHAYNIY_KARYER\ARM_SCALES_AUTO_V1.0.0\DEBUG\DICTIONARYFORM.OBJ|D:\PROJECTS\PROM-SOFT\OSTROJZKIY_PESHAYNIY_KARYER\ARM_SCALES_AUTO_V1.0.0\DEBUG\FORM_TTN.OBJ|D:\PROJECTS\PROM-SOFT\OSTROJZKIY_PESHAYNIY_KARYER\ARM_SCALES_AUTO_V1.0.0\DEBUG\HIDDENWEIGHING.OBJ|D:\PROJECTS\PROM-SOFT\OSTROJZKIY_PESHAYNIY_KARYER\ARM_SCALES_AUTO_V1.0.0\DEBUG\LOGEVENTSFORM.OBJ|D:\PROJECTS\PROM-SOFT\OSTROJZKIY_PESHAYNIY_KARYER\ARM_SCALES_AUTO_V1.0.0\DEBUG\LOGINWINDOW.OBJ|D:\PROJECTS\PROM-SOFT\OSTROJZKIY_PESHAYNIY_KARYER\ARM_SCALES_AUTO_V1.0.0\DEBUG\MAILSEND.OBJ|D:\PROJECTS\PROM-SOFT\OSTROJZKIY_PESHAYNIY_KARYER\ARM_SCALES_AUTO_V1.0.0\DEBUG\MAIN.OBJ|D:\PROJECTS\PROM-SOFT\OSTROJZKIY_PESHAYNIY_KARYER\ARM_SCALES_AUTO_V1.0.0\DEBUG\MAINTABLEMODEL.OBJ|D:\PROJECTS\PROM-SOFT\OSTROJZKIY_PESHAYNIY_KARYER\ARM_SCALES_AUTO_V1.0.0\DEBUG\MOC_ACCEPTIONFORMS.OBJ|D:\PROJECTS\PROM-SOFT\OSTROJZKIY_PESHAYNIY_KARYER\ARM_SCALES_AUTO_V1.0.0\DEBUG\MOC_CARDREADERRFID.OBJ|D:\PROJECTS\PROM-SOFT\OSTROJZKIY_PESHAYNIY_KARYER\ARM_SCALES_AUTO_V1.0.0\DEBUG\MOC_DB_DRIVER.OBJ|D:\PROJECTS\PROM-SOFT\OSTROJZKIY_PESHAYNIY_KARYER\ARM_SCALES_AUTO_V1.0.0\DEBUG\MOC_DIALOGVPSENSORS.OBJ|D:\PROJECTS\PROM-SOFT\OSTROJZKIY_PESHAYNIY_KARYER\ARM_SCALES_AUTO_V1.0.0\DEBUG\MOC_DICTIONARYFORM.OBJ|D:\PROJECTS\PROM-SOFT\OSTROJZKIY_PESHAYNIY_KARYER\ARM_SCALES_AUTO_V1.0.0\DEBUG\MOC_FORM_TTN.OBJ|D:\PROJECTS\PROM-SOFT\OSTROJZKIY_PESHAYNIY_KARYER\ARM_SCALES_AUTO_V1.0.0\DEBUG\MOC_HIDDENWEIGHING.OBJ|D:\PROJECTS\PROM-SOFT\OSTROJZKIY_PESHAYNIY_KARYER\ARM_SCALES_AUTO_V1.0.0\DEBUG\MOC_LOGEVENTSFORM.OBJ|D:\PROJECTS\PROM-SOFT\OSTROJZKIY_PESHAYNIY_KARYER\ARM_SCALES_AUTO_V1.0.0\DEBUG\MOC_LOGINWINDOW.OBJ|D:\PROJECTS\PROM-SOFT\OSTROJZKIY_PESHAYNIY_KARYER\ARM_SCALES_AUTO_V1.0.0\DEBUG\MOC_MAILSEND.OBJ|D:\PROJECTS\PROM-SOFT\OSTROJZKIY_PESHAYNIY_KARYER\ARM_SCALES_AUTO_V1.0.0\DEBUG\MOC_MAINTABLEMODEL.OBJ|D:\PROJECTS\PROM-SOFT\OSTROJZKIY_PESHAYNIY_KARYER\ARM_SCALES_AUTO_V1.0.0\DEBUG\MOC_MYCLASS.OBJ|D:\PROJECTS\PROM-SOFT\OSTROJZKIY_PESHAYNIY_KARYER\ARM_SCALES_AUTO_V1.0.0\DEBUG\MOC_NUMBERANDTIMESTAMP.OBJ|D:\PROJECTS\PROM-SOFT\OSTROJZKIY_PESHAYNIY_KARYER\ARM_SCALES_AUTO_V1.0.0\DEBUG\MOC_OPTIONALDEVICES.OBJ|D:\PROJECTS\PROM-SOFT\OSTROJZKIY_PESHAYNIY_KARYER\ARM_SCALES_AUTO_V1.0.0\DEBUG\MOC_OPTIONS.OBJ|D:\PROJECTS\PROM-SOFT\OSTROJZKIY_PESHAYNIY_KARYER\ARM_SCALES_AUTO_V1.0.0\DEBUG\MOC_QTLOCALPEER.OBJ|D:\PROJECTS\PROM-SOFT\OSTROJZKIY_PESHAYNIY_KARYER\ARM_SCALES_AUTO_V1.0.0\DEBUG\MOC_QTSINGLEAPPLICATION.OBJ|D:\PROJECTS\PROM-SOFT\OSTROJZKIY_PESHAYNIY_KARYER\ARM_SCALES_AUTO_V1.0.0\DEBUG\MOC_QTSINGLECOREAPPLICATION.OBJ|D:\PROJECTS\PROM-SOFT\OSTROJZKIY_PESHAYNIY_KARYER\ARM_SCALES_AUTO_V1.0.0\DEBUG\MOC_REGISTRATIONMODEL.OBJ|D:\PROJECTS\PROM-SOFT\OSTROJZKIY_PESHAYNIY_KARYER\ARM_SCALES_AUTO_V1.0.0\DEBUG\MOC_REGISTRATION_RFID.OBJ|D:\PROJECTS\PROM-SOFT\OSTROJZKIY_PESHAYNIY_KARYER\ARM_SCALES_AUTO_V1.0.0\DEBUG\MOC_REPORTFORMCLASS.OBJ|D:\PROJECTS\PROM-SOFT\OSTROJZKIY_PESHAYNIY_KARYER\ARM_SCALES_AUTO_V1.0.0\DEBUG\MOC_REPORTSTABLEMODEL.OBJ|D:\PROJECTS\PROM-SOFT\OSTROJZKIY_PESHAYNIY_KARYER\ARM_SCALES_AUTO_V1.0.0\DEBUG\MOC_REPORTS_RFID.OBJ|D:\PROJECTS\PROM-SOFT\OSTROJZKIY_PESHAYNIY_KARYER\ARM_SCALES_AUTO_V1.0.0\DEBUG\MOC_SERIALPORTCLASS.OBJ|D:\PROJECTS\PROM-SOFT\OSTROJZKIY_PESHAYNIY_KARYER\ARM_SCALES_AUTO_V1.0.0\DEBUG\MOC_SETTINGS.OBJ|D:\PROJECTS\PROM-SOFT\OSTROJZKIY_PESHAYNIY_KARYER\ARM_SCALES_AUTO_V1.0.0\DEBUG\MOC_SPRAVOCHNIK_TARA.OBJ|D:\PROJECTS\PROM-SOFT\OSTROJZKIY_PESHAYNIY_KARYER\ARM_SCALES_AUTO_V1.0.0\DEBUG\MOC_TARADICTIONARYMODEL.OBJ|D:\PROJECTS\PROM-SOFT\OSTROJZKIY_PESHAYNIY_KARYER\ARM_SCALES_AUTO_V1.0.0\DEBUG\MYCLASS.OBJ|D:\PROJECTS\PROM-SOFT\OSTROJZKIY_PESHAYNIY_KARYER\ARM_SCALES_AUTO_V1.0.0\DEBUG\NUMBERANDTIMESTAMP.OBJ|D:\PROJECTS\PROM-SOFT\OSTROJZKIY_PESHAYNIY_KARYER\ARM_SCALES_AUTO_V1.0.0\DEBUG\OPTIONALDEVICES.OBJ|D:\PROJECTS\PROM-SOFT\OSTROJZKIY_PESHAYNIY_KARYER\ARM_SCALES_AUTO_V1.0.0\DEBUG\OPTIONS.OBJ|D:\PROJECTS\PROM-SOFT\OSTROJZKIY_PESHAYNIY_KARYER\ARM_SCALES_AUTO_V1.0.0\DEBUG\QTLOCALPEER.OBJ|D:\PROJECTS\PROM-SOFT\OSTROJZKIY_PESHAYNIY_KARYER\ARM_SCALES_AUTO_V1.0.0\DEBUG\QTSINGLEAPPLICATION.OBJ|D:\PROJECTS\PROM-SOFT\OSTROJZKIY_PESHAYNIY_KARYER\ARM_SCALES_AUTO_V1.0.0\DEBUG\QTSINGLECOREAPPLICATION.OBJ|D:\PROJECTS\PROM-SOFT\OSTROJZKIY_PESHAYNIY_KARYER\ARM_SCALES_AUTO_V1.0.0\DEBUG\REGISTRATIONMODEL.OBJ|D:\PROJECTS\PROM-SOFT\OSTROJZKIY_PESHAYNIY_KARYER\ARM_SCALES_AUTO_V1.0.0\DEBUG\REGISTRATION_RFID.OBJ|D:\PROJECTS\PROM-SOFT\OSTROJZKIY_PESHAYNIY_KARYER\ARM_SCALES_AUTO_V1.0.0\DEBUG\REPORTFORMCLASS.OBJ|D:\PROJECTS\PROM-SOFT\OSTROJZKIY_PESHAYNIY_KARYER\ARM_SCALES_AUTO_V1.0.0\DEBUG\REPORTSTABLEMODEL.OBJ|D:\PROJECTS\PROM-SOFT\OSTROJZKIY_PESHAYNIY_KARYER\ARM_SCALES_AUTO_V1.0.0\DEBUG\REPORTS_RFID.OBJ|D:\PROJECTS\PROM-SOFT\OSTROJZKIY_PESHAYNIY_KARYER\ARM_SCALES_AUTO_V1.0.0\DEBUG\SERIALPORTCLASS.OBJ|D:\PROJECTS\PROM-SOFT\OSTROJZKIY_PESHAYNIY_KARYER\ARM_SCALES_AUTO_V1.0.0\DEBUG\SETTINGS.OBJ|D:\PROJECTS\PROM-SOFT\OSTROJZKIY_PESHAYNIY_KARYER\ARM_SCALES_AUTO_V1.0.0\DEBUG\SPRAVOCHNIK_TARA.OBJ|D:\PROJECTS\PROM-SOFT\OSTROJZKIY_PESHAYNIY_KARYER\ARM_SCALES_AUTO_V1.0.0\DEBUG\STDAFX.OBJ|D:\PROJECTS\PROM-SOFT\OSTROJZKIY_PESHAYNIY_KARYER\ARM_SCALES_AUTO_V1.0.0\DEBUG\TARADICTIONARYMODEL.OBJ
C:\QT\4.8.4\LIB\QTMAIND.LIB
C:\QT\4.8.4\LIB\QTCORED4.LIB
C:\QT\4.8.4\LIB\QTGUID4.LIB
C:\QT\4.8.4\LIB\QTMULTIMEDIAD4.LIB
C:\QT\4.8.4\LIB\QSERIALPORTLIB\QTSERIALPORTD.LIB
C:\QT\4.8.4\LIB\QTNETWORKD4.LIB
C:\QT\4.8.4\LIB\QTSQLD4.LIB
C:\QT\4.8.4\LIB\LIBMYSQL.LIB
C:\QT\4.8.4\PLUGINS\SQLDRIVERS\QSQLMYSQL4.LIB
C:\QT\4.8.4\PLUGINS\SQLDRIVERS\QSQLMYSQLD4.LIB
D:\PROJECTS\PROM-SOFT\OSTROJZKIY_PESHAYNIY_KARYER\ARM_SCALES_AUTO_V1.0.0\SMTPCLIENT\DEBUG\SMTPEMAIL.LIB
C:\QT\4.8.4\LIB\QTWEBKITD4.LIB
C:\QT\4.8.4\LIB\QTOPENGLD4.LIB
C:\PROGRAM FILES (X86)\MICROSOFT SDKS\WINDOWS\V7.0A\LIB\OPENGL32.LIB
C:\PROGRAM FILES (X86)\MICROSOFT SDKS\WINDOWS\V7.0A\LIB\GLU32.LIB
C:\QT\4.8.4\LIB\QT3SUPPORTD4.LIB
C:\PROGRAM FILES (X86)\MICROSOFT SDKS\WINDOWS\V7.0A\LIB\COMDLG32.LIB
C:\QT\4.8.4\LIB\QAXSERVERD.LIB
C:\QT\4.8.4\LIB\QAXCONTAINERD.LIB
C:\PROGRAM FILES (X86)\MICROSOFT SDKS\WINDOWS\V7.0A\LIB\KERNEL32.LIB
C:\PROGRAM FILES (X86)\MICROSOFT SDKS\WINDOWS\V7.0A\LIB\USER32.LIB
C:\PROGRAM FILES (X86)\MICROSOFT SDKS\WINDOWS\V7.0A\LIB\GDI32.LIB
C:\PROGRAM FILES (X86)\MICROSOFT SDKS\WINDOWS\V7.0A\LIB\WINSPOOL.LIB
C:\PROGRAM FILES (X86)\MICROSOFT SDKS\WINDOWS\V7.0A\LIB\ADVAPI32.LIB
C:\PROGRAM FILES (X86)\MICROSOFT SDKS\WINDOWS\V7.0A\LIB\SHELL32.LIB
C:\PROGRAM FILES (X86)\MICROSOFT SDKS\WINDOWS\V7.0A\LIB\OLE32.LIB
C:\PROGRAM FILES (X86)\MICROSOFT SDKS\WINDOWS\V7.0A\LIB\OLEAUT32.LIB
C:\PROGRAM FILES (X86)\MICROSOFT SDKS\WINDOWS\V7.0A\LIB\UUID.LIB
C:\PROGRAM FILES (X86)\MICROSOFT SDKS\WINDOWS\V7.0A\LIB\ODBC32.LIB
C:\PROGRAM FILES (X86)\MICROSOFT SDKS\WINDOWS\V7.0A\LIB\ODBCCP32.LIB
D:\PROJECTS\PROM-SOFT\OSTROJZKIY_PESHAYNIY_KARYER\ARM_SCALES_AUTO_V1.0.0\DEBUG\ARM_SCALES_AUTO_V1.0.RES
D:\PROJECTS\PROM-SOFT\OSTROJZKIY_PESHAYNIY_KARYER\ARM_SCALES_AUTO_V1.0.0\DEBUG\MOC_MAINTABLEMODEL.OBJ
D:\PROJECTS\PROM-SOFT\OSTROJZKIY_PESHAYNIY_KARYER\ARM_SCALES_AUTO_V1.0.0\DEBUG\MOC_REPORTS_RFID.OBJ
D:\PROJECTS\PROM-SOFT\OSTROJZKIY_PESHAYNIY_KARYER\ARM_SCALES_AUTO_V1.0.0\DEBUG\ACCEPTIONFORMS.OBJ
D:\PROJECTS\PROM-SOFT\OSTROJZKIY_PESHAYNIY_KARYER\ARM_SCALES_AUTO_V1.0.0\DEBUG\CARDREADERRFID.OBJ
D:\PROJECTS\PROM-SOFT\OSTROJZKIY_PESHAYNIY_KARYER\ARM_SCALES_AUTO_V1.0.0\DEBUG\CRYPT.OBJ
D:\PROJECTS\PROM-SOFT\OSTROJZKIY_PESHAYNIY_KARYER\ARM_SCALES_AUTO_V1.0.0\DEBUG\DB_DRIVER.OBJ
D:\PROJECTS\PROM-SOFT\OSTROJZKIY_PESHAYNIY_KARYER\ARM_SCALES_AUTO_V1.0.0\DEBUG\DIALOGVPSENSORS.OBJ
D:\PROJECTS\PROM-SOFT\OSTROJZKIY_PESHAYNIY_KARYER\ARM_SCALES_AUTO_V1.0.0\DEBUG\DICTIONARYFORM.OBJ
D:\PROJECTS\PROM-SOFT\OSTROJZKIY_PESHAYNIY_KARYER\ARM_SCALES_AUTO_V1.0.0\DEBUG\FORM_TTN.OBJ
D:\PROJECTS\PROM-SOFT\OSTROJZKIY_PESHAYNIY_KARYER\ARM_SCALES_AUTO_V1.0.0\DEBUG\MOC_ACCEPTIONFORMS.OBJ
D:\PROJECTS\PROM-SOFT\OSTROJZKIY_PESHAYNIY_KARYER\ARM_SCALES_AUTO_V1.0.0\DEBUG\MOC_CARDREADERRFID.OBJ
D:\PROJECTS\PROM-SOFT\OSTROJZKIY_PESHAYNIY_KARYER\ARM_SCALES_AUTO_V1.0.0\DEBUG\MOC_DB_DRIVER.OBJ
D:\PROJECTS\PROM-SOFT\OSTROJZKIY_PESHAYNIY_KARYER\ARM_SCALES_AUTO_V1.0.0\DEBUG\MOC_DIALOGVPSENSORS.OBJ
D:\PROJECTS\PROM-SOFT\OSTROJZKIY_PESHAYNIY_KARYER\ARM_SCALES_AUTO_V1.0.0\DEBUG\MOC_DICTIONARYFORM.OBJ
D:\PROJECTS\PROM-SOFT\OSTROJZKIY_PESHAYNIY_KARYER\ARM_SCALES_AUTO_V1.0.0\DEBUG\MOC_FORM_TTN.OBJ
D:\PROJECTS\PROM-SOFT\OSTROJZKIY_PESHAYNIY_KARYER\ARM_SCALES_AUTO_V1.0.0\DEBUG\MOC_HIDDENWEIGHING.OBJ
D:\PROJECTS\PROM-SOFT\OSTROJZKIY_PESHAYNIY_KARYER\ARM_SCALES_AUTO_V1.0.0\DEBUG\MOC_LOGEVENTSFORM.OBJ
D:\PROJECTS\PROM-SOFT\OSTROJZKIY_PESHAYNIY_KARYER\ARM_SCALES_AUTO_V1.0.0\DEBUG\MOC_LOGINWINDOW.OBJ
D:\PROJECTS\PROM-SOFT\OSTROJZKIY_PESHAYNIY_KARYER\ARM_SCALES_AUTO_V1.0.0\DEBUG\MOC_MAILSEND.OBJ
D:\PROJECTS\PROM-SOFT\OSTROJZKIY_PESHAYNIY_KARYER\ARM_SCALES_AUTO_V1.0.0\DEBUG\MOC_MYCLASS.OBJ
D:\PROJECTS\PROM-SOFT\OSTROJZKIY_PESHAYNIY_KARYER\ARM_SCALES_AUTO_V1.0.0\DEBUG\MOC_NUMBERANDTIMESTAMP.OBJ
D:\PROJECTS\PROM-SOFT\OSTROJZKIY_PESHAYNIY_KARYER\ARM_SCALES_AUTO_V1.0.0\DEBUG\MOC_OPTIONALDEVICES.OBJ
D:\PROJECTS\PROM-SOFT\OSTROJZKIY_PESHAYNIY_KARYER\ARM_SCALES_AUTO_V1.0.0\DEBUG\MOC_OPTIONS.OBJ
D:\PROJECTS\PROM-SOFT\OSTROJZKIY_PESHAYNIY_KARYER\ARM_SCALES_AUTO_V1.0.0\DEBUG\MOC_QTLOCALPEER.OBJ
D:\PROJECTS\PROM-SOFT\OSTROJZKIY_PESHAYNIY_KARYER\ARM_SCALES_AUTO_V1.0.0\DEBUG\MOC_QTSINGLEAPPLICATION.OBJ
D:\PROJECTS\PROM-SOFT\OSTROJZKIY_PESHAYNIY_KARYER\ARM_SCALES_AUTO_V1.0.0\DEBUG\MOC_QTSINGLECOREAPPLICATION.OBJ
D:\PROJECTS\PROM-SOFT\OSTROJZKIY_PESHAYNIY_KARYER\ARM_SCALES_AUTO_V1.0.0\DEBUG\MOC_REGISTRATIONMODEL.OBJ
D:\PROJECTS\PROM-SOFT\OSTROJZKIY_PESHAYNIY_KARYER\ARM_SCALES_AUTO_V1.0.0\DEBUG\MOC_REGISTRATION_RFID.OBJ
D:\PROJECTS\PROM-SOFT\OSTROJZKIY_PESHAYNIY_KARYER\ARM_SCALES_AUTO_V1.0.0\DEBUG\MOC_REPORTFORMCLASS.OBJ
D:\PROJECTS\PROM-SOFT\OSTROJZKIY_PESHAYNIY_KARYER\ARM_SCALES_AUTO_V1.0.0\DEBUG\MOC_REPORTSTABLEMODEL.OBJ
D:\PROJECTS\PROM-SOFT\OSTROJZKIY_PESHAYNIY_KARYER\ARM_SCALES_AUTO_V1.0.0\DEBUG\MOC_SERIALPORTCLASS.OBJ
D:\PROJECTS\PROM-SOFT\OSTROJZKIY_PESHAYNIY_KARYER\ARM_SCALES_AUTO_V1.0.0\DEBUG\MOC_SETTINGS.OBJ
D:\PROJECTS\PROM-SOFT\OSTROJZKIY_PESHAYNIY_KARYER\ARM_SCALES_AUTO_V1.0.0\DEBUG\MOC_SPRAVOCHNIK_TARA.OBJ
D:\PROJECTS\PROM-SOFT\OSTROJZKIY_PESHAYNIY_KARYER\ARM_SCALES_AUTO_V1.0.0\DEBUG\MOC_TARADICTIONARYMODEL.OBJ
D:\PROJECTS\PROM-SOFT\OSTROJZKIY_PESHAYNIY_KARYER\ARM_SCALES_AUTO_V1.0.0\DEBUG\HIDDENWEIGHING.OBJ
D:\PROJECTS\PROM-SOFT\OSTROJZKIY_PESHAYNIY_KARYER\ARM_SCALES_AUTO_V1.0.0\DEBUG\LOGEVENTSFORM.OBJ
D:\PROJECTS\PROM-SOFT\OSTROJZKIY_PESHAYNIY_KARYER\ARM_SCALES_AUTO_V1.0.0\DEBUG\LOGINWINDOW.OBJ
D:\PROJECTS\PROM-SOFT\OSTROJZKIY_PESHAYNIY_KARYER\ARM_SCALES_AUTO_V1.0.0\DEBUG\MAILSEND.OBJ
D:\PROJECTS\PROM-SOFT\OSTROJZKIY_PESHAYNIY_KARYER\ARM_SCALES_AUTO_V1.0.0\DEBUG\MAIN.OBJ
D:\PROJECTS\PROM-SOFT\OSTROJZKIY_PESHAYNIY_KARYER\ARM_SCALES_AUTO_V1.0.0\DEBUG\REGISTRATIONMODEL.OBJ
D:\PROJECTS\PROM-SOFT\OSTROJZKIY_PESHAYNIY_KARYER\ARM_SCALES_AUTO_V1.0.0\DEBUG\REPORTSTABLEMODEL.OBJ
D:\PROJECTS\PROM-SOFT\OSTROJZKIY_PESHAYNIY_KARYER\ARM_SCALES_AUTO_V1.0.0\DEBUG\MAINTABLEMODEL.OBJ
D:\PROJECTS\PROM-SOFT\OSTROJZKIY_PESHAYNIY_KARYER\ARM_SCALES_AUTO_V1.0.0\DEBUG\MYCLASS.OBJ
D:\PROJECTS\PROM-SOFT\OSTROJZKIY_PESHAYNIY_KARYER\ARM_SCALES_AUTO_V1.0.0\DEBUG\NUMBERANDTIMESTAMP.OBJ
D:\PROJECTS\PROM-SOFT\OSTROJZKIY_PESHAYNIY_KARYER\ARM_SCALES_AUTO_V1.0.0\DEBUG\OPTIONALDEVICES.OBJ
D:\PROJECTS\PROM-SOFT\OSTROJZKIY_PESHAYNIY_KARYER\ARM_SCALES_AUTO_V1.0.0\DEBUG\OPTIONS.OBJ
D:\PROJECTS\PROM-SOFT\OSTROJZKIY_PESHAYNIY_KARYER\ARM_SCALES_AUTO_V1.0.0\DEBUG\QTLOCALPEER.OBJ
D:\PROJECTS\PROM-SOFT\OSTROJZKIY_PESHAYNIY_KARYER\ARM_SCALES_AUTO_V1.0.0\DEBUG\QTSINGLEAPPLICATION.OBJ
D:\PROJECTS\PROM-SOFT\OSTROJZKIY_PESHAYNIY_KARYER\ARM_SCALES_AUTO_V1.0.0\DEBUG\QTSINGLECOREAPPLICATION.OBJ
D:\PROJECTS\PROM-SOFT\OSTROJZKIY_PESHAYNIY_KARYER\ARM_SCALES_AUTO_V1.0.0\DEBUG\REGISTRATION_RFID.OBJ
D:\PROJECTS\PROM-SOFT\OSTROJZKIY_PESHAYNIY_KARYER\ARM_SCALES_AUTO_V1.0.0\DEBUG\REPORTFORMCLASS.OBJ
D:\PROJECTS\PROM-SOFT\OSTROJZKIY_PESHAYNIY_KARYER\ARM_SCALES_AUTO_V1.0.0\DEBUG\REPORTS_RFID.OBJ
D:\PROJECTS\PROM-SOFT\OSTROJZKIY_PESHAYNIY_KARYER\ARM_SCALES_AUTO_V1.0.0\DEBUG\SERIALPORTCLASS.OBJ
D:\PROJECTS\PROM-SOFT\OSTROJZKIY_PESHAYNIY_KARYER\ARM_SCALES_AUTO_V1.0.0\DEBUG\SETTINGS.OBJ
D:\PROJECTS\PROM-SOFT\OSTROJZKIY_PESHAYNIY_KARYER\ARM_SCALES_AUTO_V1.0.0\DEBUG\SPRAVOCHNIK_TARA.OBJ
D:\PROJECTS\PROM-SOFT\OSTROJZKIY_PESHAYNIY_KARYER\ARM_SCALES_AUTO_V1.0.0\DEBUG\STDAFX.OBJ
D:\PROJECTS\PROM-SOFT\OSTROJZKIY_PESHAYNIY_KARYER\ARM_SCALES_AUTO_V1.0.0\DEBUG\TARADICTIONARYMODEL.OBJ
C:\WINDOWS\SYSTEM32\TZRES.DLL
D:\PROJECTS\PROM-SOFT\OSTROJZKIY_PESHAYNIY_KARYER\WIN32\DEBUG\PROM-SOFT.ILK
D:\PROJECTS\PROM-SOFT\OSTROJZKIY_PESHAYNIY_KARYER\WIN32\DEBUG\PROM-SOFT.EXE
D:\PROGRAM FILES (X86)\MICROSOFT VISUAL STUDIO 10.0\VC\BIN\1033\LINKUI.DLL
C:\WINDOWS\GLOBALIZATION\SORTING\SORTDEFAULT.NLS
D:\PROGRAM FILES (X86)\MICROSOFT VISUAL STUDIO 10.0\VC\LIB\MSVCPRTD.LIB
D:\PROGRAM FILES (X86)\MICROSOFT VISUAL STUDIO 10.0\VC\LIB\MSVCRTD.LIB
D:\PROGRAM FILES (X86)\MICROSOFT VISUAL STUDIO 10.0\VC\LIB\OLDNAMES.LIB
D:\PROGRAM FILES (X86)\MICROSOFT VISUAL STUDIO 10.0\VC\BIN\CVTRES.EXE
^D:\PROJECTS\OSTROJZKIY_PESHAYNIY_KARYER\ARM_SCALES_AUTO_V1.0.0\DEBUG\ACCEPTIONFORMS.OBJ|D:\PROJECTS\OSTROJZKIY_PESHAYNIY_KARYER\ARM_SCALES_AUTO_V1.0.0\DEBUG\ARM_SCALES_AUTO_V1.0.RES|D:\PROJECTS\OSTROJZKIY_PESHAYNIY_KARYER\ARM_SCALES_AUTO_V1.0.0\DEBUG\CARDREADERRFID.OBJ|D:\PROJECTS\OSTROJZKIY_PESHAYNIY_KARYER\ARM_SCALES_AUTO_V1.0.0\DEBUG\CRYPT.OBJ|D:\PROJECTS\OSTROJZKIY_PESHAYNIY_KARYER\ARM_SCALES_AUTO_V1.0.0\DEBUG\DB_DRIVER.OBJ|D:\PROJECTS\OSTROJZKIY_PESHAYNIY_KARYER\ARM_SCALES_AUTO_V1.0.0\DEBUG\DIALOGVPSENSORS.OBJ|D:\PROJECTS\OSTROJZKIY_PESHAYNIY_KARYER\ARM_SCALES_AUTO_V1.0.0\DEBUG\DICTIONARYFORM.OBJ|D:\PROJECTS\OSTROJZKIY_PESHAYNIY_KARYER\ARM_SCALES_AUTO_V1.0.0\DEBUG\FORM_TTN.OBJ|D:\PROJECTS\OSTROJZKIY_PESHAYNIY_KARYER\ARM_SCALES_AUTO_V1.0.0\DEBUG\HIDDENWEIGHING.OBJ|D:\PROJECTS\OSTROJZKIY_PESHAYNIY_KARYER\ARM_SCALES_AUTO_V1.0.0\DEBUG\LOGEVENTSFORM.OBJ|D:\PROJECTS\OSTROJZKIY_PESHAYNIY_KARYER\ARM_SCALES_AUTO_V1.0.0\DEBUG\LOGINWINDOW.OBJ|D:\PROJECTS\OSTROJZKIY_PESHAYNIY_KARYER\ARM_SCALES_AUTO_V1.0.0\DEBUG\MAILSEND.OBJ|D:\PROJECTS\OSTROJZKIY_PESHAYNIY_KARYER\ARM_SCALES_AUTO_V1.0.0\DEBUG\MAIN.OBJ|D:\PROJECTS\OSTROJZKIY_PESHAYNIY_KARYER\ARM_SCALES_AUTO_V1.0.0\DEBUG\MAINTABLEMODEL.OBJ|D:\PROJECTS\OSTROJZKIY_PESHAYNIY_KARYER\ARM_SCALES_AUTO_V1.0.0\DEBUG\MOC_ACCEPTIONFORMS.OBJ|D:\PROJECTS\OSTROJZKIY_PESHAYNIY_KARYER\ARM_SCALES_AUTO_V1.0.0\DEBUG\MOC_CARDREADERRFID.OBJ|D:\PROJECTS\OSTROJZKIY_PESHAYNIY_KARYER\ARM_SCALES_AUTO_V1.0.0\DEBUG\MOC_DB_DRIVER.OBJ|D:\PROJECTS\OSTROJZKIY_PESHAYNIY_KARYER\ARM_SCALES_AUTO_V1.0.0\DEBUG\MOC_DIALOGVPSENSORS.OBJ|D:\PROJECTS\OSTROJZKIY_PESHAYNIY_KARYER\ARM_SCALES_AUTO_V1.0.0\DEBUG\MOC_DICTIONARYFORM.OBJ|D:\PROJECTS\OSTROJZKIY_PESHAYNIY_KARYER\ARM_SCALES_AUTO_V1.0.0\DEBUG\MOC_FORM_TTN.OBJ|D:\PROJECTS\OSTROJZKIY_PESHAYNIY_KARYER\ARM_SCALES_AUTO_V1.0.0\DEBUG\MOC_HIDDENWEIGHING.OBJ|D:\PROJECTS\OSTROJZKIY_PESHAYNIY_KARYER\ARM_SCALES_AUTO_V1.0.0\DEBUG\MOC_LOGEVENTSFORM.OBJ|D:\PROJECTS\OSTROJZKIY_PESHAYNIY_KARYER\ARM_SCALES_AUTO_V1.0.0\DEBUG\MOC_LOGINWINDOW.OBJ|D:\PROJECTS\OSTROJZKIY_PESHAYNIY_KARYER\ARM_SCALES_AUTO_V1.0.0\DEBUG\MOC_MAILSEND.OBJ|D:\PROJECTS\OSTROJZKIY_PESHAYNIY_KARYER\ARM_SCALES_AUTO_V1.0.0\DEBUG\MOC_MAINTABLEMODEL.OBJ|D:\PROJECTS\OSTROJZKIY_PESHAYNIY_KARYER\ARM_SCALES_AUTO_V1.0.0\DEBUG\MOC_MYCLASS.OBJ|D:\PROJECTS\OSTROJZKIY_PESHAYNIY_KARYER\ARM_SCALES_AUTO_V1.0.0\DEBUG\MOC_NUMBERANDTIMESTAMP.OBJ|D:\PROJECTS\OSTROJZKIY_PESHAYNIY_KARYER\ARM_SCALES_AUTO_V1.0.0\DEBUG\MOC_OPTIONALDEVICES.OBJ|D:\PROJECTS\OSTROJZKIY_PESHAYNIY_KARYER\ARM_SCALES_AUTO_V1.0.0\DEBUG\MOC_OPTIONS.OBJ|D:\PROJECTS\OSTROJZKIY_PESHAYNIY_KARYER\ARM_SCALES_AUTO_V1.0.0\DEBUG\MOC_QTLOCALPEER.OBJ|D:\PROJECTS\OSTROJZKIY_PESHAYNIY_KARYER\ARM_SCALES_AUTO_V1.0.0\DEBUG\MOC_QTSINGLEAPPLICATION.OBJ|D:\PROJECTS\OSTROJZKIY_PESHAYNIY_KARYER\ARM_SCALES_AUTO_V1.0.0\DEBUG\MOC_QTSINGLECOREAPPLICATION.OBJ|D:\PROJECTS\OSTROJZKIY_PESHAYNIY_KARYER\ARM_SCALES_AUTO_V1.0.0\DEBUG\MOC_REGISTRATIONMODEL.OBJ|D:\PROJECTS\OSTROJZKIY_PESHAYNIY_KARYER\ARM_SCALES_AUTO_V1.0.0\DEBUG\MOC_REGISTRATION_RFID.OBJ|D:\PROJECTS\OSTROJZKIY_PESHAYNIY_KARYER\ARM_SCALES_AUTO_V1.0.0\DEBUG\MOC_REPORTFORMCLASS.OBJ|D:\PROJECTS\OSTROJZKIY_PESHAYNIY_KARYER\ARM_SCALES_AUTO_V1.0.0\DEBUG\MOC_REPORTSTABLEMODEL.OBJ|D:\PROJECTS\OSTROJZKIY_PESHAYNIY_KARYER\ARM_SCALES_AUTO_V1.0.0\DEBUG\MOC_REPORTS_RFID.OBJ|D:\PROJECTS\OSTROJZKIY_PESHAYNIY_KARYER\ARM_SCALES_AUTO_V1.0.0\DEBUG\MOC_SERIALPORTCLASS.OBJ|D:\PROJECTS\OSTROJZKIY_PESHAYNIY_KARYER\ARM_SCALES_AUTO_V1.0.0\DEBUG\MOC_SETTINGS.OBJ|D:\PROJECTS\OSTROJZKIY_PESHAYNIY_KARYER\ARM_SCALES_AUTO_V1.0.0\DEBUG\MOC_SPRAVOCHNIK_TARA.OBJ|D:\PROJECTS\OSTROJZKIY_PESHAYNIY_KARYER\ARM_SCALES_AUTO_V1.0.0\DEBUG\MOC_TARADICTIONARYMODEL.OBJ|D:\PROJECTS\OSTROJZKIY_PESHAYNIY_KARYER\ARM_SCALES_AUTO_V1.0.0\DEBUG\MYCLASS.OBJ|D:\PROJECTS\OSTROJZKIY_PESHAYNIY_KARYER\ARM_SCALES_AUTO_V1.0.0\DEBUG\NUMBERANDTIMESTAMP.OBJ|D:\PROJECTS\OSTROJZKIY_PESHAYNIY_KARYER\ARM_SCALES_AUTO_V1.0.0\DEBUG\OPTIONALDEVICES.OBJ|D:\PROJECTS\OSTROJZKIY_PESHAYNIY_KARYER\ARM_SCALES_AUTO_V1.0.0\DEBUG\OPTIONS.OBJ|D:\PROJECTS\OSTROJZKIY_PESHAYNIY_KARYER\ARM_SCALES_AUTO_V1.0.0\DEBUG\QTLOCALPEER.OBJ|D:\PROJECTS\OSTROJZKIY_PESHAYNIY_KARYER\ARM_SCALES_AUTO_V1.0.0\DEBUG\QTSINGLEAPPLICATION.OBJ|D:\PROJECTS\OSTROJZKIY_PESHAYNIY_KARYER\ARM_SCALES_AUTO_V1.0.0\DEBUG\QTSINGLECOREAPPLICATION.OBJ|D:\PROJECTS\OSTROJZKIY_PESHAYNIY_KARYER\ARM_SCALES_AUTO_V1.0.0\DEBUG\REGISTRATIONMODEL.OBJ|D:\PROJECTS\OSTROJZKIY_PESHAYNIY_KARYER\ARM_SCALES_AUTO_V1.0.0\DEBUG\REGISTRATION_RFID.OBJ|D:\PROJECTS\OSTROJZKIY_PESHAYNIY_KARYER\ARM_SCALES_AUTO_V1.0.0\DEBUG\REPORTFORMCLASS.OBJ|D:\PROJECTS\OSTROJZKIY_PESHAYNIY_KARYER\ARM_SCALES_AUTO_V1.0.0\DEBUG\REPORTSTABLEMODEL.OBJ|D:\PROJECTS\OSTROJZKIY_PESHAYNIY_KARYER\ARM_SCALES_AUTO_V1.0.0\DEBUG\REPORTS_RFID.OBJ|D:\PROJECTS\OSTROJZKIY_PESHAYNIY_KARYER\ARM_SCALES_AUTO_V1.0.0\DEBUG\SERIALPORTCLASS.OBJ|D:\PROJECTS\OSTROJZKIY_PESHAYNIY_KARYER\ARM_SCALES_AUTO_V1.0.0\DEBUG\SETTINGS.OBJ|D:\PROJECTS\OSTROJZKIY_PESHAYNIY_KARYER\ARM_SCALES_AUTO_V1.0.0\DEBUG\SPRAVOCHNIK_TARA.OBJ|D:\PROJECTS\OSTROJZKIY_PESHAYNIY_KARYER\ARM_SCALES_AUTO_V1.0.0\DEBUG\STDAFX.OBJ|D:\PROJECTS\OSTROJZKIY_PESHAYNIY_KARYER\ARM_SCALES_AUTO_V1.0.0\DEBUG\TARADICTIONARYMODEL.OBJ
C:\QT\4.8.4\LIB\QTMAIND.LIB
C:\QT\4.8.4\LIB\QTCORED4.LIB
C:\QT\4.8.4\LIB\QTGUID4.LIB
C:\QT\4.8.4\LIB\QTMULTIMEDIAD4.LIB
C:\QT\4.8.4\LIB\QSERIALPORTLIB\QTSERIALPORTD.LIB
C:\QT\4.8.4\LIB\QTNETWORKD4.LIB
C:\QT\4.8.4\LIB\QTSQLD4.LIB
C:\QT\4.8.4\LIB\LIBMYSQL.LIB
C:\QT\4.8.4\PLUGINS\SQLDRIVERS\QSQLMYSQL4.LIB
C:\QT\4.8.4\PLUGINS\SQLDRIVERS\QSQLMYSQLD4.LIB
D:\PROJECTS\OSTROJZKIY_PESHAYNIY_KARYER\ARM_SCALES_AUTO_V1.0.0\SMTPCLIENT\DEBUG\SMTPEMAIL.LIB
C:\QT\4.8.4\LIB\QTWEBKITD4.LIB
C:\QT\4.8.4\LIB\QTOPENGLD4.LIB
C:\PROGRAM FILES (X86)\MICROSOFT SDKS\WINDOWS\V7.0A\LIB\OPENGL32.LIB
C:\PROGRAM FILES (X86)\MICROSOFT SDKS\WINDOWS\V7.0A\LIB\GLU32.LIB
C:\QT\4.8.4\LIB\QT3SUPPORTD4.LIB
C:\PROGRAM FILES (X86)\MICROSOFT SDKS\WINDOWS\V7.0A\LIB\COMDLG32.LIB
C:\QT\4.8.4\LIB\QAXSERVERD.LIB
C:\QT\4.8.4\LIB\QAXCONTAINERD.LIB
C:\PROGRAM FILES (X86)\MICROSOFT SDKS\WINDOWS\V7.0A\LIB\KERNEL32.LIB
C:\PROGRAM FILES (X86)\MICROSOFT SDKS\WINDOWS\V7.0A\LIB\USER32.LIB
C:\PROGRAM FILES (X86)\MICROSOFT SDKS\WINDOWS\V7.0A\LIB\GDI32.LIB
C:\PROGRAM FILES (X86)\MICROSOFT SDKS\WINDOWS\V7.0A\LIB\WINSPOOL.LIB
C:\PROGRAM FILES (X86)\MICROSOFT SDKS\WINDOWS\V7.0A\LIB\ADVAPI32.LIB
C:\PROGRAM FILES (X86)\MICROSOFT SDKS\WINDOWS\V7.0A\LIB\SHELL32.LIB
C:\PROGRAM FILES (X86)\MICROSOFT SDKS\WINDOWS\V7.0A\LIB\OLE32.LIB
C:\PROGRAM FILES (X86)\MICROSOFT SDKS\WINDOWS\V7.0A\LIB\OLEAUT32.LIB
C:\PROGRAM FILES (X86)\MICROSOFT SDKS\WINDOWS\V7.0A\LIB\UUID.LIB
C:\PROGRAM FILES (X86)\MICROSOFT SDKS\WINDOWS\V7.0A\LIB\ODBC32.LIB
C:\PROGRAM FILES (X86)\MICROSOFT SDKS\WINDOWS\V7.0A\LIB\ODBCCP32.LIB
D:\PROJECTS\OSTROJZKIY_PESHAYNIY_KARYER\ARM_SCALES_AUTO_V1.0.0\DEBUG\ARM_SCALES_AUTO_V1.0.RES
D:\PROJECTS\OSTROJZKIY_PESHAYNIY_KARYER\ARM_SCALES_AUTO_V1.0.0\DEBUG\MOC_MAINTABLEMODEL.OBJ
D:\PROJECTS\OSTROJZKIY_PESHAYNIY_KARYER\ARM_SCALES_AUTO_V1.0.0\DEBUG\MOC_REPORTS_RFID.OBJ
D:\PROJECTS\OSTROJZKIY_PESHAYNIY_KARYER\ARM_SCALES_AUTO_V1.0.0\DEBUG\ACCEPTIONFORMS.OBJ
D:\PROJECTS\OSTROJZKIY_PESHAYNIY_KARYER\ARM_SCALES_AUTO_V1.0.0\DEBUG\CARDREADERRFID.OBJ
D:\PROJECTS\OSTROJZKIY_PESHAYNIY_KARYER\ARM_SCALES_AUTO_V1.0.0\DEBUG\CRYPT.OBJ
D:\PROJECTS\OSTROJZKIY_PESHAYNIY_KARYER\ARM_SCALES_AUTO_V1.0.0\DEBUG\DB_DRIVER.OBJ
D:\PROJECTS\OSTROJZKIY_PESHAYNIY_KARYER\ARM_SCALES_AUTO_V1.0.0\DEBUG\DIALOGVPSENSORS.OBJ
D:\PROJECTS\OSTROJZKIY_PESHAYNIY_KARYER\ARM_SCALES_AUTO_V1.0.0\DEBUG\DICTIONARYFORM.OBJ
D:\PROJECTS\OSTROJZKIY_PESHAYNIY_KARYER\ARM_SCALES_AUTO_V1.0.0\DEBUG\FORM_TTN.OBJ
D:\PROJECTS\OSTROJZKIY_PESHAYNIY_KARYER\ARM_SCALES_AUTO_V1.0.0\DEBUG\MOC_ACCEPTIONFORMS.OBJ
D:\PROJECTS\OSTROJZKIY_PESHAYNIY_KARYER\ARM_SCALES_AUTO_V1.0.0\DEBUG\MOC_CARDREADERRFID.OBJ
D:\PROJECTS\OSTROJZKIY_PESHAYNIY_KARYER\ARM_SCALES_AUTO_V1.0.0\DEBUG\MOC_DB_DRIVER.OBJ
D:\PROJECTS\OSTROJZKIY_PESHAYNIY_KARYER\ARM_SCALES_AUTO_V1.0.0\DEBUG\MOC_DIALOGVPSENSORS.OBJ
D:\PROJECTS\OSTROJZKIY_PESHAYNIY_KARYER\ARM_SCALES_AUTO_V1.0.0\DEBUG\MOC_DICTIONARYFORM.OBJ
D:\PROJECTS\OSTROJZKIY_PESHAYNIY_KARYER\ARM_SCALES_AUTO_V1.0.0\DEBUG\MOC_FORM_TTN.OBJ
D:\PROJECTS\OSTROJZKIY_PESHAYNIY_KARYER\ARM_SCALES_AUTO_V1.0.0\DEBUG\MOC_HIDDENWEIGHING.OBJ
D:\PROJECTS\OSTROJZKIY_PESHAYNIY_KARYER\ARM_SCALES_AUTO_V1.0.0\DEBUG\MOC_LOGEVENTSFORM.OBJ
D:\PROJECTS\OSTROJZKIY_PESHAYNIY_KARYER\ARM_SCALES_AUTO_V1.0.0\DEBUG\MOC_LOGINWINDOW.OBJ
D:\PROJECTS\OSTROJZKIY_PESHAYNIY_KARYER\ARM_SCALES_AUTO_V1.0.0\DEBUG\MOC_MAILSEND.OBJ
D:\PROJECTS\OSTROJZKIY_PESHAYNIY_KARYER\ARM_SCALES_AUTO_V1.0.0\DEBUG\MOC_MYCLASS.OBJ
D:\PROJECTS\OSTROJZKIY_PESHAYNIY_KARYER\ARM_SCALES_AUTO_V1.0.0\DEBUG\MOC_NUMBERANDTIMESTAMP.OBJ
D:\PROJECTS\OSTROJZKIY_PESHAYNIY_KARYER\ARM_SCALES_AUTO_V1.0.0\DEBUG\MOC_OPTIONALDEVICES.OBJ
D:\PROJECTS\OSTROJZKIY_PESHAYNIY_KARYER\ARM_SCALES_AUTO_V1.0.0\DEBUG\MOC_OPTIONS.OBJ
D:\PROJECTS\OSTROJZKIY_PESHAYNIY_KARYER\ARM_SCALES_AUTO_V1.0.0\DEBUG\MOC_QTLOCALPEER.OBJ
D:\PROJECTS\OSTROJZKIY_PESHAYNIY_KARYER\ARM_SCALES_AUTO_V1.0.0\DEBUG\MOC_QTSINGLEAPPLICATION.OBJ
D:\PROJECTS\OSTROJZKIY_PESHAYNIY_KARYER\ARM_SCALES_AUTO_V1.0.0\DEBUG\MOC_QTSINGLECOREAPPLICATION.OBJ
D:\PROJECTS\OSTROJZKIY_PESHAYNIY_KARYER\ARM_SCALES_AUTO_V1.0.0\DEBUG\MOC_REGISTRATIONMODEL.OBJ
D:\PROJECTS\OSTROJZKIY_PESHAYNIY_KARYER\ARM_SCALES_AUTO_V1.0.0\DEBUG\MOC_REGISTRATION_RFID.OBJ
D:\PROJECTS\OSTROJZKIY_PESHAYNIY_KARYER\ARM_SCALES_AUTO_V1.0.0\DEBUG\MOC_REPORTFORMCLASS.OBJ
D:\PROJECTS\OSTROJZKIY_PESHAYNIY_KARYER\ARM_SCALES_AUTO_V1.0.0\DEBUG\MOC_REPORTSTABLEMODEL.OBJ
D:\PROJECTS\OSTROJZKIY_PESHAYNIY_KARYER\ARM_SCALES_AUTO_V1.0.0\DEBUG\MOC_SERIALPORTCLASS.OBJ
D:\PROJECTS\OSTROJZKIY_PESHAYNIY_KARYER\ARM_SCALES_AUTO_V1.0.0\DEBUG\MOC_SETTINGS.OBJ
D:\PROJECTS\OSTROJZKIY_PESHAYNIY_KARYER\ARM_SCALES_AUTO_V1.0.0\DEBUG\MOC_SPRAVOCHNIK_TARA.OBJ
D:\PROJECTS\OSTROJZKIY_PESHAYNIY_KARYER\ARM_SCALES_AUTO_V1.0.0\DEBUG\MOC_TARADICTIONARYMODEL.OBJ
D:\PROJECTS\OSTROJZKIY_PESHAYNIY_KARYER\ARM_SCALES_AUTO_V1.0.0\DEBUG\HIDDENWEIGHING.OBJ
D:\PROJECTS\OSTROJZKIY_PESHAYNIY_KARYER\ARM_SCALES_AUTO_V1.0.0\DEBUG\LOGEVENTSFORM.OBJ
D:\PROJECTS\OSTROJZKIY_PESHAYNIY_KARYER\ARM_SCALES_AUTO_V1.0.0\DEBUG\LOGINWINDOW.OBJ
D:\PROJECTS\OSTROJZKIY_PESHAYNIY_KARYER\ARM_SCALES_AUTO_V1.0.0\DEBUG\MAILSEND.OBJ
D:\PROJECTS\OSTROJZKIY_PESHAYNIY_KARYER\ARM_SCALES_AUTO_V1.0.0\DEBUG\MAIN.OBJ
D:\PROJECTS\OSTROJZKIY_PESHAYNIY_KARYER\ARM_SCALES_AUTO_V1.0.0\DEBUG\REGISTRATIONMODEL.OBJ
D:\PROJECTS\OSTROJZKIY_PESHAYNIY_KARYER\ARM_SCALES_AUTO_V1.0.0\DEBUG\REPORTSTABLEMODEL.OBJ
D:\PROJECTS\OSTROJZKIY_PESHAYNIY_KARYER\ARM_SCALES_AUTO_V1.0.0\DEBUG\MAINTABLEMODEL.OBJ
D:\PROJECTS\OSTROJZKIY_PESHAYNIY_KARYER\ARM_SCALES_AUTO_V1.0.0\DEBUG\MYCLASS.OBJ
D:\PROJECTS\OSTROJZKIY_PESHAYNIY_KARYER\ARM_SCALES_AUTO_V1.0.0\DEBUG\NUMBERANDTIMESTAMP.OBJ
D:\PROJECTS\OSTROJZKIY_PESHAYNIY_KARYER\ARM_SCALES_AUTO_V1.0.0\DEBUG\OPTIONALDEVICES.OBJ
D:\PROJECTS\OSTROJZKIY_PESHAYNIY_KARYER\ARM_SCALES_AUTO_V1.0.0\DEBUG\OPTIONS.OBJ
D:\PROJECTS\OSTROJZKIY_PESHAYNIY_KARYER\ARM_SCALES_AUTO_V1.0.0\DEBUG\QTLOCALPEER.OBJ
D:\PROJECTS\OSTROJZKIY_PESHAYNIY_KARYER\ARM_SCALES_AUTO_V1.0.0\DEBUG\QTSINGLEAPPLICATION.OBJ
D:\PROJECTS\OSTROJZKIY_PESHAYNIY_KARYER\ARM_SCALES_AUTO_V1.0.0\DEBUG\QTSINGLECOREAPPLICATION.OBJ
D:\PROJECTS\OSTROJZKIY_PESHAYNIY_KARYER\ARM_SCALES_AUTO_V1.0.0\DEBUG\REGISTRATION_RFID.OBJ
D:\PROJECTS\OSTROJZKIY_PESHAYNIY_KARYER\ARM_SCALES_AUTO_V1.0.0\DEBUG\REPORTFORMCLASS.OBJ
D:\PROJECTS\OSTROJZKIY_PESHAYNIY_KARYER\ARM_SCALES_AUTO_V1.0.0\DEBUG\REPORTS_RFID.OBJ
D:\PROJECTS\OSTROJZKIY_PESHAYNIY_KARYER\ARM_SCALES_AUTO_V1.0.0\DEBUG\SERIALPORTCLASS.OBJ
D:\PROJECTS\OSTROJZKIY_PESHAYNIY_KARYER\ARM_SCALES_AUTO_V1.0.0\DEBUG\SETTINGS.OBJ
D:\PROJECTS\OSTROJZKIY_PESHAYNIY_KARYER\ARM_SCALES_AUTO_V1.0.0\DEBUG\SPRAVOCHNIK_TARA.OBJ
D:\PROJECTS\OSTROJZKIY_PESHAYNIY_KARYER\ARM_SCALES_AUTO_V1.0.0\DEBUG\STDAFX.OBJ
D:\PROJECTS\OSTROJZKIY_PESHAYNIY_KARYER\ARM_SCALES_AUTO_V1.0.0\DEBUG\TARADICTIONARYMODEL.OBJ
C:\WINDOWS\SYSTEM32\TZRES.DLL
D:\PROJECTS\OSTROJZKIY_PESHAYNIY_KARYER\WIN32\DEBUG\PROM-SOFT.ILK
D:\PROJECTS\OSTROJZKIY_PESHAYNIY_KARYER\WIN32\DEBUG\PROM-SOFT.EXE
C:\PROGRAM FILES (X86)\MICROSOFT VISUAL STUDIO 10.0\VC\BIN\1033\LINKUI.DLL
C:\WINDOWS\GLOBALIZATION\SORTING\SORTDEFAULT.NLS
C:\PROGRAM FILES (X86)\MICROSOFT VISUAL STUDIO 10.0\VC\LIB\MSVCPRTD.LIB
C:\PROGRAM FILES (X86)\MICROSOFT VISUAL STUDIO 10.0\VC\LIB\MSVCRTD.LIB
C:\PROGRAM FILES (X86)\MICROSOFT VISUAL STUDIO 10.0\VC\LIB\OLDNAMES.LIB
C:\PROGRAM FILES (X86)\MICROSOFT VISUAL STUDIO 10.0\VC\BIN\CVTRES.EXE
C:\WINDOWS\SYSTEM32\RSAENH.DLL
^D:\PROJECTS\PROM-SOFT\OSTROJZKIY_PESHAYNIY_KARYER_PRIZEP\ARM_SCALES_AUTO_V1.0.0\DEBUG\ACCEPTIONFORMS.OBJ|D:\PROJECTS\PROM-SOFT\OSTROJZKIY_PESHAYNIY_KARYER_PRIZEP\ARM_SCALES_AUTO_V1.0.0\DEBUG\ARM_SCALES_AUTO_V1.0.RES|D:\PROJECTS\PROM-SOFT\OSTROJZKIY_PESHAYNIY_KARYER_PRIZEP\ARM_SCALES_AUTO_V1.0.0\DEBUG\CARDREADERRFID.OBJ|D:\PROJECTS\PROM-SOFT\OSTROJZKIY_PESHAYNIY_KARYER_PRIZEP\ARM_SCALES_AUTO_V1.0.0\DEBUG\CRYPT.OBJ|D:\PROJECTS\PROM-SOFT\OSTROJZKIY_PESHAYNIY_KARYER_PRIZEP\ARM_SCALES_AUTO_V1.0.0\DEBUG\DB_DRIVER.OBJ|D:\PROJECTS\PROM-SOFT\OSTROJZKIY_PESHAYNIY_KARYER_PRIZEP\ARM_SCALES_AUTO_V1.0.0\DEBUG\DIALOGVPSENSORS.OBJ|D:\PROJECTS\PROM-SOFT\OSTROJZKIY_PESHAYNIY_KARYER_PRIZEP\ARM_SCALES_AUTO_V1.0.0\DEBUG\DICTIONARYFORM.OBJ|D:\PROJECTS\PROM-SOFT\OSTROJZKIY_PESHAYNIY_KARYER_PRIZEP\ARM_SCALES_AUTO_V1.0.0\DEBUG\FORM_TTN.OBJ|D:\PROJECTS\PROM-SOFT\OSTROJZKIY_PESHAYNIY_KARYER_PRIZEP\ARM_SCALES_AUTO_V1.0.0\DEBUG\HIDDENWEIGHING.OBJ|D:\PROJECTS\PROM-SOFT\OSTROJZKIY_PESHAYNIY_KARYER_PRIZEP\ARM_SCALES_AUTO_V1.0.0\DEBUG\LOGEVENTSFORM.OBJ|D:\PROJECTS\PROM-SOFT\OSTROJZKIY_PESHAYNIY_KARYER_PRIZEP\ARM_SCALES_AUTO_V1.0.0\DEBUG\LOGINWINDOW.OBJ|D:\PROJECTS\PROM-SOFT\OSTROJZKIY_PESHAYNIY_KARYER_PRIZEP\ARM_SCALES_AUTO_V1.0.0\DEBUG\MAILSEND.OBJ|D:\PROJECTS\PROM-SOFT\OSTROJZKIY_PESHAYNIY_KARYER_PRIZEP\ARM_SCALES_AUTO_V1.0.0\DEBUG\MAIN.OBJ|D:\PROJECTS\PROM-SOFT\OSTROJZKIY_PESHAYNIY_KARYER_PRIZEP\ARM_SCALES_AUTO_V1.0.0\DEBUG\MAINTABLEMODEL.OBJ|D:\PROJECTS\PROM-SOFT\OSTROJZKIY_PESHAYNIY_KARYER_PRIZEP\ARM_SCALES_AUTO_V1.0.0\DEBUG\MOC_ACCEPTIONFORMS.OBJ|D:\PROJECTS\PROM-SOFT\OSTROJZKIY_PESHAYNIY_KARYER_PRIZEP\ARM_SCALES_AUTO_V1.0.0\DEBUG\MOC_CARDREADERRFID.OBJ|D:\PROJECTS\PROM-SOFT\OSTROJZKIY_PESHAYNIY_KARYER_PRIZEP\ARM_SCALES_AUTO_V1.0.0\DEBUG\MOC_DB_DRIVER.OBJ|D:\PROJECTS\PROM-SOFT\OSTROJZKIY_PESHAYNIY_KARYER_PRIZEP\ARM_SCALES_AUTO_V1.0.0\DEBUG\MOC_DIALOGVPSENSORS.OBJ|D:\PROJECTS\PROM-SOFT\OSTROJZKIY_PESHAYNIY_KARYER_PRIZEP\ARM_SCALES_AUTO_V1.0.0\DEBUG\MOC_DICTIONARYFORM.OBJ|D:\PROJECTS\PROM-SOFT\OSTROJZKIY_PESHAYNIY_KARYER_PRIZEP\ARM_SCALES_AUTO_V1.0.0\DEBUG\MOC_FORM_TTN.OBJ|D:\PROJECTS\PROM-SOFT\OSTROJZKIY_PESHAYNIY_KARYER_PRIZEP\ARM_SCALES_AUTO_V1.0.0\DEBUG\MOC_HIDDENWEIGHING.OBJ|D:\PROJECTS\PROM-SOFT\OSTROJZKIY_PESHAYNIY_KARYER_PRIZEP\ARM_SCALES_AUTO_V1.0.0\DEBUG\MOC_LOGEVENTSFORM.OBJ|D:\PROJECTS\PROM-SOFT\OSTROJZKIY_PESHAYNIY_KARYER_PRIZEP\ARM_SCALES_AUTO_V1.0.0\DEBUG\MOC_LOGINWINDOW.OBJ|D:\PROJECTS\PROM-SOFT\OSTROJZKIY_PESHAYNIY_KARYER_PRIZEP\ARM_SCALES_AUTO_V1.0.0\DEBUG\MOC_MAILSEND.OBJ|D:\PROJECTS\PROM-SOFT\OSTROJZKIY_PESHAYNIY_KARYER_PRIZEP\ARM_SCALES_AUTO_V1.0.0\DEBUG\MOC_MAINTABLEMODEL.OBJ|D:\PROJECTS\PROM-SOFT\OSTROJZKIY_PESHAYNIY_KARYER_PRIZEP\ARM_SCALES_AUTO_V1.0.0\DEBUG\MOC_MYCLASS.OBJ|D:\PROJECTS\PROM-SOFT\OSTROJZKIY_PESHAYNIY_KARYER_PRIZEP\ARM_SCALES_AUTO_V1.0.0\DEBUG\MOC_NUMBERANDTIMESTAMP.OBJ|D:\PROJECTS\PROM-SOFT\OSTROJZKIY_PESHAYNIY_KARYER_PRIZEP\ARM_SCALES_AUTO_V1.0.0\DEBUG\MOC_OPTIONALDEVICES.OBJ|D:\PROJECTS\PROM-SOFT\OSTROJZKIY_PESHAYNIY_KARYER_PRIZEP\ARM_SCALES_AUTO_V1.0.0\DEBUG\MOC_OPTIONS.OBJ|D:\PROJECTS\PROM-SOFT\OSTROJZKIY_PESHAYNIY_KARYER_PRIZEP\ARM_SCALES_AUTO_V1.0.0\DEBUG\MOC_QTLOCALPEER.OBJ|D:\PROJECTS\PROM-SOFT\OSTROJZKIY_PESHAYNIY_KARYER_PRIZEP\ARM_SCALES_AUTO_V1.0.0\DEBUG\MOC_QTSINGLEAPPLICATION.OBJ|D:\PROJECTS\PROM-SOFT\OSTROJZKIY_PESHAYNIY_KARYER_PRIZEP\ARM_SCALES_AUTO_V1.0.0\DEBUG\MOC_QTSINGLECOREAPPLICATION.OBJ|D:\PROJECTS\PROM-SOFT\OSTROJZKIY_PESHAYNIY_KARYER_PRIZEP\ARM_SCALES_AUTO_V1.0.0\DEBUG\MOC_REGISTRATIONMODEL.OBJ|D:\PROJECTS\PROM-SOFT\OSTROJZKIY_PESHAYNIY_KARYER_PRIZEP\ARM_SCALES_AUTO_V1.0.0\DEBUG\MOC_REGISTRATION_RFID.OBJ|D:\PROJECTS\PROM-SOFT\OSTROJZKIY_PESHAYNIY_KARYER_PRIZEP\ARM_SCALES_AUTO_V1.0.0\DEBUG\MOC_REPORTFORMCLASS.OBJ|D:\PROJECTS\PROM-SOFT\OSTROJZKIY_PESHAYNIY_KARYER_PRIZEP\ARM_SCALES_AUTO_V1.0.0\DEBUG\MOC_REPORTSTABLEMODEL.OBJ|D:\PROJECTS\PROM-SOFT\OSTROJZKIY_PESHAYNIY_KARYER_PRIZEP\ARM_SCALES_AUTO_V1.0.0\DEBUG\MOC_REPORTS_RFID.OBJ|D:\PROJECTS\PROM-SOFT\OSTROJZKIY_PESHAYNIY_KARYER_PRIZEP\ARM_SCALES_AUTO_V1.0.0\DEBUG\MOC_SERIALPORTCLASS.OBJ|D:\PROJECTS\PROM-SOFT\OSTROJZKIY_PESHAYNIY_KARYER_PRIZEP\ARM_SCALES_AUTO_V1.0.0\DEBUG\MOC_SETTINGS.OBJ|D:\PROJECTS\PROM-SOFT\OSTROJZKIY_PESHAYNIY_KARYER_PRIZEP\ARM_SCALES_AUTO_V1.0.0\DEBUG\MOC_SPRAVOCHNIK_TARA.OBJ|D:\PROJECTS\PROM-SOFT\OSTROJZKIY_PESHAYNIY_KARYER_PRIZEP\ARM_SCALES_AUTO_V1.0.0\DEBUG\MOC_TARADICTIONARYMODEL.OBJ|D:\PROJECTS\PROM-SOFT\OSTROJZKIY_PESHAYNIY_KARYER_PRIZEP\ARM_SCALES_AUTO_V1.0.0\DEBUG\MYCLASS.OBJ|D:\PROJECTS\PROM-SOFT\OSTROJZKIY_PESHAYNIY_KARYER_PRIZEP\ARM_SCALES_AUTO_V1.0.0\DEBUG\NUMBERANDTIMESTAMP.OBJ|D:\PROJECTS\PROM-SOFT\OSTROJZKIY_PESHAYNIY_KARYER_PRIZEP\ARM_SCALES_AUTO_V1.0.0\DEBUG\OPTIONALDEVICES.OBJ|D:\PROJECTS\PROM-SOFT\OSTROJZKIY_PESHAYNIY_KARYER_PRIZEP\ARM_SCALES_AUTO_V1.0.0\DEBUG\OPTIONS.OBJ|D:\PROJECTS\PROM-SOFT\OSTROJZKIY_PESHAYNIY_KARYER_PRIZEP\ARM_SCALES_AUTO_V1.0.0\DEBUG\QTLOCALPEER.OBJ|D:\PROJECTS\PROM-SOFT\OSTROJZKIY_PESHAYNIY_KARYER_PRIZEP\ARM_SCALES_AUTO_V1.0.0\DEBUG\QTSINGLEAPPLICATION.OBJ|D:\PROJECTS\PROM-SOFT\OSTROJZKIY_PESHAYNIY_KARYER_PRIZEP\ARM_SCALES_AUTO_V1.0.0\DEBUG\QTSINGLECOREAPPLICATION.OBJ|D:\PROJECTS\PROM-SOFT\OSTROJZKIY_PESHAYNIY_KARYER_PRIZEP\ARM_SCALES_AUTO_V1.0.0\DEBUG\REGISTRATIONMODEL.OBJ|D:\PROJECTS\PROM-SOFT\OSTROJZKIY_PESHAYNIY_KARYER_PRIZEP\ARM_SCALES_AUTO_V1.0.0\DEBUG\REGISTRATION_RFID.OBJ|D:\PROJECTS\PROM-SOFT\OSTROJZKIY_PESHAYNIY_KARYER_PRIZEP\ARM_SCALES_AUTO_V1.0.0\DEBUG\REPORTFORMCLASS.OBJ|D:\PROJECTS\PROM-SOFT\OSTROJZKIY_PESHAYNIY_KARYER_PRIZEP\ARM_SCALES_AUTO_V1.0.0\DEBUG\REPORTSTABLEMODEL.OBJ|D:\PROJECTS\PROM-SOFT\OSTROJZKIY_PESHAYNIY_KARYER_PRIZEP\ARM_SCALES_AUTO_V1.0.0\DEBUG\REPORTS_RFID.OBJ|D:\PROJECTS\PROM-SOFT\OSTROJZKIY_PESHAYNIY_KARYER_PRIZEP\ARM_SCALES_AUTO_V1.0.0\DEBUG\SERIALPORTCLASS.OBJ|D:\PROJECTS\PROM-SOFT\OSTROJZKIY_PESHAYNIY_KARYER_PRIZEP\ARM_SCALES_AUTO_V1.0.0\DEBUG\SETTINGS.OBJ|D:\PROJECTS\PROM-SOFT\OSTROJZKIY_PESHAYNIY_KARYER_PRIZEP\ARM_SCALES_AUTO_V1.0.0\DEBUG\SPRAVOCHNIK_TARA.OBJ|D:\PROJECTS\PROM-SOFT\OSTROJZKIY_PESHAYNIY_KARYER_PRIZEP\ARM_SCALES_AUTO_V1.0.0\DEBUG\STDAFX.OBJ|D:\PROJECTS\PROM-SOFT\OSTROJZKIY_PESHAYNIY_KARYER_PRIZEP\ARM_SCALES_AUTO_V1.0.0\DEBUG\TARADICTIONARYMODEL.OBJ
C:\QT\4.8.4\LIB\QTMAIND.LIB
C:\QT\4.8.4\LIB\QTCORED4.LIB
C:\QT\4.8.4\LIB\QTGUID4.LIB
C:\QT\4.8.4\LIB\QTMULTIMEDIAD4.LIB
C:\QT\4.8.4\LIB\QSERIALPORTLIB\QTSERIALPORTD.LIB
C:\QT\4.8.4\LIB\QTNETWORKD4.LIB
C:\QT\4.8.4\LIB\QTSQLD4.LIB
C:\QT\4.8.4\LIB\LIBMYSQL.LIB
C:\QT\4.8.4\PLUGINS\SQLDRIVERS\QSQLMYSQL4.LIB
C:\QT\4.8.4\PLUGINS\SQLDRIVERS\QSQLMYSQLD4.LIB
D:\PROJECTS\PROM-SOFT\OSTROJZKIY_PESHAYNIY_KARYER_PRIZEP\ARM_SCALES_AUTO_V1.0.0\SMTPCLIENT\DEBUG\SMTPEMAIL.LIB
C:\QT\4.8.4\LIB\QTWEBKITD4.LIB
C:\QT\4.8.4\LIB\QTOPENGLD4.LIB
C:\PROGRAM FILES (X86)\MICROSOFT SDKS\WINDOWS\V7.0A\LIB\OPENGL32.LIB
C:\PROGRAM FILES (X86)\MICROSOFT SDKS\WINDOWS\V7.0A\LIB\GLU32.LIB
C:\QT\4.8.4\LIB\QT3SUPPORTD4.LIB
C:\PROGRAM FILES (X86)\MICROSOFT SDKS\WINDOWS\V7.0A\LIB\COMDLG32.LIB
C:\QT\4.8.4\LIB\QAXSERVERD.LIB
C:\QT\4.8.4\LIB\QAXCONTAINERD.LIB
C:\PROGRAM FILES (X86)\MICROSOFT SDKS\WINDOWS\V7.0A\LIB\KERNEL32.LIB
C:\PROGRAM FILES (X86)\MICROSOFT SDKS\WINDOWS\V7.0A\LIB\USER32.LIB
C:\PROGRAM FILES (X86)\MICROSOFT SDKS\WINDOWS\V7.0A\LIB\GDI32.LIB
C:\PROGRAM FILES (X86)\MICROSOFT SDKS\WINDOWS\V7.0A\LIB\WINSPOOL.LIB
C:\PROGRAM FILES (X86)\MICROSOFT SDKS\WINDOWS\V7.0A\LIB\ADVAPI32.LIB
C:\PROGRAM FILES (X86)\MICROSOFT SDKS\WINDOWS\V7.0A\LIB\SHELL32.LIB
C:\PROGRAM FILES (X86)\MICROSOFT SDKS\WINDOWS\V7.0A\LIB\OLE32.LIB
C:\PROGRAM FILES (X86)\MICROSOFT SDKS\WINDOWS\V7.0A\LIB\OLEAUT32.LIB
C:\PROGRAM FILES (X86)\MICROSOFT SDKS\WINDOWS\V7.0A\LIB\UUID.LIB
C:\PROGRAM FILES (X86)\MICROSOFT SDKS\WINDOWS\V7.0A\LIB\ODBC32.LIB
C:\PROGRAM FILES (X86)\MICROSOFT SDKS\WINDOWS\V7.0A\LIB\ODBCCP32.LIB
D:\PROJECTS\PROM-SOFT\OSTROJZKIY_PESHAYNIY_KARYER_PRIZEP\ARM_SCALES_AUTO_V1.0.0\DEBUG\ARM_SCALES_AUTO_V1.0.RES
D:\PROJECTS\PROM-SOFT\OSTROJZKIY_PESHAYNIY_KARYER_PRIZEP\ARM_SCALES_AUTO_V1.0.0\DEBUG\MOC_MAINTABLEMODEL.OBJ
D:\PROJECTS\PROM-SOFT\OSTROJZKIY_PESHAYNIY_KARYER_PRIZEP\ARM_SCALES_AUTO_V1.0.0\DEBUG\MOC_REPORTS_RFID.OBJ
D:\PROJECTS\PROM-SOFT\OSTROJZKIY_PESHAYNIY_KARYER_PRIZEP\ARM_SCALES_AUTO_V1.0.0\DEBUG\ACCEPTIONFORMS.OBJ
D:\PROJECTS\PROM-SOFT\OSTROJZKIY_PESHAYNIY_KARYER_PRIZEP\ARM_SCALES_AUTO_V1.0.0\DEBUG\CARDREADERRFID.OBJ
D:\PROJECTS\PROM-SOFT\OSTROJZKIY_PESHAYNIY_KARYER_PRIZEP\ARM_SCALES_AUTO_V1.0.0\DEBUG\CRYPT.OBJ
D:\PROJECTS\PROM-SOFT\OSTROJZKIY_PESHAYNIY_KARYER_PRIZEP\ARM_SCALES_AUTO_V1.0.0\DEBUG\DB_DRIVER.OBJ
D:\PROJECTS\PROM-SOFT\OSTROJZKIY_PESHAYNIY_KARYER_PRIZEP\ARM_SCALES_AUTO_V1.0.0\DEBUG\DIALOGVPSENSORS.OBJ
D:\PROJECTS\PROM-SOFT\OSTROJZKIY_PESHAYNIY_KARYER_PRIZEP\ARM_SCALES_AUTO_V1.0.0\DEBUG\DICTIONARYFORM.OBJ
D:\PROJECTS\PROM-SOFT\OSTROJZKIY_PESHAYNIY_KARYER_PRIZEP\ARM_SCALES_AUTO_V1.0.0\DEBUG\FORM_TTN.OBJ
D:\PROJECTS\PROM-SOFT\OSTROJZKIY_PESHAYNIY_KARYER_PRIZEP\ARM_SCALES_AUTO_V1.0.0\DEBUG\MOC_ACCEPTIONFORMS.OBJ
D:\PROJECTS\PROM-SOFT\OSTROJZKIY_PESHAYNIY_KARYER_PRIZEP\ARM_SCALES_AUTO_V1.0.0\DEBUG\MOC_CARDREADERRFID.OBJ
D:\PROJECTS\PROM-SOFT\OSTROJZKIY_PESHAYNIY_KARYER_PRIZEP\ARM_SCALES_AUTO_V1.0.0\DEBUG\MOC_DB_DRIVER.OBJ
D:\PROJECTS\PROM-SOFT\OSTROJZKIY_PESHAYNIY_KARYER_PRIZEP\ARM_SCALES_AUTO_V1.0.0\DEBUG\MOC_DIALOGVPSENSORS.OBJ
D:\PROJECTS\PROM-SOFT\OSTROJZKIY_PESHAYNIY_KARYER_PRIZEP\ARM_SCALES_AUTO_V1.0.0\DEBUG\MOC_DICTIONARYFORM.OBJ
D:\PROJECTS\PROM-SOFT\OSTROJZKIY_PESHAYNIY_KARYER_PRIZEP\ARM_SCALES_AUTO_V1.0.0\DEBUG\MOC_FORM_TTN.OBJ
D:\PROJECTS\PROM-SOFT\OSTROJZKIY_PESHAYNIY_KARYER_PRIZEP\ARM_SCALES_AUTO_V1.0.0\DEBUG\MOC_HIDDENWEIGHING.OBJ
D:\PROJECTS\PROM-SOFT\OSTROJZKIY_PESHAYNIY_KARYER_PRIZEP\ARM_SCALES_AUTO_V1.0.0\DEBUG\MOC_LOGEVENTSFORM.OBJ
D:\PROJECTS\PROM-SOFT\OSTROJZKIY_PESHAYNIY_KARYER_PRIZEP\ARM_SCALES_AUTO_V1.0.0\DEBUG\MOC_LOGINWINDOW.OBJ
D:\PROJECTS\PROM-SOFT\OSTROJZKIY_PESHAYNIY_KARYER_PRIZEP\ARM_SCALES_AUTO_V1.0.0\DEBUG\MOC_MAILSEND.OBJ
D:\PROJECTS\PROM-SOFT\OSTROJZKIY_PESHAYNIY_KARYER_PRIZEP\ARM_SCALES_AUTO_V1.0.0\DEBUG\MOC_MYCLASS.OBJ
D:\PROJECTS\PROM-SOFT\OSTROJZKIY_PESHAYNIY_KARYER_PRIZEP\ARM_SCALES_AUTO_V1.0.0\DEBUG\MOC_NUMBERANDTIMESTAMP.OBJ
D:\PROJECTS\PROM-SOFT\OSTROJZKIY_PESHAYNIY_KARYER_PRIZEP\ARM_SCALES_AUTO_V1.0.0\DEBUG\MOC_OPTIONALDEVICES.OBJ
D:\PROJECTS\PROM-SOFT\OSTROJZKIY_PESHAYNIY_KARYER_PRIZEP\ARM_SCALES_AUTO_V1.0.0\DEBUG\MOC_OPTIONS.OBJ
D:\PROJECTS\PROM-SOFT\OSTROJZKIY_PESHAYNIY_KARYER_PRIZEP\ARM_SCALES_AUTO_V1.0.0\DEBUG\MOC_QTLOCALPEER.OBJ
D:\PROJECTS\PROM-SOFT\OSTROJZKIY_PESHAYNIY_KARYER_PRIZEP\ARM_SCALES_AUTO_V1.0.0\DEBUG\MOC_QTSINGLEAPPLICATION.OBJ
D:\PROJECTS\PROM-SOFT\OSTROJZKIY_PESHAYNIY_KARYER_PRIZEP\ARM_SCALES_AUTO_V1.0.0\DEBUG\MOC_QTSINGLECOREAPPLICATION.OBJ
D:\PROJECTS\PROM-SOFT\OSTROJZKIY_PESHAYNIY_KARYER_PRIZEP\ARM_SCALES_AUTO_V1.0.0\DEBUG\MOC_REGISTRATIONMODEL.OBJ
D:\PROJECTS\PROM-SOFT\OSTROJZKIY_PESHAYNIY_KARYER_PRIZEP\ARM_SCALES_AUTO_V1.0.0\DEBUG\MOC_REGISTRATION_RFID.OBJ
D:\PROJECTS\PROM-SOFT\OSTROJZKIY_PESHAYNIY_KARYER_PRIZEP\ARM_SCALES_AUTO_V1.0.0\DEBUG\MOC_REPORTFORMCLASS.OBJ
D:\PROJECTS\PROM-SOFT\OSTROJZKIY_PESHAYNIY_KARYER_PRIZEP\ARM_SCALES_AUTO_V1.0.0\DEBUG\MOC_REPORTSTABLEMODEL.OBJ
D:\PROJECTS\PROM-SOFT\OSTROJZKIY_PESHAYNIY_KARYER_PRIZEP\ARM_SCALES_AUTO_V1.0.0\DEBUG\MOC_SERIALPORTCLASS.OBJ
D:\PROJECTS\PROM-SOFT\OSTROJZKIY_PESHAYNIY_KARYER_PRIZEP\ARM_SCALES_AUTO_V1.0.0\DEBUG\MOC_SETTINGS.OBJ
D:\PROJECTS\PROM-SOFT\OSTROJZKIY_PESHAYNIY_KARYER_PRIZEP\ARM_SCALES_AUTO_V1.0.0\DEBUG\MOC_SPRAVOCHNIK_TARA.OBJ
D:\PROJECTS\PROM-SOFT\OSTROJZKIY_PESHAYNIY_KARYER_PRIZEP\ARM_SCALES_AUTO_V1.0.0\DEBUG\MOC_TARADICTIONARYMODEL.OBJ
D:\PROJECTS\PROM-SOFT\OSTROJZKIY_PESHAYNIY_KARYER_PRIZEP\ARM_SCALES_AUTO_V1.0.0\DEBUG\HIDDENWEIGHING.OBJ
D:\PROJECTS\PROM-SOFT\OSTROJZKIY_PESHAYNIY_KARYER_PRIZEP\ARM_SCALES_AUTO_V1.0.0\DEBUG\LOGEVENTSFORM.OBJ
D:\PROJECTS\PROM-SOFT\OSTROJZKIY_PESHAYNIY_KARYER_PRIZEP\ARM_SCALES_AUTO_V1.0.0\DEBUG\LOGINWINDOW.OBJ
D:\PROJECTS\PROM-SOFT\OSTROJZKIY_PESHAYNIY_KARYER_PRIZEP\ARM_SCALES_AUTO_V1.0.0\DEBUG\MAILSEND.OBJ
D:\PROJECTS\PROM-SOFT\OSTROJZKIY_PESHAYNIY_KARYER_PRIZEP\ARM_SCALES_AUTO_V1.0.0\DEBUG\MAIN.OBJ
D:\PROJECTS\PROM-SOFT\OSTROJZKIY_PESHAYNIY_KARYER_PRIZEP\ARM_SCALES_AUTO_V1.0.0\DEBUG\REGISTRATIONMODEL.OBJ
D:\PROJECTS\PROM-SOFT\OSTROJZKIY_PESHAYNIY_KARYER_PRIZEP\ARM_SCALES_AUTO_V1.0.0\DEBUG\REPORTSTABLEMODEL.OBJ
D:\PROJECTS\PROM-SOFT\OSTROJZKIY_PESHAYNIY_KARYER_PRIZEP\ARM_SCALES_AUTO_V1.0.0\DEBUG\MAINTABLEMODEL.OBJ
D:\PROJECTS\PROM-SOFT\OSTROJZKIY_PESHAYNIY_KARYER_PRIZEP\ARM_SCALES_AUTO_V1.0.0\DEBUG\MYCLASS.OBJ
D:\PROJECTS\PROM-SOFT\OSTROJZKIY_PESHAYNIY_KARYER_PRIZEP\ARM_SCALES_AUTO_V1.0.0\DEBUG\NUMBERANDTIMESTAMP.OBJ
D:\PROJECTS\PROM-SOFT\OSTROJZKIY_PESHAYNIY_KARYER_PRIZEP\ARM_SCALES_AUTO_V1.0.0\DEBUG\OPTIONALDEVICES.OBJ
D:\PROJECTS\PROM-SOFT\OSTROJZKIY_PESHAYNIY_KARYER_PRIZEP\ARM_SCALES_AUTO_V1.0.0\DEBUG\OPTIONS.OBJ
D:\PROJECTS\PROM-SOFT\OSTROJZKIY_PESHAYNIY_KARYER_PRIZEP\ARM_SCALES_AUTO_V1.0.0\DEBUG\QTLOCALPEER.OBJ
D:\PROJECTS\PROM-SOFT\OSTROJZKIY_PESHAYNIY_KARYER_PRIZEP\ARM_SCALES_AUTO_V1.0.0\DEBUG\QTSINGLEAPPLICATION.OBJ
D:\PROJECTS\PROM-SOFT\OSTROJZKIY_PESHAYNIY_KARYER_PRIZEP\ARM_SCALES_AUTO_V1.0.0\DEBUG\QTSINGLECOREAPPLICATION.OBJ
D:\PROJECTS\PROM-SOFT\OSTROJZKIY_PESHAYNIY_KARYER_PRIZEP\ARM_SCALES_AUTO_V1.0.0\DEBUG\REGISTRATION_RFID.OBJ
D:\PROJECTS\PROM-SOFT\OSTROJZKIY_PESHAYNIY_KARYER_PRIZEP\ARM_SCALES_AUTO_V1.0.0\DEBUG\REPORTFORMCLASS.OBJ
D:\PROJECTS\PROM-SOFT\OSTROJZKIY_PESHAYNIY_KARYER_PRIZEP\ARM_SCALES_AUTO_V1.0.0\DEBUG\REPORTS_RFID.OBJ
D:\PROJECTS\PROM-SOFT\OSTROJZKIY_PESHAYNIY_KARYER_PRIZEP\ARM_SCALES_AUTO_V1.0.0\DEBUG\SERIALPORTCLASS.OBJ
D:\PROJECTS\PROM-SOFT\OSTROJZKIY_PESHAYNIY_KARYER_PRIZEP\ARM_SCALES_AUTO_V1.0.0\DEBUG\SETTINGS.OBJ
D:\PROJECTS\PROM-SOFT\OSTROJZKIY_PESHAYNIY_KARYER_PRIZEP\ARM_SCALES_AUTO_V1.0.0\DEBUG\SPRAVOCHNIK_TARA.OBJ
D:\PROJECTS\PROM-SOFT\OSTROJZKIY_PESHAYNIY_KARYER_PRIZEP\ARM_SCALES_AUTO_V1.0.0\DEBUG\STDAFX.OBJ
D:\PROJECTS\PROM-SOFT\OSTROJZKIY_PESHAYNIY_KARYER_PRIZEP\ARM_SCALES_AUTO_V1.0.0\DEBUG\TARADICTIONARYMODEL.OBJ
C:\WINDOWS\SYSTEM32\TZRES.DLL
D:\PROJECTS\PROM-SOFT\OSTROJZKIY_PESHAYNIY_KARYER_PRIZEP\WIN32\DEBUG\PROM-SOFT.ILK
D:\PROJECTS\PROM-SOFT\OSTROJZKIY_PESHAYNIY_KARYER_PRIZEP\WIN32\DEBUG\PROM-SOFT.EXE
D:\PROGRAM FILES (X86)\MICROSOFT VISUAL STUDIO 10.0\VC\BIN\1033\LINKUI.DLL
C:\WINDOWS\GLOBALIZATION\SORTING\SORTDEFAULT.NLS
D:\PROGRAM FILES (X86)\MICROSOFT VISUAL STUDIO 10.0\VC\LIB\MSVCPRTD.LIB
D:\PROGRAM FILES (X86)\MICROSOFT VISUAL STUDIO 10.0\VC\LIB\MSVCRTD.LIB
D:\PROGRAM FILES (X86)\MICROSOFT VISUAL STUDIO 10.0\VC\LIB\OLDNAMES.LIB
D:\PROGRAM FILES (X86)\MICROSOFT VISUAL STUDIO 10.0\VC\BIN\CVTRES.EXE
^D:\PROJECTS\OSTROJZKIY_PESHAYNIY_KARYER_PRIZEP\ARM_SCALES_AUTO_V1.0.0\DEBUG\ACCEPTIONFORMS.OBJ|D:\PROJECTS\OSTROJZKIY_PESHAYNIY_KARYER_PRIZEP\ARM_SCALES_AUTO_V1.0.0\DEBUG\ARM_SCALES_AUTO_V1.0.RES|D:\PROJECTS\OSTROJZKIY_PESHAYNIY_KARYER_PRIZEP\ARM_SCALES_AUTO_V1.0.0\DEBUG\CARDREADERRFID.OBJ|D:\PROJECTS\OSTROJZKIY_PESHAYNIY_KARYER_PRIZEP\ARM_SCALES_AUTO_V1.0.0\DEBUG\CRYPT.OBJ|D:\PROJECTS\OSTROJZKIY_PESHAYNIY_KARYER_PRIZEP\ARM_SCALES_AUTO_V1.0.0\DEBUG\DB_DRIVER.OBJ|D:\PROJECTS\OSTROJZKIY_PESHAYNIY_KARYER_PRIZEP\ARM_SCALES_AUTO_V1.0.0\DEBUG\DIALOGVPSENSORS.OBJ|D:\PROJECTS\OSTROJZKIY_PESHAYNIY_KARYER_PRIZEP\ARM_SCALES_AUTO_V1.0.0\DEBUG\DICTIONARYFORM.OBJ|D:\PROJECTS\OSTROJZKIY_PESHAYNIY_KARYER_PRIZEP\ARM_SCALES_AUTO_V1.0.0\DEBUG\FORM_TTN.OBJ|D:\PROJECTS\OSTROJZKIY_PESHAYNIY_KARYER_PRIZEP\ARM_SCALES_AUTO_V1.0.0\DEBUG\HIDDENWEIGHING.OBJ|D:\PROJECTS\OSTROJZKIY_PESHAYNIY_KARYER_PRIZEP\ARM_SCALES_AUTO_V1.0.0\DEBUG\LOGEVENTSFORM.OBJ|D:\PROJECTS\OSTROJZKIY_PESHAYNIY_KARYER_PRIZEP\ARM_SCALES_AUTO_V1.0.0\DEBUG\LOGINWINDOW.OBJ|D:\PROJECTS\OSTROJZKIY_PESHAYNIY_KARYER_PRIZEP\ARM_SCALES_AUTO_V1.0.0\DEBUG\MAILSEND.OBJ|D:\PROJECTS\OSTROJZKIY_PESHAYNIY_KARYER_PRIZEP\ARM_SCALES_AUTO_V1.0.0\DEBUG\MAIN.OBJ|D:\PROJECTS\OSTROJZKIY_PESHAYNIY_KARYER_PRIZEP\ARM_SCALES_AUTO_V1.0.0\DEBUG\MAINTABLEMODEL.OBJ|D:\PROJECTS\OSTROJZKIY_PESHAYNIY_KARYER_PRIZEP\ARM_SCALES_AUTO_V1.0.0\DEBUG\MOC_ACCEPTIONFORMS.OBJ|D:\PROJECTS\OSTROJZKIY_PESHAYNIY_KARYER_PRIZEP\ARM_SCALES_AUTO_V1.0.0\DEBUG\MOC_CARDREADERRFID.OBJ|D:\PROJECTS\OSTROJZKIY_PESHAYNIY_KARYER_PRIZEP\ARM_SCALES_AUTO_V1.0.0\DEBUG\MOC_DB_DRIVER.OBJ|D:\PROJECTS\OSTROJZKIY_PESHAYNIY_KARYER_PRIZEP\ARM_SCALES_AUTO_V1.0.0\DEBUG\MOC_DIALOGVPSENSORS.OBJ|D:\PROJECTS\OSTROJZKIY_PESHAYNIY_KARYER_PRIZEP\ARM_SCALES_AUTO_V1.0.0\DEBUG\MOC_DICTIONARYFORM.OBJ|D:\PROJECTS\OSTROJZKIY_PESHAYNIY_KARYER_PRIZEP\ARM_SCALES_AUTO_V1.0.0\DEBUG\MOC_FORM_TTN.OBJ|D:\PROJECTS\OSTROJZKIY_PESHAYNIY_KARYER_PRIZEP\ARM_SCALES_AUTO_V1.0.0\DEBUG\MOC_HIDDENWEIGHING.OBJ|D:\PROJECTS\OSTROJZKIY_PESHAYNIY_KARYER_PRIZEP\ARM_SCALES_AUTO_V1.0.0\DEBUG\MOC_LOGEVENTSFORM.OBJ|D:\PROJECTS\OSTROJZKIY_PESHAYNIY_KARYER_PRIZEP\ARM_SCALES_AUTO_V1.0.0\DEBUG\MOC_LOGINWINDOW.OBJ|D:\PROJECTS\OSTROJZKIY_PESHAYNIY_KARYER_PRIZEP\ARM_SCALES_AUTO_V1.0.0\DEBUG\MOC_MAILSEND.OBJ|D:\PROJECTS\OSTROJZKIY_PESHAYNIY_KARYER_PRIZEP\ARM_SCALES_AUTO_V1.0.0\DEBUG\MOC_MAINTABLEMODEL.OBJ|D:\PROJECTS\OSTROJZKIY_PESHAYNIY_KARYER_PRIZEP\ARM_SCALES_AUTO_V1.0.0\DEBUG\MOC_MYCLASS.OBJ|D:\PROJECTS\OSTROJZKIY_PESHAYNIY_KARYER_PRIZEP\ARM_SCALES_AUTO_V1.0.0\DEBUG\MOC_NUMBERANDTIMESTAMP.OBJ|D:\PROJECTS\OSTROJZKIY_PESHAYNIY_KARYER_PRIZEP\ARM_SCALES_AUTO_V1.0.0\DEBUG\MOC_OPTIONALDEVICES.OBJ|D:\PROJECTS\OSTROJZKIY_PESHAYNIY_KARYER_PRIZEP\ARM_SCALES_AUTO_V1.0.0\DEBUG\MOC_OPTIONS.OBJ|D:\PROJECTS\OSTROJZKIY_PESHAYNIY_KARYER_PRIZEP\ARM_SCALES_AUTO_V1.0.0\DEBUG\MOC_QTLOCALPEER.OBJ|D:\PROJECTS\OSTROJZKIY_PESHAYNIY_KARYER_PRIZEP\ARM_SCALES_AUTO_V1.0.0\DEBUG\MOC_QTSINGLEAPPLICATION.OBJ|D:\PROJECTS\OSTROJZKIY_PESHAYNIY_KARYER_PRIZEP\ARM_SCALES_AUTO_V1.0.0\DEBUG\MOC_QTSINGLECOREAPPLICATION.OBJ|D:\PROJECTS\OSTROJZKIY_PESHAYNIY_KARYER_PRIZEP\ARM_SCALES_AUTO_V1.0.0\DEBUG\MOC_REGISTRATIONMODEL.OBJ|D:\PROJECTS\OSTROJZKIY_PESHAYNIY_KARYER_PRIZEP\ARM_SCALES_AUTO_V1.0.0\DEBUG\MOC_REGISTRATION_RFID.OBJ|D:\PROJECTS\OSTROJZKIY_PESHAYNIY_KARYER_PRIZEP\ARM_SCALES_AUTO_V1.0.0\DEBUG\MOC_REPORTFORMCLASS.OBJ|D:\PROJECTS\OSTROJZKIY_PESHAYNIY_KARYER_PRIZEP\ARM_SCALES_AUTO_V1.0.0\DEBUG\MOC_REPORTSTABLEMODEL.OBJ|D:\PROJECTS\OSTROJZKIY_PESHAYNIY_KARYER_PRIZEP\ARM_SCALES_AUTO_V1.0.0\DEBUG\MOC_REPORTS_RFID.OBJ|D:\PROJECTS\OSTROJZKIY_PESHAYNIY_KARYER_PRIZEP\ARM_SCALES_AUTO_V1.0.0\DEBUG\MOC_SERIALPORTCLASS.OBJ|D:\PROJECTS\OSTROJZKIY_PESHAYNIY_KARYER_PRIZEP\ARM_SCALES_AUTO_V1.0.0\DEBUG\MOC_SETTINGS.OBJ|D:\PROJECTS\OSTROJZKIY_PESHAYNIY_KARYER_PRIZEP\ARM_SCALES_AUTO_V1.0.0\DEBUG\MOC_SPRAVOCHNIK_TARA.OBJ|D:\PROJECTS\OSTROJZKIY_PESHAYNIY_KARYER_PRIZEP\ARM_SCALES_AUTO_V1.0.0\DEBUG\MOC_TARADICTIONARYMODEL.OBJ|D:\PROJECTS\OSTROJZKIY_PESHAYNIY_KARYER_PRIZEP\ARM_SCALES_AUTO_V1.0.0\DEBUG\MYCLASS.OBJ|D:\PROJECTS\OSTROJZKIY_PESHAYNIY_KARYER_PRIZEP\ARM_SCALES_AUTO_V1.0.0\DEBUG\NUMBERANDTIMESTAMP.OBJ|D:\PROJECTS\OSTROJZKIY_PESHAYNIY_KARYER_PRIZEP\ARM_SCALES_AUTO_V1.0.0\DEBUG\OPTIONALDEVICES.OBJ|D:\PROJECTS\OSTROJZKIY_PESHAYNIY_KARYER_PRIZEP\ARM_SCALES_AUTO_V1.0.0\DEBUG\OPTIONS.OBJ|D:\PROJECTS\OSTROJZKIY_PESHAYNIY_KARYER_PRIZEP\ARM_SCALES_AUTO_V1.0.0\DEBUG\QTLOCALPEER.OBJ|D:\PROJECTS\OSTROJZKIY_PESHAYNIY_KARYER_PRIZEP\ARM_SCALES_AUTO_V1.0.0\DEBUG\QTSINGLEAPPLICATION.OBJ|D:\PROJECTS\OSTROJZKIY_PESHAYNIY_KARYER_PRIZEP\ARM_SCALES_AUTO_V1.0.0\DEBUG\QTSINGLECOREAPPLICATION.OBJ|D:\PROJECTS\OSTROJZKIY_PESHAYNIY_KARYER_PRIZEP\ARM_SCALES_AUTO_V1.0.0\DEBUG\REGISTRATIONMODEL.OBJ|D:\PROJECTS\OSTROJZKIY_PESHAYNIY_KARYER_PRIZEP\ARM_SCALES_AUTO_V1.0.0\DEBUG\REGISTRATION_RFID.OBJ|D:\PROJECTS\OSTROJZKIY_PESHAYNIY_KARYER_PRIZEP\ARM_SCALES_AUTO_V1.0.0\DEBUG\REPORTFORMCLASS.OBJ|D:\PROJECTS\OSTROJZKIY_PESHAYNIY_KARYER_PRIZEP\ARM_SCALES_AUTO_V1.0.0\DEBUG\REPORTSTABLEMODEL.OBJ|D:\PROJECTS\OSTROJZKIY_PESHAYNIY_KARYER_PRIZEP\ARM_SCALES_AUTO_V1.0.0\DEBUG\REPORTS_RFID.OBJ|D:\PROJECTS\OSTROJZKIY_PESHAYNIY_KARYER_PRIZEP\ARM_SCALES_AUTO_V1.0.0\DEBUG\SERIALPORTCLASS.OBJ|D:\PROJECTS\OSTROJZKIY_PESHAYNIY_KARYER_PRIZEP\ARM_SCALES_AUTO_V1.0.0\DEBUG\SETTINGS.OBJ|D:\PROJECTS\OSTROJZKIY_PESHAYNIY_KARYER_PRIZEP\ARM_SCALES_AUTO_V1.0.0\DEBUG\SPRAVOCHNIK_TARA.OBJ|D:\PROJECTS\OSTROJZKIY_PESHAYNIY_KARYER_PRIZEP\ARM_SCALES_AUTO_V1.0.0\DEBUG\STDAFX.OBJ|D:\PROJECTS\OSTROJZKIY_PESHAYNIY_KARYER_PRIZEP\ARM_SCALES_AUTO_V1.0.0\DEBUG\TARADICTIONARYMODEL.OBJ
C:\QT\4.8.4\LIB\QTMAIND.LIB
C:\QT\4.8.4\LIB\QTCORED4.LIB
C:\QT\4.8.4\LIB\QTGUID4.LIB
C:\QT\4.8.4\LIB\QTMULTIMEDIAD4.LIB
C:\QT\4.8.4\LIB\QSERIALPORTLIB\QTSERIALPORTD.LIB
C:\QT\4.8.4\LIB\QTNETWORKD4.LIB
C:\QT\4.8.4\LIB\QTSQLD4.LIB
C:\QT\4.8.4\LIB\LIBMYSQL.LIB
C:\QT\4.8.4\PLUGINS\SQLDRIVERS\QSQLMYSQL4.LIB
C:\QT\4.8.4\PLUGINS\SQLDRIVERS\QSQLMYSQLD4.LIB
D:\PROJECTS\OSTROJZKIY_PESHAYNIY_KARYER_PRIZEP\ARM_SCALES_AUTO_V1.0.0\SMTPCLIENT\DEBUG\SMTPEMAIL.LIB
C:\QT\4.8.4\LIB\QTWEBKITD4.LIB
C:\QT\4.8.4\LIB\QTOPENGLD4.LIB
C:\PROGRAM FILES (X86)\MICROSOFT SDKS\WINDOWS\V7.0A\LIB\OPENGL32.LIB
C:\PROGRAM FILES (X86)\MICROSOFT SDKS\WINDOWS\V7.0A\LIB\GLU32.LIB
C:\QT\4.8.4\LIB\QT3SUPPORTD4.LIB
C:\PROGRAM FILES (X86)\MICROSOFT SDKS\WINDOWS\V7.0A\LIB\COMDLG32.LIB
C:\QT\4.8.4\LIB\QAXSERVERD.LIB
C:\QT\4.8.4\LIB\QAXCONTAINERD.LIB
C:\PROGRAM FILES (X86)\MICROSOFT SDKS\WINDOWS\V7.0A\LIB\KERNEL32.LIB
C:\PROGRAM FILES (X86)\MICROSOFT SDKS\WINDOWS\V7.0A\LIB\USER32.LIB
C:\PROGRAM FILES (X86)\MICROSOFT SDKS\WINDOWS\V7.0A\LIB\GDI32.LIB
C:\PROGRAM FILES (X86)\MICROSOFT SDKS\WINDOWS\V7.0A\LIB\WINSPOOL.LIB
C:\PROGRAM FILES (X86)\MICROSOFT SDKS\WINDOWS\V7.0A\LIB\ADVAPI32.LIB
C:\PROGRAM FILES (X86)\MICROSOFT SDKS\WINDOWS\V7.0A\LIB\SHELL32.LIB
C:\PROGRAM FILES (X86)\MICROSOFT SDKS\WINDOWS\V7.0A\LIB\OLE32.LIB
C:\PROGRAM FILES (X86)\MICROSOFT SDKS\WINDOWS\V7.0A\LIB\OLEAUT32.LIB
C:\PROGRAM FILES (X86)\MICROSOFT SDKS\WINDOWS\V7.0A\LIB\UUID.LIB
C:\PROGRAM FILES (X86)\MICROSOFT SDKS\WINDOWS\V7.0A\LIB\ODBC32.LIB
C:\PROGRAM FILES (X86)\MICROSOFT SDKS\WINDOWS\V7.0A\LIB\ODBCCP32.LIB
D:\PROJECTS\OSTROJZKIY_PESHAYNIY_KARYER_PRIZEP\ARM_SCALES_AUTO_V1.0.0\DEBUG\ARM_SCALES_AUTO_V1.0.RES
D:\PROJECTS\OSTROJZKIY_PESHAYNIY_KARYER_PRIZEP\ARM_SCALES_AUTO_V1.0.0\DEBUG\MOC_MAINTABLEMODEL.OBJ
D:\PROJECTS\OSTROJZKIY_PESHAYNIY_KARYER_PRIZEP\ARM_SCALES_AUTO_V1.0.0\DEBUG\MOC_REPORTS_RFID.OBJ
D:\PROJECTS\OSTROJZKIY_PESHAYNIY_KARYER_PRIZEP\ARM_SCALES_AUTO_V1.0.0\DEBUG\ACCEPTIONFORMS.OBJ
D:\PROJECTS\OSTROJZKIY_PESHAYNIY_KARYER_PRIZEP\ARM_SCALES_AUTO_V1.0.0\DEBUG\CARDREADERRFID.OBJ
D:\PROJECTS\OSTROJZKIY_PESHAYNIY_KARYER_PRIZEP\ARM_SCALES_AUTO_V1.0.0\DEBUG\CRYPT.OBJ
D:\PROJECTS\OSTROJZKIY_PESHAYNIY_KARYER_PRIZEP\ARM_SCALES_AUTO_V1.0.0\DEBUG\DB_DRIVER.OBJ
D:\PROJECTS\OSTROJZKIY_PESHAYNIY_KARYER_PRIZEP\ARM_SCALES_AUTO_V1.0.0\DEBUG\DIALOGVPSENSORS.OBJ
D:\PROJECTS\OSTROJZKIY_PESHAYNIY_KARYER_PRIZEP\ARM_SCALES_AUTO_V1.0.0\DEBUG\DICTIONARYFORM.OBJ
D:\PROJECTS\OSTROJZKIY_PESHAYNIY_KARYER_PRIZEP\ARM_SCALES_AUTO_V1.0.0\DEBUG\FORM_TTN.OBJ
D:\PROJECTS\OSTROJZKIY_PESHAYNIY_KARYER_PRIZEP\ARM_SCALES_AUTO_V1.0.0\DEBUG\MOC_ACCEPTIONFORMS.OBJ
D:\PROJECTS\OSTROJZKIY_PESHAYNIY_KARYER_PRIZEP\ARM_SCALES_AUTO_V1.0.0\DEBUG\MOC_CARDREADERRFID.OBJ
D:\PROJECTS\OSTROJZKIY_PESHAYNIY_KARYER_PRIZEP\ARM_SCALES_AUTO_V1.0.0\DEBUG\MOC_DB_DRIVER.OBJ
D:\PROJECTS\OSTROJZKIY_PESHAYNIY_KARYER_PRIZEP\ARM_SCALES_AUTO_V1.0.0\DEBUG\MOC_DIALOGVPSENSORS.OBJ
D:\PROJECTS\OSTROJZKIY_PESHAYNIY_KARYER_PRIZEP\ARM_SCALES_AUTO_V1.0.0\DEBUG\MOC_DICTIONARYFORM.OBJ
D:\PROJECTS\OSTROJZKIY_PESHAYNIY_KARYER_PRIZEP\ARM_SCALES_AUTO_V1.0.0\DEBUG\MOC_FORM_TTN.OBJ
D:\PROJECTS\OSTROJZKIY_PESHAYNIY_KARYER_PRIZEP\ARM_SCALES_AUTO_V1.0.0\DEBUG\MOC_HIDDENWEIGHING.OBJ
D:\PROJECTS\OSTROJZKIY_PESHAYNIY_KARYER_PRIZEP\ARM_SCALES_AUTO_V1.0.0\DEBUG\MOC_LOGEVENTSFORM.OBJ
D:\PROJECTS\OSTROJZKIY_PESHAYNIY_KARYER_PRIZEP\ARM_SCALES_AUTO_V1.0.0\DEBUG\MOC_LOGINWINDOW.OBJ
D:\PROJECTS\OSTROJZKIY_PESHAYNIY_KARYER_PRIZEP\ARM_SCALES_AUTO_V1.0.0\DEBUG\MOC_MAILSEND.OBJ
D:\PROJECTS\OSTROJZKIY_PESHAYNIY_KARYER_PRIZEP\ARM_SCALES_AUTO_V1.0.0\DEBUG\MOC_MYCLASS.OBJ
D:\PROJECTS\OSTROJZKIY_PESHAYNIY_KARYER_PRIZEP\ARM_SCALES_AUTO_V1.0.0\DEBUG\MOC_NUMBERANDTIMESTAMP.OBJ
D:\PROJECTS\OSTROJZKIY_PESHAYNIY_KARYER_PRIZEP\ARM_SCALES_AUTO_V1.0.0\DEBUG\MOC_OPTIONALDEVICES.OBJ
D:\PROJECTS\OSTROJZKIY_PESHAYNIY_KARYER_PRIZEP\ARM_SCALES_AUTO_V1.0.0\DEBUG\MOC_OPTIONS.OBJ
D:\PROJECTS\OSTROJZKIY_PESHAYNIY_KARYER_PRIZEP\ARM_SCALES_AUTO_V1.0.0\DEBUG\MOC_QTLOCALPEER.OBJ
D:\PROJECTS\OSTROJZKIY_PESHAYNIY_KARYER_PRIZEP\ARM_SCALES_AUTO_V1.0.0\DEBUG\MOC_QTSINGLEAPPLICATION.OBJ
D:\PROJECTS\OSTROJZKIY_PESHAYNIY_KARYER_PRIZEP\ARM_SCALES_AUTO_V1.0.0\DEBUG\MOC_QTSINGLECOREAPPLICATION.OBJ
D:\PROJECTS\OSTROJZKIY_PESHAYNIY_KARYER_PRIZEP\ARM_SCALES_AUTO_V1.0.0\DEBUG\MOC_REGISTRATIONMODEL.OBJ
D:\PROJECTS\OSTROJZKIY_PESHAYNIY_KARYER_PRIZEP\ARM_SCALES_AUTO_V1.0.0\DEBUG\MOC_REGISTRATION_RFID.OBJ
D:\PROJECTS\OSTROJZKIY_PESHAYNIY_KARYER_PRIZEP\ARM_SCALES_AUTO_V1.0.0\DEBUG\MOC_REPORTFORMCLASS.OBJ
D:\PROJECTS\OSTROJZKIY_PESHAYNIY_KARYER_PRIZEP\ARM_SCALES_AUTO_V1.0.0\DEBUG\MOC_REPORTSTABLEMODEL.OBJ
D:\PROJECTS\OSTROJZKIY_PESHAYNIY_KARYER_PRIZEP\ARM_SCALES_AUTO_V1.0.0\DEBUG\MOC_SERIALPORTCLASS.OBJ
D:\PROJECTS\OSTROJZKIY_PESHAYNIY_KARYER_PRIZEP\ARM_SCALES_AUTO_V1.0.0\DEBUG\MOC_SETTINGS.OBJ
D:\PROJECTS\OSTROJZKIY_PESHAYNIY_KARYER_PRIZEP\ARM_SCALES_AUTO_V1.0.0\DEBUG\MOC_SPRAVOCHNIK_TARA.OBJ
D:\PROJECTS\OSTROJZKIY_PESHAYNIY_KARYER_PRIZEP\ARM_SCALES_AUTO_V1.0.0\DEBUG\MOC_TARADICTIONARYMODEL.OBJ
D:\PROJECTS\OSTROJZKIY_PESHAYNIY_KARYER_PRIZEP\ARM_SCALES_AUTO_V1.0.0\DEBUG\HIDDENWEIGHING.OBJ
D:\PROJECTS\OSTROJZKIY_PESHAYNIY_KARYER_PRIZEP\ARM_SCALES_AUTO_V1.0.0\DEBUG\LOGEVENTSFORM.OBJ
D:\PROJECTS\OSTROJZKIY_PESHAYNIY_KARYER_PRIZEP\ARM_SCALES_AUTO_V1.0.0\DEBUG\LOGINWINDOW.OBJ
D:\PROJECTS\OSTROJZKIY_PESHAYNIY_KARYER_PRIZEP\ARM_SCALES_AUTO_V1.0.0\DEBUG\MAILSEND.OBJ
D:\PROJECTS\OSTROJZKIY_PESHAYNIY_KARYER_PRIZEP\ARM_SCALES_AUTO_V1.0.0\DEBUG\MAIN.OBJ
D:\PROJECTS\OSTROJZKIY_PESHAYNIY_KARYER_PRIZEP\ARM_SCALES_AUTO_V1.0.0\DEBUG\REGISTRATIONMODEL.OBJ
D:\PROJECTS\OSTROJZKIY_PESHAYNIY_KARYER_PRIZEP\ARM_SCALES_AUTO_V1.0.0\DEBUG\REPORTSTABLEMODEL.OBJ
D:\PROJECTS\OSTROJZKIY_PESHAYNIY_KARYER_PRIZEP\ARM_SCALES_AUTO_V1.0.0\DEBUG\MAINTABLEMODEL.OBJ
D:\PROJECTS\OSTROJZKIY_PESHAYNIY_KARYER_PRIZEP\ARM_SCALES_AUTO_V1.0.0\DEBUG\MYCLASS.OBJ
D:\PROJECTS\OSTROJZKIY_PESHAYNIY_KARYER_PRIZEP\ARM_SCALES_AUTO_V1.0.0\DEBUG\NUMBERANDTIMESTAMP.OBJ
D:\PROJECTS\OSTROJZKIY_PESHAYNIY_KARYER_PRIZEP\ARM_SCALES_AUTO_V1.0.0\DEBUG\OPTIONALDEVICES.OBJ
D:\PROJECTS\OSTROJZKIY_PESHAYNIY_KARYER_PRIZEP\ARM_SCALES_AUTO_V1.0.0\DEBUG\OPTIONS.OBJ
D:\PROJECTS\OSTROJZKIY_PESHAYNIY_KARYER_PRIZEP\ARM_SCALES_AUTO_V1.0.0\DEBUG\QTLOCALPEER.OBJ
D:\PROJECTS\OSTROJZKIY_PESHAYNIY_KARYER_PRIZEP\ARM_SCALES_AUTO_V1.0.0\DEBUG\QTSINGLEAPPLICATION.OBJ
D:\PROJECTS\OSTROJZKIY_PESHAYNIY_KARYER_PRIZEP\ARM_SCALES_AUTO_V1.0.0\DEBUG\QTSINGLECOREAPPLICATION.OBJ
D:\PROJECTS\OSTROJZKIY_PESHAYNIY_KARYER_PRIZEP\ARM_SCALES_AUTO_V1.0.0\DEBUG\REGISTRATION_RFID.OBJ
D:\PROJECTS\OSTROJZKIY_PESHAYNIY_KARYER_PRIZEP\ARM_SCALES_AUTO_V1.0.0\DEBUG\REPORTFORMCLASS.OBJ
D:\PROJECTS\OSTROJZKIY_PESHAYNIY_KARYER_PRIZEP\ARM_SCALES_AUTO_V1.0.0\DEBUG\REPORTS_RFID.OBJ
D:\PROJECTS\OSTROJZKIY_PESHAYNIY_KARYER_PRIZEP\ARM_SCALES_AUTO_V1.0.0\DEBUG\SERIALPORTCLASS.OBJ
D:\PROJECTS\OSTROJZKIY_PESHAYNIY_KARYER_PRIZEP\ARM_SCALES_AUTO_V1.0.0\DEBUG\SETTINGS.OBJ
D:\PROJECTS\OSTROJZKIY_PESHAYNIY_KARYER_PRIZEP\ARM_SCALES_AUTO_V1.0.0\DEBUG\SPRAVOCHNIK_TARA.OBJ
D:\PROJECTS\OSTROJZKIY_PESHAYNIY_KARYER_PRIZEP\ARM_SCALES_AUTO_V1.0.0\DEBUG\STDAFX.OBJ
D:\PROJECTS\OSTROJZKIY_PESHAYNIY_KARYER_PRIZEP\ARM_SCALES_AUTO_V1.0.0\DEBUG\TARADICTIONARYMODEL.OBJ
C:\WINDOWS\SYSTEM32\TZRES.DLL
D:\PROJECTS\OSTROJZKIY_PESHAYNIY_KARYER_PRIZEP\WIN32\DEBUG\PROM-SOFT.ILK
D:\PROJECTS\OSTROJZKIY_PESHAYNIY_KARYER_PRIZEP\WIN32\DEBUG\PROM-SOFT.EXE
C:\PROGRAM FILES (X86)\MICROSOFT VISUAL STUDIO 10.0\VC\BIN\1033\LINKUI.DLL
C:\WINDOWS\GLOBALIZATION\SORTING\SORTDEFAULT.NLS
C:\PROGRAM FILES (X86)\MICROSOFT VISUAL STUDIO 10.0\VC\LIB\MSVCPRTD.LIB
C:\PROGRAM FILES (X86)\MICROSOFT VISUAL STUDIO 10.0\VC\LIB\MSVCRTD.LIB
C:\PROGRAM FILES (X86)\MICROSOFT VISUAL STUDIO 10.0\VC\LIB\OLDNAMES.LIB
C:\PROGRAM FILES (X86)\MICROSOFT VISUAL STUDIO 10.0\VC\BIN\CVTRES.EXE
C:\WINDOWS\SYSTEM32\RSAENH.DLL
