^D:\PROJECTS\PROM-SOFT\PROM-SOFT_1\ARM_SCALES_AUTO_V1.0.0\DEBUG\PROM-SOFT.EXE.INTERMEDIATE.MANIFEST
/nologo /verbose /outputresource:"D:\Projects\Prom-Soft\prom-soft_1\Win32\Debug\\Prom-Soft.exe;#1" /manifest "Debug\Prom-Soft.exe.intermediate.manifest"
^D:\PROJECTS\PROM-SOFT\PROM-SOFT\ARM_SCALES_AUTO_V1.0.0\DEBUG\PROM-SOFT.EXE.INTERMEDIATE.MANIFEST
/nologo /verbose /outputresource:"D:\Projects\Prom-Soft\prom-soft\Win32\Debug\\Prom-Soft.exe;#1" /manifest "Debug\Prom-Soft.exe.intermediate.manifest"
^D:\PROJECTS\PROM-SOFT\OSTROJZKIY_PESHAYNIY_KARYER\ARM_SCALES_AUTO_V1.0.0\DEBUG\PROM-SOFT.EXE.INTERMEDIATE.MANIFEST
/nologo /verbose /outputresource:"D:\Projects\Prom-Soft\Ostrojzkiy_peshayniy_karyer\Win32\Debug\\Prom-Soft.exe;#1" /manifest "Debug\Prom-Soft.exe.intermediate.manifest"
^D:\PROJECTS\OSTROJZKIY_PESHAYNIY_KARYER\ARM_SCALES_AUTO_V1.0.0\DEBUG\PROM-SOFT.EXE.INTERMEDIATE.MANIFEST
/nologo /verbose /outputresource:"D:\Projects\Ostrojzkiy_peshayniy_karyer\Win32\Debug\\Prom-Soft.exe;#1" /manifest "Debug\Prom-Soft.exe.intermediate.manifest"
^D:\PROJECTS\PROM-SOFT\OSTROJZKIY_PESHAYNIY_KARYER_PRIZEP\ARM_SCALES_AUTO_V1.0.0\DEBUG\PROM-SOFT.EXE.INTERMEDIATE.MANIFEST
/nologo /verbose /outputresource:"D:\Projects\Prom-Soft\Ostrojzkiy_peshayniy_karyer_prizep\Win32\Debug\\Prom-Soft.exe;#1" /manifest "Debug\Prom-Soft.exe.intermediate.manifest"
^D:\PROJECTS\OSTROJZKIY_PESHAYNIY_KARYER_PRIZEP\ARM_SCALES_AUTO_V1.0.0\DEBUG\PROM-SOFT.EXE.INTERMEDIATE.MANIFEST
/nologo /verbose /outputresource:"D:\Projects\Ostrojzkiy_peshayniy_karyer_prizep\Win32\Debug\\Prom-Soft.exe;#1" /manifest "Debug\Prom-Soft.exe.intermediate.manifest"
