^D:\PROJECTS\PROM-SOFT\PROM-SOFT_1\ARM_SCALES_AUTO_V1.0.0\ARM_SCALES_AUTO_V1.0.RC
/l"0x0409" /nologo /fo"Debug\ARM_Scales_Auto_v1.0.res" ARM_Scales_Auto_v1.0.rc /l"0x0409" /nologo /fo"Debug\ARM_Scales_Auto_v1.0.res" D:\PROJECTS\PROM-SOFT\PROM-SOFT_1\ARM_SCALES_AUTO_V1.0.0\ARM_SCALES_AUTO_V1.0.RC
^D:\PROJECTS\PROM-SOFT\PROM-SOFT\ARM_SCALES_AUTO_V1.0.0\ARM_SCALES_AUTO_V1.0.RC
/l"0x0409" /nologo /fo"Debug\ARM_Scales_Auto_v1.0.res" ARM_Scales_Auto_v1.0.rc /l"0x0409" /nologo /fo"Debug\ARM_Scales_Auto_v1.0.res" D:\PROJECTS\PROM-SOFT\PROM-SOFT\ARM_SCALES_AUTO_V1.0.0\ARM_SCALES_AUTO_V1.0.RC
^D:\PROJECTS\PROM-SOFT\OSTROJZKIY_PESHAYNIY_KARYER\ARM_SCALES_AUTO_V1.0.0\ARM_SCALES_AUTO_V1.0.RC
/l"0x0409" /nologo /fo"Debug\ARM_Scales_Auto_v1.0.res" ARM_Scales_Auto_v1.0.rc /l"0x0409" /nologo /fo"Debug\ARM_Scales_Auto_v1.0.res" D:\PROJECTS\PROM-SOFT\OSTROJZKIY_PESHAYNIY_KARYER\ARM_SCALES_AUTO_V1.0.0\ARM_SCALES_AUTO_V1.0.RC
^D:\PROJECTS\OSTROJZKIY_PESHAYNIY_KARYER\ARM_SCALES_AUTO_V1.0.0\ARM_SCALES_AUTO_V1.0.RC
/l"0x0409" /nologo /fo"Debug\ARM_Scales_Auto_v1.0.res" ARM_Scales_Auto_v1.0.rc /l"0x0409" /nologo /fo"Debug\ARM_Scales_Auto_v1.0.res" D:\PROJECTS\OSTROJZKIY_PESHAYNIY_KARYER\ARM_SCALES_AUTO_V1.0.0\ARM_SCALES_AUTO_V1.0.RC
^D:\PROJECTS\PROM-SOFT\OSTROJZKIY_PESHAYNIY_KARYER_PRIZEP\ARM_SCALES_AUTO_V1.0.0\ARM_SCALES_AUTO_V1.0.RC
/l"0x0409" /nologo /fo"Debug\ARM_Scales_Auto_v1.0.res" ARM_Scales_Auto_v1.0.rc /l"0x0409" /nologo /fo"Debug\ARM_Scales_Auto_v1.0.res" D:\PROJECTS\PROM-SOFT\OSTROJZKIY_PESHAYNIY_KARYER_PRIZEP\ARM_SCALES_AUTO_V1.0.0\ARM_SCALES_AUTO_V1.0.RC
^D:\PROJECTS\OSTROJZKIY_PESHAYNIY_KARYER_PRIZEP\ARM_SCALES_AUTO_V1.0.0\ARM_SCALES_AUTO_V1.0.RC
/l"0x0409" /nologo /fo"Debug\ARM_Scales_Auto_v1.0.res" ARM_Scales_Auto_v1.0.rc /l"0x0409" /nologo /fo"Debug\ARM_Scales_Auto_v1.0.res" D:\PROJECTS\OSTROJZKIY_PESHAYNIY_KARYER_PRIZEP\ARM_SCALES_AUTO_V1.0.0\ARM_SCALES_AUTO_V1.0.RC
