^D:\PROJECTS\PROM-SOFT\PROM-SOFT\ARM_SCALES_AUTO_V1.0.0\INCLUDE\REPORTS_RFID.H
C:\QT\4.8.4\BIN\MOC.EXE
^D:\PROJECTS\PROM-SOFT\PROM-SOFT\ARM_SCALES_AUTO_V1.0.0\INCLUDE\MODELS\MAINTABLEMODEL.H
C:\QT\4.8.4\BIN\MOC.EXE
^D:\PROJECTS\PROM-SOFT\PROM-SOFT\ARM_SCALES_AUTO_V1.0.0\INCLUDE\TARADICTIONARYMODEL.H
C:\QT\4.8.4\BIN\MOC.EXE
^D:\PROJECTS\PROM-SOFT\PROM-SOFT\ARM_SCALES_AUTO_V1.0.0\INCLUDE\SERIALPORTCLASS.H
C:\QT\4.8.4\BIN\MOC.EXE
^D:\PROJECTS\PROM-SOFT\PROM-SOFT\ARM_SCALES_AUTO_V1.0.0\INCLUDE\ACCEPTIONFORMS.H
C:\QT\4.8.4\BIN\MOC.EXE
^D:\PROJECTS\PROM-SOFT\PROM-SOFT\ARM_SCALES_AUTO_V1.0.0\INCLUDE\LOGINWINDOW.H
C:\QT\4.8.4\BIN\MOC.EXE
^D:\PROJECTS\PROM-SOFT\PROM-SOFT\ARM_SCALES_AUTO_V1.0.0\INCLUDE\REPORTFORMCLASS.H
C:\QT\4.8.4\BIN\MOC.EXE
^D:\PROJECTS\PROM-SOFT\PROM-SOFT\ARM_SCALES_AUTO_V1.0.0\INCLUDE\DICTIONARYFORM.H
C:\QT\4.8.4\BIN\MOC.EXE
^D:\PROJECTS\PROM-SOFT\PROM-SOFT\ARM_SCALES_AUTO_V1.0.0\INCLUDE\LOGEVENTSFORM.H
C:\QT\4.8.4\BIN\MOC.EXE
^D:\PROJECTS\PROM-SOFT\PROM-SOFT\ARM_SCALES_AUTO_V1.0.0\QTSINGLEAPP\QTLOCALPEER.H
C:\QT\4.8.4\BIN\MOC.EXE
^D:\PROJECTS\PROM-SOFT\PROM-SOFT\ARM_SCALES_AUTO_V1.0.0\QTSINGLEAPP\QTSINGLEAPPLICATION.H
C:\QT\4.8.4\BIN\MOC.EXE
^D:\PROJECTS\PROM-SOFT\PROM-SOFT\ARM_SCALES_AUTO_V1.0.0\QTSINGLEAPP\QTSINGLECOREAPPLICATION.H
C:\QT\4.8.4\BIN\MOC.EXE
^D:\PROJECTS\PROM-SOFT\PROM-SOFT\ARM_SCALES_AUTO_V1.0.0\INCLUDE\FORM_TTN.H
C:\QT\4.8.4\BIN\MOC.EXE
^D:\PROJECTS\PROM-SOFT\PROM-SOFT\ARM_SCALES_AUTO_V1.0.0\INCLUDE\DIALOGVPSENSORS.H
C:\QT\4.8.4\BIN\MOC.EXE
^D:\PROJECTS\PROM-SOFT\PROM-SOFT\ARM_SCALES_AUTO_V1.0.0\INCLUDE\CARDREADERRFID.H
C:\QT\4.8.4\BIN\MOC.EXE
^D:\PROJECTS\PROM-SOFT\PROM-SOFT\ARM_SCALES_AUTO_V1.0.0\INCLUDE\SETTINGS.H
C:\QT\4.8.4\BIN\MOC.EXE
^D:\PROJECTS\PROM-SOFT\PROM-SOFT\ARM_SCALES_AUTO_V1.0.0\INCLUDE\OPTIONALDEVICES.H
C:\QT\4.8.4\BIN\MOC.EXE
^D:\PROJECTS\PROM-SOFT\PROM-SOFT\ARM_SCALES_AUTO_V1.0.0\INCLUDE\NUMBERANDTIMESTAMP.H
C:\QT\4.8.4\BIN\MOC.EXE
^D:\PROJECTS\PROM-SOFT\PROM-SOFT\ARM_SCALES_AUTO_V1.0.0\INCLUDE\SPRAVOCHNIK_TARA.H
C:\QT\4.8.4\BIN\MOC.EXE
^D:\PROJECTS\PROM-SOFT\PROM-SOFT\ARM_SCALES_AUTO_V1.0.0\INCLUDE\OPTIONS.H
C:\QT\4.8.4\BIN\MOC.EXE
^D:\PROJECTS\PROM-SOFT\PROM-SOFT\ARM_SCALES_AUTO_V1.0.0\INCLUDE\HIDDENWEIGHING.H
C:\QT\4.8.4\BIN\MOC.EXE
^D:\PROJECTS\PROM-SOFT\PROM-SOFT\ARM_SCALES_AUTO_V1.0.0\INCLUDE\MAILSEND.H
C:\QT\4.8.4\BIN\MOC.EXE
^D:\PROJECTS\PROM-SOFT\PROM-SOFT\ARM_SCALES_AUTO_V1.0.0\INCLUDE\REGISTRATION_RFID.H
C:\QT\4.8.4\BIN\MOC.EXE
^D:\PROJECTS\PROM-SOFT\PROM-SOFT\ARM_SCALES_AUTO_V1.0.0\INCLUDE\MODELS\REGISTRATIONMODEL.H
C:\QT\4.8.4\BIN\MOC.EXE
^D:\PROJECTS\PROM-SOFT\PROM-SOFT\ARM_SCALES_AUTO_V1.0.0\INCLUDE\MODELS\REPORTSTABLEMODEL.H
C:\QT\4.8.4\BIN\MOC.EXE
^D:\PROJECTS\PROM-SOFT\PROM-SOFT\ARM_SCALES_AUTO_V1.0.0\FORMS\MYCLASS.UI
C:\QT\4.8.4\BIN\UIC.EXE
^D:\PROJECTS\PROM-SOFT\PROM-SOFT\ARM_SCALES_AUTO_V1.0.0\FORMS\OPTIONALDEVICES.UI
C:\QT\4.8.4\BIN\UIC.EXE
^D:\PROJECTS\PROM-SOFT\PROM-SOFT\ARM_SCALES_AUTO_V1.0.0\FORMS\TTN.UI
C:\QT\4.8.4\BIN\UIC.EXE
^D:\PROJECTS\PROM-SOFT\PROM-SOFT\ARM_SCALES_AUTO_V1.0.0\FORMS\SPRAVOCHNIK_TARA.UI
C:\QT\4.8.4\BIN\UIC.EXE
^D:\PROJECTS\PROM-SOFT\PROM-SOFT\ARM_SCALES_AUTO_V1.0.0\FORMS\DIALOGVPSENSORS.UI
C:\QT\4.8.4\BIN\UIC.EXE
^D:\PROJECTS\PROM-SOFT\PROM-SOFT\ARM_SCALES_AUTO_V1.0.0\FORMS\OPTIONS.UI
C:\QT\4.8.4\BIN\UIC.EXE
^D:\PROJECTS\PROM-SOFT\PROM-SOFT\ARM_SCALES_AUTO_V1.0.0\FORMS\HIDDENWEIGHING.UI
C:\QT\4.8.4\BIN\UIC.EXE
^D:\PROJECTS\PROM-SOFT\PROM-SOFT\ARM_SCALES_AUTO_V1.0.0\FORMS\REGISTRATION_RFID.UI
C:\QT\4.8.4\BIN\UIC.EXE
^D:\PROJECTS\PROM-SOFT\PROM-SOFT\ARM_SCALES_AUTO_V1.0.0\FORMS\REPORTS_RFID.UI
C:\QT\4.8.4\BIN\UIC.EXE
^D:\PROJECTS\PROM-SOFT\PROM-SOFT\ARM_SCALES_AUTO_V1.0.0\INCLUDE\MYCLASS.H
C:\QT\4.8.4\BIN\MOC.EXE
^D:\PROJECTS\PROM-SOFT\PROM-SOFT_1\ARM_SCALES_AUTO_V1.0.0\INCLUDE\MODELS\MAINTABLEMODEL.H
C:\QT\4.8.4\BIN\MOC.EXE
^D:\PROJECTS\PROM-SOFT\PROM-SOFT_1\ARM_SCALES_AUTO_V1.0.0\INCLUDE\TARADICTIONARYMODEL.H
C:\QT\4.8.4\BIN\MOC.EXE
^D:\PROJECTS\PROM-SOFT\PROM-SOFT_1\ARM_SCALES_AUTO_V1.0.0\INCLUDE\SERIALPORTCLASS.H
C:\QT\4.8.4\BIN\MOC.EXE
^D:\PROJECTS\PROM-SOFT\PROM-SOFT_1\ARM_SCALES_AUTO_V1.0.0\INCLUDE\ACCEPTIONFORMS.H
C:\QT\4.8.4\BIN\MOC.EXE
^D:\PROJECTS\PROM-SOFT\PROM-SOFT_1\ARM_SCALES_AUTO_V1.0.0\INCLUDE\LOGINWINDOW.H
C:\QT\4.8.4\BIN\MOC.EXE
^D:\PROJECTS\PROM-SOFT\PROM-SOFT_1\ARM_SCALES_AUTO_V1.0.0\INCLUDE\REPORTFORMCLASS.H
C:\QT\4.8.4\BIN\MOC.EXE
^D:\PROJECTS\PROM-SOFT\PROM-SOFT_1\ARM_SCALES_AUTO_V1.0.0\INCLUDE\DICTIONARYFORM.H
C:\QT\4.8.4\BIN\MOC.EXE
^D:\PROJECTS\PROM-SOFT\PROM-SOFT_1\ARM_SCALES_AUTO_V1.0.0\INCLUDE\LOGEVENTSFORM.H
C:\QT\4.8.4\BIN\MOC.EXE
^D:\PROJECTS\PROM-SOFT\PROM-SOFT_1\ARM_SCALES_AUTO_V1.0.0\QTSINGLEAPP\QTLOCALPEER.H
C:\QT\4.8.4\BIN\MOC.EXE
^D:\PROJECTS\PROM-SOFT\PROM-SOFT_1\ARM_SCALES_AUTO_V1.0.0\QTSINGLEAPP\QTSINGLEAPPLICATION.H
C:\QT\4.8.4\BIN\MOC.EXE
^D:\PROJECTS\PROM-SOFT\PROM-SOFT_1\ARM_SCALES_AUTO_V1.0.0\QTSINGLEAPP\QTSINGLECOREAPPLICATION.H
C:\QT\4.8.4\BIN\MOC.EXE
^D:\PROJECTS\PROM-SOFT\PROM-SOFT_1\ARM_SCALES_AUTO_V1.0.0\INCLUDE\FORM_TTN.H
C:\QT\4.8.4\BIN\MOC.EXE
^D:\PROJECTS\PROM-SOFT\PROM-SOFT_1\ARM_SCALES_AUTO_V1.0.0\INCLUDE\DIALOGVPSENSORS.H
C:\QT\4.8.4\BIN\MOC.EXE
^D:\PROJECTS\PROM-SOFT\PROM-SOFT_1\ARM_SCALES_AUTO_V1.0.0\INCLUDE\CARDREADERRFID.H
C:\QT\4.8.4\BIN\MOC.EXE
^D:\PROJECTS\PROM-SOFT\PROM-SOFT_1\ARM_SCALES_AUTO_V1.0.0\INCLUDE\SETTINGS.H
C:\QT\4.8.4\BIN\MOC.EXE
^D:\PROJECTS\PROM-SOFT\PROM-SOFT_1\ARM_SCALES_AUTO_V1.0.0\INCLUDE\OPTIONALDEVICES.H
C:\QT\4.8.4\BIN\MOC.EXE
^D:\PROJECTS\PROM-SOFT\PROM-SOFT_1\ARM_SCALES_AUTO_V1.0.0\INCLUDE\NUMBERANDTIMESTAMP.H
C:\QT\4.8.4\BIN\MOC.EXE
^D:\PROJECTS\PROM-SOFT\PROM-SOFT_1\ARM_SCALES_AUTO_V1.0.0\INCLUDE\SPRAVOCHNIK_TARA.H
C:\QT\4.8.4\BIN\MOC.EXE
^D:\PROJECTS\PROM-SOFT\PROM-SOFT_1\ARM_SCALES_AUTO_V1.0.0\INCLUDE\OPTIONS.H
C:\QT\4.8.4\BIN\MOC.EXE
^D:\PROJECTS\PROM-SOFT\PROM-SOFT_1\ARM_SCALES_AUTO_V1.0.0\INCLUDE\HIDDENWEIGHING.H
C:\QT\4.8.4\BIN\MOC.EXE
^D:\PROJECTS\PROM-SOFT\PROM-SOFT_1\ARM_SCALES_AUTO_V1.0.0\INCLUDE\MAILSEND.H
C:\QT\4.8.4\BIN\MOC.EXE
^D:\PROJECTS\PROM-SOFT\PROM-SOFT_1\ARM_SCALES_AUTO_V1.0.0\INCLUDE\REGISTRATION_RFID.H
C:\QT\4.8.4\BIN\MOC.EXE
^D:\PROJECTS\PROM-SOFT\PROM-SOFT_1\ARM_SCALES_AUTO_V1.0.0\INCLUDE\MODELS\REGISTRATIONMODEL.H
C:\QT\4.8.4\BIN\MOC.EXE
^D:\PROJECTS\PROM-SOFT\PROM-SOFT_1\ARM_SCALES_AUTO_V1.0.0\INCLUDE\MODELS\REPORTSTABLEMODEL.H
C:\QT\4.8.4\BIN\MOC.EXE
^D:\PROJECTS\PROM-SOFT\PROM-SOFT_1\ARM_SCALES_AUTO_V1.0.0\FORMS\MYCLASS.UI
C:\QT\4.8.4\BIN\UIC.EXE
^D:\PROJECTS\PROM-SOFT\PROM-SOFT_1\ARM_SCALES_AUTO_V1.0.0\FORMS\OPTIONALDEVICES.UI
C:\QT\4.8.4\BIN\UIC.EXE
^D:\PROJECTS\PROM-SOFT\PROM-SOFT_1\ARM_SCALES_AUTO_V1.0.0\FORMS\TTN.UI
C:\QT\4.8.4\BIN\UIC.EXE
^D:\PROJECTS\PROM-SOFT\PROM-SOFT_1\ARM_SCALES_AUTO_V1.0.0\FORMS\SPRAVOCHNIK_TARA.UI
C:\QT\4.8.4\BIN\UIC.EXE
^D:\PROJECTS\PROM-SOFT\PROM-SOFT_1\ARM_SCALES_AUTO_V1.0.0\FORMS\DIALOGVPSENSORS.UI
C:\QT\4.8.4\BIN\UIC.EXE
^D:\PROJECTS\PROM-SOFT\PROM-SOFT_1\ARM_SCALES_AUTO_V1.0.0\FORMS\OPTIONS.UI
C:\QT\4.8.4\BIN\UIC.EXE
^D:\PROJECTS\PROM-SOFT\PROM-SOFT_1\ARM_SCALES_AUTO_V1.0.0\FORMS\HIDDENWEIGHING.UI
C:\QT\4.8.4\BIN\UIC.EXE
^D:\PROJECTS\PROM-SOFT\PROM-SOFT_1\ARM_SCALES_AUTO_V1.0.0\FORMS\REGISTRATION_RFID.UI
C:\QT\4.8.4\BIN\UIC.EXE
^D:\PROJECTS\PROM-SOFT\PROM-SOFT_1\ARM_SCALES_AUTO_V1.0.0\FORMS\REPORTS_RFID.UI
C:\QT\4.8.4\BIN\UIC.EXE
^D:\PROJECTS\PROM-SOFT\PROM-SOFT_1\ARM_SCALES_AUTO_V1.0.0\INCLUDE\REPORTS_RFID.H
C:\QT\4.8.4\BIN\MOC.EXE
^D:\PROJECTS\PROM-SOFT\PROM-SOFT_1\ARM_SCALES_AUTO_V1.0.0\INCLUDE\MYCLASS.H
C:\QT\4.8.4\BIN\MOC.EXE
^D:\PROJECTS\PROM-SOFT\PROM-SOFT_1\ARM_SCALES_AUTO_V1.0.0\INCLUDE\DB_DRIVER.H
C:\QT\4.8.4\BIN\MOC.EXE
^D:\PROJECTS\PROM-SOFT\PROM-SOFT\ARM_SCALES_AUTO_V1.0.0\INCLUDE\DB_DRIVER.H
C:\QT\4.8.4\BIN\MOC.EXE
^D:\PROJECTS\PROM-SOFT\OSTROJZKIY_PESHAYNIY_KARYER\ARM_SCALES_AUTO_V1.0.0\INCLUDE\REPORTS_RFID.H
C:\QT\4.8.4\BIN\MOC.EXE
^D:\PROJECTS\PROM-SOFT\OSTROJZKIY_PESHAYNIY_KARYER\ARM_SCALES_AUTO_V1.0.0\INCLUDE\MODELS\MAINTABLEMODEL.H
C:\QT\4.8.4\BIN\MOC.EXE
^D:\PROJECTS\PROM-SOFT\OSTROJZKIY_PESHAYNIY_KARYER\ARM_SCALES_AUTO_V1.0.0\INCLUDE\TARADICTIONARYMODEL.H
C:\QT\4.8.4\BIN\MOC.EXE
^D:\PROJECTS\PROM-SOFT\OSTROJZKIY_PESHAYNIY_KARYER\ARM_SCALES_AUTO_V1.0.0\INCLUDE\MYCLASS.H
C:\QT\4.8.4\BIN\MOC.EXE
^D:\PROJECTS\PROM-SOFT\OSTROJZKIY_PESHAYNIY_KARYER\ARM_SCALES_AUTO_V1.0.0\INCLUDE\SERIALPORTCLASS.H
C:\QT\4.8.4\BIN\MOC.EXE
^D:\PROJECTS\PROM-SOFT\OSTROJZKIY_PESHAYNIY_KARYER\ARM_SCALES_AUTO_V1.0.0\INCLUDE\ACCEPTIONFORMS.H
C:\QT\4.8.4\BIN\MOC.EXE
^D:\PROJECTS\PROM-SOFT\OSTROJZKIY_PESHAYNIY_KARYER\ARM_SCALES_AUTO_V1.0.0\INCLUDE\DB_DRIVER.H
C:\QT\4.8.4\BIN\MOC.EXE
^D:\PROJECTS\PROM-SOFT\OSTROJZKIY_PESHAYNIY_KARYER\ARM_SCALES_AUTO_V1.0.0\INCLUDE\LOGINWINDOW.H
C:\QT\4.8.4\BIN\MOC.EXE
^D:\PROJECTS\PROM-SOFT\OSTROJZKIY_PESHAYNIY_KARYER\ARM_SCALES_AUTO_V1.0.0\INCLUDE\REPORTFORMCLASS.H
C:\QT\4.8.4\BIN\MOC.EXE
^D:\PROJECTS\PROM-SOFT\OSTROJZKIY_PESHAYNIY_KARYER\ARM_SCALES_AUTO_V1.0.0\INCLUDE\DICTIONARYFORM.H
C:\QT\4.8.4\BIN\MOC.EXE
^D:\PROJECTS\PROM-SOFT\OSTROJZKIY_PESHAYNIY_KARYER\ARM_SCALES_AUTO_V1.0.0\INCLUDE\LOGEVENTSFORM.H
C:\QT\4.8.4\BIN\MOC.EXE
^D:\PROJECTS\PROM-SOFT\OSTROJZKIY_PESHAYNIY_KARYER\ARM_SCALES_AUTO_V1.0.0\QTSINGLEAPP\QTLOCALPEER.H
C:\QT\4.8.4\BIN\MOC.EXE
^D:\PROJECTS\PROM-SOFT\OSTROJZKIY_PESHAYNIY_KARYER\ARM_SCALES_AUTO_V1.0.0\QTSINGLEAPP\QTSINGLEAPPLICATION.H
C:\QT\4.8.4\BIN\MOC.EXE
^D:\PROJECTS\PROM-SOFT\OSTROJZKIY_PESHAYNIY_KARYER\ARM_SCALES_AUTO_V1.0.0\QTSINGLEAPP\QTSINGLECOREAPPLICATION.H
C:\QT\4.8.4\BIN\MOC.EXE
^D:\PROJECTS\PROM-SOFT\OSTROJZKIY_PESHAYNIY_KARYER\ARM_SCALES_AUTO_V1.0.0\INCLUDE\FORM_TTN.H
C:\QT\4.8.4\BIN\MOC.EXE
^D:\PROJECTS\PROM-SOFT\OSTROJZKIY_PESHAYNIY_KARYER\ARM_SCALES_AUTO_V1.0.0\INCLUDE\DIALOGVPSENSORS.H
C:\QT\4.8.4\BIN\MOC.EXE
^D:\PROJECTS\PROM-SOFT\OSTROJZKIY_PESHAYNIY_KARYER\ARM_SCALES_AUTO_V1.0.0\INCLUDE\CARDREADERRFID.H
C:\QT\4.8.4\BIN\MOC.EXE
^D:\PROJECTS\PROM-SOFT\OSTROJZKIY_PESHAYNIY_KARYER\ARM_SCALES_AUTO_V1.0.0\INCLUDE\SETTINGS.H
C:\QT\4.8.4\BIN\MOC.EXE
^D:\PROJECTS\PROM-SOFT\OSTROJZKIY_PESHAYNIY_KARYER\ARM_SCALES_AUTO_V1.0.0\INCLUDE\OPTIONALDEVICES.H
C:\QT\4.8.4\BIN\MOC.EXE
^D:\PROJECTS\PROM-SOFT\OSTROJZKIY_PESHAYNIY_KARYER\ARM_SCALES_AUTO_V1.0.0\INCLUDE\NUMBERANDTIMESTAMP.H
C:\QT\4.8.4\BIN\MOC.EXE
^D:\PROJECTS\PROM-SOFT\OSTROJZKIY_PESHAYNIY_KARYER\ARM_SCALES_AUTO_V1.0.0\INCLUDE\SPRAVOCHNIK_TARA.H
C:\QT\4.8.4\BIN\MOC.EXE
^D:\PROJECTS\PROM-SOFT\OSTROJZKIY_PESHAYNIY_KARYER\ARM_SCALES_AUTO_V1.0.0\INCLUDE\HIDDENWEIGHING.H
C:\QT\4.8.4\BIN\MOC.EXE
^D:\PROJECTS\PROM-SOFT\OSTROJZKIY_PESHAYNIY_KARYER\ARM_SCALES_AUTO_V1.0.0\INCLUDE\MAILSEND.H
C:\QT\4.8.4\BIN\MOC.EXE
^D:\PROJECTS\PROM-SOFT\OSTROJZKIY_PESHAYNIY_KARYER\ARM_SCALES_AUTO_V1.0.0\INCLUDE\REGISTRATION_RFID.H
C:\QT\4.8.4\BIN\MOC.EXE
^D:\PROJECTS\PROM-SOFT\OSTROJZKIY_PESHAYNIY_KARYER\ARM_SCALES_AUTO_V1.0.0\INCLUDE\MODELS\REGISTRATIONMODEL.H
C:\QT\4.8.4\BIN\MOC.EXE
^D:\PROJECTS\PROM-SOFT\OSTROJZKIY_PESHAYNIY_KARYER\ARM_SCALES_AUTO_V1.0.0\INCLUDE\MODELS\REPORTSTABLEMODEL.H
C:\QT\4.8.4\BIN\MOC.EXE
^D:\PROJECTS\PROM-SOFT\OSTROJZKIY_PESHAYNIY_KARYER\ARM_SCALES_AUTO_V1.0.0\FORMS\MYCLASS.UI
C:\QT\4.8.4\BIN\UIC.EXE
^D:\PROJECTS\PROM-SOFT\OSTROJZKIY_PESHAYNIY_KARYER\ARM_SCALES_AUTO_V1.0.0\FORMS\OPTIONALDEVICES.UI
C:\QT\4.8.4\BIN\UIC.EXE
^D:\PROJECTS\PROM-SOFT\OSTROJZKIY_PESHAYNIY_KARYER\ARM_SCALES_AUTO_V1.0.0\FORMS\TTN.UI
C:\QT\4.8.4\BIN\UIC.EXE
^D:\PROJECTS\PROM-SOFT\OSTROJZKIY_PESHAYNIY_KARYER\ARM_SCALES_AUTO_V1.0.0\FORMS\SPRAVOCHNIK_TARA.UI
C:\QT\4.8.4\BIN\UIC.EXE
^D:\PROJECTS\PROM-SOFT\OSTROJZKIY_PESHAYNIY_KARYER\ARM_SCALES_AUTO_V1.0.0\FORMS\DIALOGVPSENSORS.UI
C:\QT\4.8.4\BIN\UIC.EXE
^D:\PROJECTS\PROM-SOFT\OSTROJZKIY_PESHAYNIY_KARYER\ARM_SCALES_AUTO_V1.0.0\FORMS\OPTIONS.UI
C:\QT\4.8.4\BIN\UIC.EXE
^D:\PROJECTS\PROM-SOFT\OSTROJZKIY_PESHAYNIY_KARYER\ARM_SCALES_AUTO_V1.0.0\FORMS\HIDDENWEIGHING.UI
C:\QT\4.8.4\BIN\UIC.EXE
^D:\PROJECTS\PROM-SOFT\OSTROJZKIY_PESHAYNIY_KARYER\ARM_SCALES_AUTO_V1.0.0\FORMS\REGISTRATION_RFID.UI
C:\QT\4.8.4\BIN\UIC.EXE
^D:\PROJECTS\PROM-SOFT\OSTROJZKIY_PESHAYNIY_KARYER\ARM_SCALES_AUTO_V1.0.0\FORMS\REPORTS_RFID.UI
C:\QT\4.8.4\BIN\UIC.EXE
^D:\PROJECTS\PROM-SOFT\OSTROJZKIY_PESHAYNIY_KARYER\ARM_SCALES_AUTO_V1.0.0\INCLUDE\OPTIONS.H
C:\QT\4.8.4\BIN\MOC.EXE
^D:\PROJECTS\OSTROJZKIY_PESHAYNIY_KARYER\ARM_SCALES_AUTO_V1.0.0\INCLUDE\REPORTS_RFID.H
C:\QT\4.8.4\BIN\MOC.EXE
^D:\PROJECTS\OSTROJZKIY_PESHAYNIY_KARYER\ARM_SCALES_AUTO_V1.0.0\INCLUDE\MODELS\MAINTABLEMODEL.H
C:\QT\4.8.4\BIN\MOC.EXE
^D:\PROJECTS\OSTROJZKIY_PESHAYNIY_KARYER\ARM_SCALES_AUTO_V1.0.0\INCLUDE\TARADICTIONARYMODEL.H
C:\QT\4.8.4\BIN\MOC.EXE
^D:\PROJECTS\OSTROJZKIY_PESHAYNIY_KARYER\ARM_SCALES_AUTO_V1.0.0\INCLUDE\MYCLASS.H
C:\QT\4.8.4\BIN\MOC.EXE
^D:\PROJECTS\OSTROJZKIY_PESHAYNIY_KARYER\ARM_SCALES_AUTO_V1.0.0\INCLUDE\SERIALPORTCLASS.H
C:\QT\4.8.4\BIN\MOC.EXE
^D:\PROJECTS\OSTROJZKIY_PESHAYNIY_KARYER\ARM_SCALES_AUTO_V1.0.0\INCLUDE\DB_DRIVER.H
C:\QT\4.8.4\BIN\MOC.EXE
^D:\PROJECTS\OSTROJZKIY_PESHAYNIY_KARYER\ARM_SCALES_AUTO_V1.0.0\INCLUDE\LOGINWINDOW.H
C:\QT\4.8.4\BIN\MOC.EXE
^D:\PROJECTS\OSTROJZKIY_PESHAYNIY_KARYER\ARM_SCALES_AUTO_V1.0.0\INCLUDE\REPORTFORMCLASS.H
C:\QT\4.8.4\BIN\MOC.EXE
^D:\PROJECTS\OSTROJZKIY_PESHAYNIY_KARYER\ARM_SCALES_AUTO_V1.0.0\INCLUDE\LOGEVENTSFORM.H
C:\QT\4.8.4\BIN\MOC.EXE
^D:\PROJECTS\OSTROJZKIY_PESHAYNIY_KARYER\ARM_SCALES_AUTO_V1.0.0\QTSINGLEAPP\QTLOCALPEER.H
C:\QT\4.8.4\BIN\MOC.EXE
^D:\PROJECTS\OSTROJZKIY_PESHAYNIY_KARYER\ARM_SCALES_AUTO_V1.0.0\QTSINGLEAPP\QTSINGLEAPPLICATION.H
C:\QT\4.8.4\BIN\MOC.EXE
^D:\PROJECTS\OSTROJZKIY_PESHAYNIY_KARYER\ARM_SCALES_AUTO_V1.0.0\QTSINGLEAPP\QTSINGLECOREAPPLICATION.H
C:\QT\4.8.4\BIN\MOC.EXE
^D:\PROJECTS\OSTROJZKIY_PESHAYNIY_KARYER\ARM_SCALES_AUTO_V1.0.0\INCLUDE\FORM_TTN.H
C:\QT\4.8.4\BIN\MOC.EXE
^D:\PROJECTS\OSTROJZKIY_PESHAYNIY_KARYER\ARM_SCALES_AUTO_V1.0.0\INCLUDE\DIALOGVPSENSORS.H
C:\QT\4.8.4\BIN\MOC.EXE
^D:\PROJECTS\OSTROJZKIY_PESHAYNIY_KARYER\ARM_SCALES_AUTO_V1.0.0\INCLUDE\CARDREADERRFID.H
C:\QT\4.8.4\BIN\MOC.EXE
^D:\PROJECTS\OSTROJZKIY_PESHAYNIY_KARYER\ARM_SCALES_AUTO_V1.0.0\INCLUDE\SETTINGS.H
C:\QT\4.8.4\BIN\MOC.EXE
^D:\PROJECTS\OSTROJZKIY_PESHAYNIY_KARYER\ARM_SCALES_AUTO_V1.0.0\INCLUDE\OPTIONALDEVICES.H
C:\QT\4.8.4\BIN\MOC.EXE
^D:\PROJECTS\OSTROJZKIY_PESHAYNIY_KARYER\ARM_SCALES_AUTO_V1.0.0\INCLUDE\NUMBERANDTIMESTAMP.H
C:\QT\4.8.4\BIN\MOC.EXE
^D:\PROJECTS\OSTROJZKIY_PESHAYNIY_KARYER\ARM_SCALES_AUTO_V1.0.0\INCLUDE\SPRAVOCHNIK_TARA.H
C:\QT\4.8.4\BIN\MOC.EXE
^D:\PROJECTS\OSTROJZKIY_PESHAYNIY_KARYER\ARM_SCALES_AUTO_V1.0.0\INCLUDE\OPTIONS.H
C:\QT\4.8.4\BIN\MOC.EXE
^D:\PROJECTS\OSTROJZKIY_PESHAYNIY_KARYER\ARM_SCALES_AUTO_V1.0.0\INCLUDE\HIDDENWEIGHING.H
C:\QT\4.8.4\BIN\MOC.EXE
^D:\PROJECTS\OSTROJZKIY_PESHAYNIY_KARYER\ARM_SCALES_AUTO_V1.0.0\INCLUDE\MAILSEND.H
C:\QT\4.8.4\BIN\MOC.EXE
^D:\PROJECTS\OSTROJZKIY_PESHAYNIY_KARYER\ARM_SCALES_AUTO_V1.0.0\INCLUDE\REGISTRATION_RFID.H
C:\QT\4.8.4\BIN\MOC.EXE
^D:\PROJECTS\OSTROJZKIY_PESHAYNIY_KARYER\ARM_SCALES_AUTO_V1.0.0\INCLUDE\MODELS\REGISTRATIONMODEL.H
C:\QT\4.8.4\BIN\MOC.EXE
^D:\PROJECTS\OSTROJZKIY_PESHAYNIY_KARYER\ARM_SCALES_AUTO_V1.0.0\INCLUDE\MODELS\REPORTSTABLEMODEL.H
C:\QT\4.8.4\BIN\MOC.EXE
^D:\PROJECTS\OSTROJZKIY_PESHAYNIY_KARYER\ARM_SCALES_AUTO_V1.0.0\FORMS\MYCLASS.UI
C:\QT\4.8.4\BIN\UIC.EXE
^D:\PROJECTS\OSTROJZKIY_PESHAYNIY_KARYER\ARM_SCALES_AUTO_V1.0.0\FORMS\OPTIONALDEVICES.UI
C:\QT\4.8.4\BIN\UIC.EXE
^D:\PROJECTS\OSTROJZKIY_PESHAYNIY_KARYER\ARM_SCALES_AUTO_V1.0.0\FORMS\TTN.UI
C:\QT\4.8.4\BIN\UIC.EXE
^D:\PROJECTS\OSTROJZKIY_PESHAYNIY_KARYER\ARM_SCALES_AUTO_V1.0.0\FORMS\SPRAVOCHNIK_TARA.UI
C:\QT\4.8.4\BIN\UIC.EXE
^D:\PROJECTS\OSTROJZKIY_PESHAYNIY_KARYER\ARM_SCALES_AUTO_V1.0.0\FORMS\DIALOGVPSENSORS.UI
C:\QT\4.8.4\BIN\UIC.EXE
^D:\PROJECTS\OSTROJZKIY_PESHAYNIY_KARYER\ARM_SCALES_AUTO_V1.0.0\FORMS\OPTIONS.UI
C:\QT\4.8.4\BIN\UIC.EXE
^D:\PROJECTS\OSTROJZKIY_PESHAYNIY_KARYER\ARM_SCALES_AUTO_V1.0.0\FORMS\HIDDENWEIGHING.UI
C:\QT\4.8.4\BIN\UIC.EXE
^D:\PROJECTS\OSTROJZKIY_PESHAYNIY_KARYER\ARM_SCALES_AUTO_V1.0.0\FORMS\REGISTRATION_RFID.UI
C:\QT\4.8.4\BIN\UIC.EXE
^D:\PROJECTS\OSTROJZKIY_PESHAYNIY_KARYER\ARM_SCALES_AUTO_V1.0.0\FORMS\REPORTS_RFID.UI
C:\QT\4.8.4\BIN\UIC.EXE
^D:\PROJECTS\OSTROJZKIY_PESHAYNIY_KARYER\ARM_SCALES_AUTO_V1.0.0\INCLUDE\DICTIONARYFORM.H
C:\QT\4.8.4\BIN\MOC.EXE
^D:\PROJECTS\OSTROJZKIY_PESHAYNIY_KARYER\ARM_SCALES_AUTO_V1.0.0\INCLUDE\ACCEPTIONFORMS.H
C:\QT\4.8.4\BIN\MOC.EXE
^D:\PROJECTS\PROM-SOFT\OSTROJZKIY_PESHAYNIY_KARYER_PRIZEP\ARM_SCALES_AUTO_V1.0.0\INCLUDE\REPORTS_RFID.H
C:\QT\4.8.4\BIN\MOC.EXE
^D:\PROJECTS\PROM-SOFT\OSTROJZKIY_PESHAYNIY_KARYER_PRIZEP\ARM_SCALES_AUTO_V1.0.0\INCLUDE\MODELS\MAINTABLEMODEL.H
C:\QT\4.8.4\BIN\MOC.EXE
^D:\PROJECTS\PROM-SOFT\OSTROJZKIY_PESHAYNIY_KARYER_PRIZEP\ARM_SCALES_AUTO_V1.0.0\INCLUDE\TARADICTIONARYMODEL.H
C:\QT\4.8.4\BIN\MOC.EXE
^D:\PROJECTS\PROM-SOFT\OSTROJZKIY_PESHAYNIY_KARYER_PRIZEP\ARM_SCALES_AUTO_V1.0.0\INCLUDE\MYCLASS.H
C:\QT\4.8.4\BIN\MOC.EXE
^D:\PROJECTS\PROM-SOFT\OSTROJZKIY_PESHAYNIY_KARYER_PRIZEP\ARM_SCALES_AUTO_V1.0.0\INCLUDE\SERIALPORTCLASS.H
C:\QT\4.8.4\BIN\MOC.EXE
^D:\PROJECTS\PROM-SOFT\OSTROJZKIY_PESHAYNIY_KARYER_PRIZEP\ARM_SCALES_AUTO_V1.0.0\INCLUDE\ACCEPTIONFORMS.H
C:\QT\4.8.4\BIN\MOC.EXE
^D:\PROJECTS\PROM-SOFT\OSTROJZKIY_PESHAYNIY_KARYER_PRIZEP\ARM_SCALES_AUTO_V1.0.0\INCLUDE\DB_DRIVER.H
C:\QT\4.8.4\BIN\MOC.EXE
^D:\PROJECTS\PROM-SOFT\OSTROJZKIY_PESHAYNIY_KARYER_PRIZEP\ARM_SCALES_AUTO_V1.0.0\INCLUDE\LOGINWINDOW.H
C:\QT\4.8.4\BIN\MOC.EXE
^D:\PROJECTS\PROM-SOFT\OSTROJZKIY_PESHAYNIY_KARYER_PRIZEP\ARM_SCALES_AUTO_V1.0.0\INCLUDE\REPORTFORMCLASS.H
C:\QT\4.8.4\BIN\MOC.EXE
^D:\PROJECTS\PROM-SOFT\OSTROJZKIY_PESHAYNIY_KARYER_PRIZEP\ARM_SCALES_AUTO_V1.0.0\INCLUDE\DICTIONARYFORM.H
C:\QT\4.8.4\BIN\MOC.EXE
^D:\PROJECTS\PROM-SOFT\OSTROJZKIY_PESHAYNIY_KARYER_PRIZEP\ARM_SCALES_AUTO_V1.0.0\INCLUDE\LOGEVENTSFORM.H
C:\QT\4.8.4\BIN\MOC.EXE
^D:\PROJECTS\PROM-SOFT\OSTROJZKIY_PESHAYNIY_KARYER_PRIZEP\ARM_SCALES_AUTO_V1.0.0\QTSINGLEAPP\QTLOCALPEER.H
C:\QT\4.8.4\BIN\MOC.EXE
^D:\PROJECTS\PROM-SOFT\OSTROJZKIY_PESHAYNIY_KARYER_PRIZEP\ARM_SCALES_AUTO_V1.0.0\QTSINGLEAPP\QTSINGLEAPPLICATION.H
C:\QT\4.8.4\BIN\MOC.EXE
^D:\PROJECTS\PROM-SOFT\OSTROJZKIY_PESHAYNIY_KARYER_PRIZEP\ARM_SCALES_AUTO_V1.0.0\QTSINGLEAPP\QTSINGLECOREAPPLICATION.H
C:\QT\4.8.4\BIN\MOC.EXE
^D:\PROJECTS\PROM-SOFT\OSTROJZKIY_PESHAYNIY_KARYER_PRIZEP\ARM_SCALES_AUTO_V1.0.0\INCLUDE\FORM_TTN.H
C:\QT\4.8.4\BIN\MOC.EXE
^D:\PROJECTS\PROM-SOFT\OSTROJZKIY_PESHAYNIY_KARYER_PRIZEP\ARM_SCALES_AUTO_V1.0.0\INCLUDE\DIALOGVPSENSORS.H
C:\QT\4.8.4\BIN\MOC.EXE
^D:\PROJECTS\PROM-SOFT\OSTROJZKIY_PESHAYNIY_KARYER_PRIZEP\ARM_SCALES_AUTO_V1.0.0\INCLUDE\CARDREADERRFID.H
C:\QT\4.8.4\BIN\MOC.EXE
^D:\PROJECTS\PROM-SOFT\OSTROJZKIY_PESHAYNIY_KARYER_PRIZEP\ARM_SCALES_AUTO_V1.0.0\INCLUDE\SETTINGS.H
C:\QT\4.8.4\BIN\MOC.EXE
^D:\PROJECTS\PROM-SOFT\OSTROJZKIY_PESHAYNIY_KARYER_PRIZEP\ARM_SCALES_AUTO_V1.0.0\INCLUDE\OPTIONALDEVICES.H
C:\QT\4.8.4\BIN\MOC.EXE
^D:\PROJECTS\PROM-SOFT\OSTROJZKIY_PESHAYNIY_KARYER_PRIZEP\ARM_SCALES_AUTO_V1.0.0\INCLUDE\NUMBERANDTIMESTAMP.H
C:\QT\4.8.4\BIN\MOC.EXE
^D:\PROJECTS\PROM-SOFT\OSTROJZKIY_PESHAYNIY_KARYER_PRIZEP\ARM_SCALES_AUTO_V1.0.0\INCLUDE\SPRAVOCHNIK_TARA.H
C:\QT\4.8.4\BIN\MOC.EXE
^D:\PROJECTS\PROM-SOFT\OSTROJZKIY_PESHAYNIY_KARYER_PRIZEP\ARM_SCALES_AUTO_V1.0.0\INCLUDE\OPTIONS.H
C:\QT\4.8.4\BIN\MOC.EXE
^D:\PROJECTS\PROM-SOFT\OSTROJZKIY_PESHAYNIY_KARYER_PRIZEP\ARM_SCALES_AUTO_V1.0.0\INCLUDE\HIDDENWEIGHING.H
C:\QT\4.8.4\BIN\MOC.EXE
^D:\PROJECTS\PROM-SOFT\OSTROJZKIY_PESHAYNIY_KARYER_PRIZEP\ARM_SCALES_AUTO_V1.0.0\INCLUDE\MAILSEND.H
C:\QT\4.8.4\BIN\MOC.EXE
^D:\PROJECTS\PROM-SOFT\OSTROJZKIY_PESHAYNIY_KARYER_PRIZEP\ARM_SCALES_AUTO_V1.0.0\INCLUDE\REGISTRATION_RFID.H
C:\QT\4.8.4\BIN\MOC.EXE
^D:\PROJECTS\PROM-SOFT\OSTROJZKIY_PESHAYNIY_KARYER_PRIZEP\ARM_SCALES_AUTO_V1.0.0\INCLUDE\MODELS\REGISTRATIONMODEL.H
C:\QT\4.8.4\BIN\MOC.EXE
^D:\PROJECTS\PROM-SOFT\OSTROJZKIY_PESHAYNIY_KARYER_PRIZEP\ARM_SCALES_AUTO_V1.0.0\INCLUDE\MODELS\REPORTSTABLEMODEL.H
C:\QT\4.8.4\BIN\MOC.EXE
^D:\PROJECTS\PROM-SOFT\OSTROJZKIY_PESHAYNIY_KARYER_PRIZEP\ARM_SCALES_AUTO_V1.0.0\FORMS\MYCLASS.UI
C:\QT\4.8.4\BIN\UIC.EXE
^D:\PROJECTS\PROM-SOFT\OSTROJZKIY_PESHAYNIY_KARYER_PRIZEP\ARM_SCALES_AUTO_V1.0.0\FORMS\OPTIONALDEVICES.UI
C:\QT\4.8.4\BIN\UIC.EXE
^D:\PROJECTS\PROM-SOFT\OSTROJZKIY_PESHAYNIY_KARYER_PRIZEP\ARM_SCALES_AUTO_V1.0.0\FORMS\TTN.UI
C:\QT\4.8.4\BIN\UIC.EXE
^D:\PROJECTS\PROM-SOFT\OSTROJZKIY_PESHAYNIY_KARYER_PRIZEP\ARM_SCALES_AUTO_V1.0.0\FORMS\SPRAVOCHNIK_TARA.UI
C:\QT\4.8.4\BIN\UIC.EXE
^D:\PROJECTS\PROM-SOFT\OSTROJZKIY_PESHAYNIY_KARYER_PRIZEP\ARM_SCALES_AUTO_V1.0.0\FORMS\DIALOGVPSENSORS.UI
C:\QT\4.8.4\BIN\UIC.EXE
^D:\PROJECTS\PROM-SOFT\OSTROJZKIY_PESHAYNIY_KARYER_PRIZEP\ARM_SCALES_AUTO_V1.0.0\FORMS\OPTIONS.UI
C:\QT\4.8.4\BIN\UIC.EXE
^D:\PROJECTS\PROM-SOFT\OSTROJZKIY_PESHAYNIY_KARYER_PRIZEP\ARM_SCALES_AUTO_V1.0.0\FORMS\HIDDENWEIGHING.UI
C:\QT\4.8.4\BIN\UIC.EXE
^D:\PROJECTS\PROM-SOFT\OSTROJZKIY_PESHAYNIY_KARYER_PRIZEP\ARM_SCALES_AUTO_V1.0.0\FORMS\REGISTRATION_RFID.UI
C:\QT\4.8.4\BIN\UIC.EXE
^D:\PROJECTS\PROM-SOFT\OSTROJZKIY_PESHAYNIY_KARYER_PRIZEP\ARM_SCALES_AUTO_V1.0.0\FORMS\REPORTS_RFID.UI
C:\QT\4.8.4\BIN\UIC.EXE
^D:\PROJECTS\OSTROJZKIY_PESHAYNIY_KARYER_PRIZEP\ARM_SCALES_AUTO_V1.0.0\INCLUDE\REPORTS_RFID.H
C:\QT\4.8.4\BIN\MOC.EXE
^D:\PROJECTS\OSTROJZKIY_PESHAYNIY_KARYER_PRIZEP\ARM_SCALES_AUTO_V1.0.0\INCLUDE\MODELS\MAINTABLEMODEL.H
C:\QT\4.8.4\BIN\MOC.EXE
^D:\PROJECTS\OSTROJZKIY_PESHAYNIY_KARYER_PRIZEP\ARM_SCALES_AUTO_V1.0.0\INCLUDE\TARADICTIONARYMODEL.H
C:\QT\4.8.4\BIN\MOC.EXE
^D:\PROJECTS\OSTROJZKIY_PESHAYNIY_KARYER_PRIZEP\ARM_SCALES_AUTO_V1.0.0\INCLUDE\MYCLASS.H
C:\QT\4.8.4\BIN\MOC.EXE
^D:\PROJECTS\OSTROJZKIY_PESHAYNIY_KARYER_PRIZEP\ARM_SCALES_AUTO_V1.0.0\INCLUDE\SERIALPORTCLASS.H
C:\QT\4.8.4\BIN\MOC.EXE
^D:\PROJECTS\OSTROJZKIY_PESHAYNIY_KARYER_PRIZEP\ARM_SCALES_AUTO_V1.0.0\INCLUDE\ACCEPTIONFORMS.H
C:\QT\4.8.4\BIN\MOC.EXE
^D:\PROJECTS\OSTROJZKIY_PESHAYNIY_KARYER_PRIZEP\ARM_SCALES_AUTO_V1.0.0\INCLUDE\DB_DRIVER.H
C:\QT\4.8.4\BIN\MOC.EXE
^D:\PROJECTS\OSTROJZKIY_PESHAYNIY_KARYER_PRIZEP\ARM_SCALES_AUTO_V1.0.0\INCLUDE\LOGINWINDOW.H
C:\QT\4.8.4\BIN\MOC.EXE
^D:\PROJECTS\OSTROJZKIY_PESHAYNIY_KARYER_PRIZEP\ARM_SCALES_AUTO_V1.0.0\INCLUDE\REPORTFORMCLASS.H
C:\QT\4.8.4\BIN\MOC.EXE
^D:\PROJECTS\OSTROJZKIY_PESHAYNIY_KARYER_PRIZEP\ARM_SCALES_AUTO_V1.0.0\INCLUDE\DICTIONARYFORM.H
C:\QT\4.8.4\BIN\MOC.EXE
^D:\PROJECTS\OSTROJZKIY_PESHAYNIY_KARYER_PRIZEP\ARM_SCALES_AUTO_V1.0.0\INCLUDE\LOGEVENTSFORM.H
C:\QT\4.8.4\BIN\MOC.EXE
^D:\PROJECTS\OSTROJZKIY_PESHAYNIY_KARYER_PRIZEP\ARM_SCALES_AUTO_V1.0.0\QTSINGLEAPP\QTLOCALPEER.H
C:\QT\4.8.4\BIN\MOC.EXE
^D:\PROJECTS\OSTROJZKIY_PESHAYNIY_KARYER_PRIZEP\ARM_SCALES_AUTO_V1.0.0\QTSINGLEAPP\QTSINGLEAPPLICATION.H
C:\QT\4.8.4\BIN\MOC.EXE
^D:\PROJECTS\OSTROJZKIY_PESHAYNIY_KARYER_PRIZEP\ARM_SCALES_AUTO_V1.0.0\QTSINGLEAPP\QTSINGLECOREAPPLICATION.H
C:\QT\4.8.4\BIN\MOC.EXE
^D:\PROJECTS\OSTROJZKIY_PESHAYNIY_KARYER_PRIZEP\ARM_SCALES_AUTO_V1.0.0\INCLUDE\FORM_TTN.H
C:\QT\4.8.4\BIN\MOC.EXE
^D:\PROJECTS\OSTROJZKIY_PESHAYNIY_KARYER_PRIZEP\ARM_SCALES_AUTO_V1.0.0\INCLUDE\DIALOGVPSENSORS.H
C:\QT\4.8.4\BIN\MOC.EXE
^D:\PROJECTS\OSTROJZKIY_PESHAYNIY_KARYER_PRIZEP\ARM_SCALES_AUTO_V1.0.0\INCLUDE\CARDREADERRFID.H
C:\QT\4.8.4\BIN\MOC.EXE
^D:\PROJECTS\OSTROJZKIY_PESHAYNIY_KARYER_PRIZEP\ARM_SCALES_AUTO_V1.0.0\INCLUDE\SETTINGS.H
C:\QT\4.8.4\BIN\MOC.EXE
^D:\PROJECTS\OSTROJZKIY_PESHAYNIY_KARYER_PRIZEP\ARM_SCALES_AUTO_V1.0.0\INCLUDE\OPTIONALDEVICES.H
C:\QT\4.8.4\BIN\MOC.EXE
^D:\PROJECTS\OSTROJZKIY_PESHAYNIY_KARYER_PRIZEP\ARM_SCALES_AUTO_V1.0.0\INCLUDE\NUMBERANDTIMESTAMP.H
C:\QT\4.8.4\BIN\MOC.EXE
^D:\PROJECTS\OSTROJZKIY_PESHAYNIY_KARYER_PRIZEP\ARM_SCALES_AUTO_V1.0.0\INCLUDE\SPRAVOCHNIK_TARA.H
C:\QT\4.8.4\BIN\MOC.EXE
^D:\PROJECTS\OSTROJZKIY_PESHAYNIY_KARYER_PRIZEP\ARM_SCALES_AUTO_V1.0.0\INCLUDE\OPTIONS.H
C:\QT\4.8.4\BIN\MOC.EXE
^D:\PROJECTS\OSTROJZKIY_PESHAYNIY_KARYER_PRIZEP\ARM_SCALES_AUTO_V1.0.0\INCLUDE\HIDDENWEIGHING.H
C:\QT\4.8.4\BIN\MOC.EXE
^D:\PROJECTS\OSTROJZKIY_PESHAYNIY_KARYER_PRIZEP\ARM_SCALES_AUTO_V1.0.0\INCLUDE\MAILSEND.H
C:\QT\4.8.4\BIN\MOC.EXE
^D:\PROJECTS\OSTROJZKIY_PESHAYNIY_KARYER_PRIZEP\ARM_SCALES_AUTO_V1.0.0\INCLUDE\REGISTRATION_RFID.H
C:\QT\4.8.4\BIN\MOC.EXE
^D:\PROJECTS\OSTROJZKIY_PESHAYNIY_KARYER_PRIZEP\ARM_SCALES_AUTO_V1.0.0\INCLUDE\MODELS\REGISTRATIONMODEL.H
C:\QT\4.8.4\BIN\MOC.EXE
^D:\PROJECTS\OSTROJZKIY_PESHAYNIY_KARYER_PRIZEP\ARM_SCALES_AUTO_V1.0.0\INCLUDE\MODELS\REPORTSTABLEMODEL.H
C:\QT\4.8.4\BIN\MOC.EXE
^D:\PROJECTS\OSTROJZKIY_PESHAYNIY_KARYER_PRIZEP\ARM_SCALES_AUTO_V1.0.0\FORMS\MYCLASS.UI
C:\QT\4.8.4\BIN\UIC.EXE
^D:\PROJECTS\OSTROJZKIY_PESHAYNIY_KARYER_PRIZEP\ARM_SCALES_AUTO_V1.0.0\FORMS\OPTIONALDEVICES.UI
C:\QT\4.8.4\BIN\UIC.EXE
^D:\PROJECTS\OSTROJZKIY_PESHAYNIY_KARYER_PRIZEP\ARM_SCALES_AUTO_V1.0.0\FORMS\TTN.UI
C:\QT\4.8.4\BIN\UIC.EXE
^D:\PROJECTS\OSTROJZKIY_PESHAYNIY_KARYER_PRIZEP\ARM_SCALES_AUTO_V1.0.0\FORMS\SPRAVOCHNIK_TARA.UI
C:\QT\4.8.4\BIN\UIC.EXE
^D:\PROJECTS\OSTROJZKIY_PESHAYNIY_KARYER_PRIZEP\ARM_SCALES_AUTO_V1.0.0\FORMS\DIALOGVPSENSORS.UI
C:\QT\4.8.4\BIN\UIC.EXE
^D:\PROJECTS\OSTROJZKIY_PESHAYNIY_KARYER_PRIZEP\ARM_SCALES_AUTO_V1.0.0\FORMS\OPTIONS.UI
C:\QT\4.8.4\BIN\UIC.EXE
^D:\PROJECTS\OSTROJZKIY_PESHAYNIY_KARYER_PRIZEP\ARM_SCALES_AUTO_V1.0.0\FORMS\HIDDENWEIGHING.UI
C:\QT\4.8.4\BIN\UIC.EXE
^D:\PROJECTS\OSTROJZKIY_PESHAYNIY_KARYER_PRIZEP\ARM_SCALES_AUTO_V1.0.0\FORMS\REGISTRATION_RFID.UI
C:\QT\4.8.4\BIN\UIC.EXE
^D:\PROJECTS\OSTROJZKIY_PESHAYNIY_KARYER_PRIZEP\ARM_SCALES_AUTO_V1.0.0\FORMS\REPORTS_RFID.UI
C:\QT\4.8.4\BIN\UIC.EXE
